0.03125,83.06729152252586,-11.925902410620829
0.09375,82.83323209904755,-12.065645140893988
0.15625,82.36551527110582,-12.344316395932205
0.21875,81.66495643884915,-12.760285356243463
0.28125,80.73280650353857,-13.31110014093456
0.3437500000000001,79.57078356467318,-13.993482038862672
0.40624999999999994,78.18111249142066,-14.803319441893294
0.46875,76.56657022178179,-15.735662749765357
0.53125,74.7305342980718,-16.784721687111134
0.59375,72.67703191732495,-17.943866558533724
0.65625,70.41078667087464,-19.205634961212176
0.7187500000000001,67.9372601736463,-20.561745375217285
0.78125,65.26268593968109,-22.003118863632338
0.84375,62.39409313921658,-23.519909846662763
0.90625,59.33931826179536,-25.10154657964706
0.96875,56.10700319182311,-26.736781581494412
