0.03125,71.74946821943084,-18.02309995022134
0.09375,71.54268627213641,-18.122413477143038
0.15625,71.12969347459568,-18.320316545139562
0.21875,70.51163158088087,-18.61536434608468
0.28125,69.6902120680644,-19.005397580700645
0.3437500000000001,68.66771460292507,-19.487551964099882
0.40624999999999994,67.44698475804613,-20.05827091326302
0.46875,66.03143078744989,-20.71332142153089
0.53125,64.42501924290953,-21.44781311890611
0.59375,62.63226919411994,-22.256220506365878
0.65625,60.658244810025046,-23.132408337282634
0.7187500000000001,58.50854606524946,-24.069660099538225
0.78125,56.18929735467348,-25.06070952839921
0.84375,53.707133830030585,-26.097775053378374
0.90625,51.069185313784175,-27.172597053071698
0.96875,48.283057695743125,-28.276477761459038
