0.03125,53.379209309810925,-24.935060829687508
0.09375,53.224943512696626,-24.975561245741666
0.15625,52.916857514240405,-25.05611955177635
0.21875,52.455841229477116,-25.17585292061318
0.28125,51.843226342857214,-25.333442664567286
0.3437500000000001,51.08078249142392,-25.527140873036146
0.40624999999999994,50.17071219059071,-25.754779219220598
0.46875,49.11564451534911,-26.013779899021106
0.53125,47.91862755303739,-26.301168656210322
0.59375,46.58311964715252,-26.613589839239012
0.65625,45.112979455088514,-26.94732342652077
0.7187500000000001,43.512454846130495,-27.29830394879805
0.78125,41.78617066951307,-27.66214122925048
0.84375,39.939115425848456,-28.034142854399953
0.90625,37.97662687872547,-28.409338281622045
0.96875,35.904376646745,-28.782504482220574
