0.0019531249999999807,99.09793573443535,-0.7658261796284784
0.005859374999999951,99.09756966038013,-0.7661302857558763
0.009765624999999972,99.09683741730713,-0.7667385725905445
0.013671874999999983,99.09573881529082,-0.7676511892897971
0.01757812499999995,99.09427356944214,-0.768868359583523
0.021484374999999965,99.09244129990756,-0.7703903817668657
0.025390624999999986,99.09024153186783,-0.7722176286904328
0.029296875,99.08767369553654,-0.7743505477480022
0.03320312499999997,99.08473712615846,-0.7767896608616947
0.037109374999999944,99.08143106400777,-0.7795355644645661
0.04101562499999997,99.07775465438613,-0.7825889294805731
0.04492187500000002,99.0737069476207,-0.7859505013018552
0.04882812499999995,99.06928689906242,-0.7896210997632686
0.05273437499999997,99.06449336908405,-0.793601619114105
0.056640625,99.05932512307879,-0.7978930279869135
0.06054687499999995,99.05378083145898,-0.8024963693633467
0.064453125,99.04785906965532,-0.8074127605369359
0.068359375,99.04155831811661,-0.8126433930727011
0.072265625,99.03487696231014,-0.8181895327634885
0.07617187499999992,99.02781329272284,-0.8240525195829269
0.08007812499999996,99.02036550486345,-0.8302337676348831
0.08398437499999992,99.01253169926561,-0.8367347650992919
0.08789062499999996,99.00430988149233,-0.8435570741742318
0.09179687500000001,98.99569796214176,-0.8507023310141044
0.09570312499999988,98.98669375685448,-0.8581722456637776
0.09960937499999997,98.97729498632266,-0.8659686019885402
0.10351562500000007,98.96749927630096,-0.8740932575997067
0.107421875,98.95730415761969,-0.8825481437757167
0.11132812499999996,98.94670706620016,-0.891335265378553
0.11523437499999989,98.93570534307267,-0.9004567007653037
0.11914062500000011,98.92429623439706,-0.9099146016946875
0.123046875,98.9124768914864,-0.9197111932283498
0.12695312500000003,98.90024437083372,-0.9298487736267459
0.1308593749999999,98.88759563414214,-0.9403297142393936
0.13476562500000008,98.87452754835887,-0.9511564593893096
0.13867187499999997,98.8610368857128,-0.9623315262513965
0.1425781249999998,98.84712032375654,-0.9738575047245861
0.14648437500000006,98.8327744454127,-0.9857370572974956
0.1503906250000001,98.81799573902495,-0.9979729189073757
0.15429687499999986,98.80278059841409,-1.0105678967921248
0.15820312499999994,98.78712532293926,-1.0235248703351205
0.1621093749999999,98.77102611756483,-1.036846790902619
0.16601562499999994,98.75447909293308,-1.0505366816734938
0.16992187500000006,98.737480265443,-1.0645976374610344
0.17382812500000003,98.72002555733557,-1.079032824526566
0.17773437500000017,98.70211079678587,-1.0938454803846156
0.18164062499999975,98.6837317180022,-1.1090389135993552
0.185546875,98.66488396133268,-1.1246165035720679
0.18945312499999983,98.64556307337952,-1.1405817003193162
0.19335937499999978,98.62576450712149,-1.1569380242415956
0.19726562500000033,98.60548362204474,-1.173689065882128
0.201171875,98.58471568428249,-1.190838485675529
0.20507812499999986,98.56345586676365,-1.2083900136860881
0.20898437500000017,98.54169924937122,-1.2263474493352993
0.212890625,98.5194408191103,-1.2447146611183906
0.21679687499999986,98.49667547028643,-1.2634955863095527
0.220703125,98.47339800469457,-1.2826942306555247
0.22460937500000003,98.44960313181888,-1.3023146680572537
0.228515625,98.425285469044,-1.3223610402393196
0.23242187499999953,98.40043954187801,-1.342837556406791
0.23632812500000044,98.37505978418753,-1.363748492889228
0.24023437499999992,98.34914053844525,-1.3850981927714403
0.24414062499999997,98.32267605599047,-1.406891065510818
0.24804687499999967,98.29566049730286,-1.4291315865407372
0.2519531250000002,98.26808793228993,-1.4518242968598725
0.255859375,98.23995234058872,-1.4749738026069688
0.2597656250000001,98.21124761188172,-1.498584774620863
0.26367187499999994,98.18196754622805,-1.5226619479853063
0.26757812500000006,98.15210585440971,-1.5472101215583647
0.27148437500000017,98.12165615829369,-1.5722341574859913
0.27539062499999983,98.09061199121012,-1.597738980699493
0.279296875,98.05896679834713,-1.623729578396548
0.28320312500000006,98.02671393716253,-1.6502109995054124
0.28710937500000017,97.99384667781298,-1.6771883541320516
0.2910156249999997,97.96035820360099,-1.704666812989808
0.29492187500000006,97.92624161143999,-1.7326516068113345
0.298828125,97.89148991233824,-1.7611480257423897
0.302734375,97.85609603190163,-1.790161418717281
0.306640625,97.82005281085604,-1.819697192815529
0.31054687500000017,97.78335300558953,-1.8497608125995
0.3144531249999998,97.74598928871497,-1.8803577994326537
0.318359375,97.70795424965308,-1.9114937307781346
0.32226562500000017,97.66924039523695,-1.9431742394773177
0.3261718749999999,97.62984015033783,-1.9754050130080933
0.330078125,97.58974585851291,-2.008191792722533
0.333984375,97.54894978267554,-2.0415403730636164
0.337890625,97.507444105788,-2.075456600760784
0.341796875,97.46522093157763,-2.109946374003972
0.345703125,97.42227228527624,-2.1450156415958586
0.349609375,97.3785901143836,-2.1806704020820447
0.353515625,97.33416628945518,-2.216916702858881
0.357421875,97.28899260491453,-2.253760639258678
0.361328125,97.24306077989075,-2.291208353612026
0.365234375,97.19636245908136,-2.3292660342869738
0.369140625,97.14888921364094,-2.3679399147048077
0.373046875,97.10063254209592,-2.4072362723321854
0.376953125,97.0515838712859,-2.447161427649392
0.380859375,97.00173455733167,-2.4877217430944785
0.3847656250000005,96.95107588663056,-2.5289236219830755
0.3886718749999995,96.89959907687914,-2.570773507403618
0.392578125,96.84729527812384,-2.61327788108793
0.396484375,96.79415557383965,-2.656443262256668
0.400390625,96.74017098203721,-2.7002762064398187
0.404296875,96.68533245639874,-2.744783304271767
0.408203125,96.62963088744283,-2.7899711802609195
0.412109375,96.57305710371858,-2.835846491533688
0.416015625,96.51560187302937,-2.8824159265526847
0.419921875,96.45725590368625,-2.9296862038090032
0.423828125,96.39800984579148,-2.9776640704884567
0.427734375,96.33785429255235,-3.0263563011116625
0.431640625,96.27677978162544,-3.075769696147881
0.435546875,96.21477679649156,-3.1259110806025094
0.439453125,96.15183576786167,-3.176787302578173
0.443359375,96.08794707511368,-3.2284052318093406
0.447265625,96.02310104776073,-3.280771758170425
0.451171875,95.95728796695064,-3.3338937901573353
0.455078125,95.89049806699698,-3.3877782533424603
0.458984375,95.82272153694177,-3.4424320888030806
0.462890625,95.75394852214991,-3.4978622515232263
0.466796875,95.68416912593551,-3.5540757087689947
0.470703125,95.61337341122004,-3.611079438437386
0.474609375,95.54155140222258,-3.6688804273787037
0.478515625,95.46869308618199,-3.727485669692599
0.482421875,95.39478841511117,-3.7869021649978505
0.4863281249999999,95.31982730758341,-3.8471369166759883
0.49023437500000006,95.24379965055074,-3.9081969300888932
0.494140625,95.16669530119432,-3.9700892107704804
0.498046875,95.08850408880677,-4.032820762592704
0.501953125,95.00921581670649,-4.096398585905966
0.505859375,94.92882026418374,-4.1608296756542025
0.509765625,94.84730718847844,-4.226121019464824
0.513671875,94.76466632678964,-4.292279595713759
0.517578125,94.6808873983163,-4.3593123715658475
0.521484375,94.59596010632957,-4.4272263009908635
0.525390625,94.50987414027597,-4.496028322755459
0.529296875,94.42261917791156,-4.565725358391332
0.533203125,94.33418488746683,-4.636324310139968
0.537109375,94.24456092984192,-4.707832058874295
0.541015625,94.15373696083203,-4.780255461997622
0.544921875,94.0617026333827,-4.853601351320279
0.548828125,93.96844759987455,-4.9278765309143315
0.552734375,93.87396151443738,-5.003087774946852
0.556640625,93.77823403529295,-5.079241825492164
0.560546875,93.68125482712627,-5.156345390323562
0.564453125,93.58301356348494,-5.234405140684993
0.568359375,93.48349992920619,-5.3134277090432285
0.5722656250000008,93.38270362287086,-5.393419686821073
0.5761718749999993,93.28061435928437,-5.474387622112054
0.580078125,93.17722187198342,-5.556338017377616
0.583984375,93.07251591576895,-5.639277327126548
0.587890625,92.96648626926364,-5.7232119555783525
0.591796875,92.85912273749423,-5.808148254310355
0.595703125,92.75041515449769,-5.8940925198896394
0.599609375,92.64035338595072,-5.981050991490385
0.603515625,92.52892733182188,-6.06902984849733
0.607421875,92.41612692904569,-6.158035208096103
0.6113281250000007,92.30194215421807,-6.248073122851181
0.6152343749999993,92.18636302631238,-6.339149578272138
0.619140625,92.06937960941498,-6.431270490369399
0.623046875,91.95098201548048,-6.524441703199478
0.626953125,91.83116040710453,-6.618668986401584
0.630859375,91.70990500031456,-6.713958032725625
0.634765625,91.58720606737693,-6.810314455552887
0.638671875,91.46305393961983,-6.907743786410194
0.642578125,91.3374390102711,-7.006251472478457
0.646484375,91.21035173731003,-7.105842874096566
0.650390625,91.081782646332,-7.206523262261571
0.654296875,90.95172233342542,-7.308297816126136
0.658203125,90.82016146805958,-7.411171620494248
0.662109375,90.68709079598268,-7.515149663316201
0.666015625,90.55250114212895,-7.6202368331838795
0.669921875,90.41638341353368,-7.726437916827387
0.6738281249999999,90.27872860225537,-7.833757596614079
0.6777343750000066,90.1395277883034,-7.94220044805128
0.6816406249999938,89.99877214257221,-8.051770937292268
0.685546875,89.85645292977425,-8.162473418651787
0.689453125,89.71256151138344,-8.274312132122056
0.693359375,89.5670893485721,-8.387291200902977
0.697265625,89.42002800515272,-8.501414628937725
0.701171875,89.27136915051727,-8.616686298459813
0.705078125,89.12110456257437,-8.733109967551446
0.708984375,88.96922613068314,-8.850689267714468
0.712890625,88.8157258585822,-8.969427701455155
0.716796875,88.66059586731296,-9.089328639884013
0.720703125,88.50382839813543,-9.21039532033184
0.724609375,88.34541581543566,-9.332630843983242
0.728515625,88.1853506096234,-9.456038173528867
0.732421875,88.02362540001855,-9.580620130837568
0.736328125,87.86023293772521,-9.70637939464976
0.740234375,87.69516610849202,-9.833318498293227
0.744140625,87.52841793555724,-9.961439827422621
0.748046875,87.35998158247759,-10.090745617783911
0.751953125,87.18985035593903,-10.221237953005069
0.755859375,87.01801770854856,-10.35291876241423
0.759765625,86.84447724160532,-10.48578981888661
0.763671875,86.66922270784983,-10.619852736721446
0.767578125,86.49224801418993,-10.755108969550205
0.771484375,86.31354722440193,-10.891559808277353
0.775390625,86.13311456180584,-11.029206379054935
0.779296875,85.95094441191297,-11.168049641292198
0.783203125,85.7670313250448,-11.308090385701554
0.787109375,85.58137001892146,-11.449329232382091
0.791015625,85.39395538121879,-11.591766628941897
0.794921875,85.20478247209219,-11.735402848660408
0.798828125,85.01384652666621,-11.880237988692016
0.802734375,84.82114295748836,-12.026271968312155
0.806640625,84.62666735694573,-12.173504527207053
0.810546875,84.43041549964316,-12.32193522380834
0.814453125,84.23238334474163,-12.471563433673719
0.818359375,84.03256703825545,-12.622388347914816
0.822265625,83.83096291530677,-12.774408971673397
0.826171875,83.62756750233655,-12.927624122647067
0.830078125,83.42237751927016,-13.082032429665563
0.833984375,83.21538988163664,-13.237632331318757
0.837890625,83.00660170264027,-13.394422074637413
0.841796875,82.7960102951831,-13.552399713827795
0.845703125,82.58361317383725,-13.711563109061126
0.849609375,82.36940805676595,-13.871909925318947
0.853515625,82.15339286759162,-14.033437631295326
0.857421875,81.9355657372104,-14.196143498356918
0.861328125,81.71592500555145,-14.360024599561802
0.865234375,81.49446922328029,-14.525077808738
0.869140625,81.27119715344469,-14.691299799622598
0.873046875,81.04610777306233,-14.858687045062275
0.876953125,80.81920027464896,-15.02723581627612
0.880859375,80.59047406768613,-15.196942182181514
0.884765625,80.35992878002735,-15.367802008783848
0.888671875,80.12756425924186,-15.539810958630806
0.892578125,79.89338057389493,-15.712964490331931
0.896484375,79.65737801476381,-15.887257858144148
0.900390625,79.4195570959884,-16.06268611162385
0.904296875,79.17991855615587,-16.23924409534619
0.908203125,78.93846335931826,-16.416926448692124
0.912109375,78.69519269594245,-16.595727605703697
0.916015625,78.45010798379155,-16.775641795008177
0.919921875,78.2032108687371,-16.956663039811335
0.923828125,77.9545032255014,-17.13878515796041
0.927734375,77.70398715832928,-17.32200176207709
0.931640625,77.45166500158874,-17.506306259760848
0.935546875,77.19753932029974,-17.691691853862903
0.939453125,76.94161291059099,-17.878151542831137
0.943359375,76.68388880008368,-18.065678121126084
0.947265625,76.42437024820225,-18.254264179708258
0.951171875,76.16306074641145,-18.443902106596884
0.955078125,75.89996401837942,-18.63458408750015
0.958984375,75.63508402006649,-18.826302106517037
0.962890625,75.36842493973944,-19.019047946910693
0.966796875,75.09999119791082,-19.212813191953355
0.970703125,74.82978744720337,-19.40758922584272
0.974609375,74.55781857213923,-19.603367234689625
0.978515625,74.28408968885374,-19.800138207576886
0.982421875,74.00860614473419,-19.997892937689084
0.986328125,73.73137351798285,-20.196622023513022
0.990234375,73.45239761710491,-20.396315870108587
0.9941406249999993,73.17168448032109,-20.59696469044961
0.9980468750000006,72.8892403749048,-20.798558506834613
