0.0019531249999999807,77.34180841178267,-15.104322637019399
0.005859374999999951,77.34094481662532,-15.104788893188486
0.009765624999999972,77.3392176342891,-15.10572139352739
0.013671874999999983,77.33662688073107,-15.107120114037652
0.01757812499999995,77.33317257988749,-15.108985018721802
0.021484374999999965,77.3288547636744,-15.111316059583611
0.025390624999999986,77.32367347198856,-15.114113176628441
0.029296875,77.31762875270859,-15.117376297863675
0.03320312499999997,77.3107206616963,-15.121105339299227
0.037109374999999944,77.30294926279834,-15.12530020494815
0.04101562499999997,77.294314627848,-15.129960786827331
0.04492187500000002,77.28481683666718,-15.135086964958262
0.04882812499999995,77.27445597706878,-15.140678607367903
0.05273437499999997,77.2632321448591,-15.146735570089643
0.056640625,77.25114544384058,-15.15325769716433
0.06054687499999995,77.23819598581476,-15.160244820641408
0.064453125,77.22438389058537,-15.167696760580125
0.068359375,77.20970928596184,-15.175613325050849
0.072265625,77.19417230776278,-15.183994310136457
0.07617187499999992,77.17777309981987,-15.192839499933827
0.08007812499999996,77.16051181398187,-15.202148666555404
0.08398437499999992,77.14238861011891,-15.211921570130876
0.08789062499999996,77.12340365612692,-15.22215795880893
0.09179687500000001,77.10355712793238,-15.232857568759107
0.09570312499999988,77.08284920949716,-15.244020124173733
0.09960937499999997,77.0612800928237,-15.255645337269977
0.10351562500000007,77.03884997796027,-15.267732908291963
0.107421875,77.01555907300661,-15.280282525513005
0.11132812499999996,76.99140759411956,-15.293293865237928
0.11523437499999989,76.96639576551911,-15.30676659180549
0.11914062500000011,76.94052381949449,-15.320700357590885
0.123046875,76.91379199641057,-15.335094803008372
0.12695312500000003,76.88620054471443,-15.349949556513971
0.1308593749999999,76.85774972094212,-15.365264234608288
0.13476562500000008,76.82843978972564,-15.381038441839417
0.13867187499999997,76.79827102380004,-15.397271770805956
0.1425781249999998,76.76724370401088,-15.413963802160124
0.14648437500000006,76.73535811932166,-15.431114104610982
0.1503906250000001,76.70261456682168,-15.448722234927747
0.15429687499999986,76.66901335173388,-15.466787737943227
0.15820312499999994,76.63455478742301,-15.485310146557358
0.1621093749999999,76.5992391954039,-15.50428898174084
0.16601562499999994,76.56306690534996,-15.52372375253889
0.16992187500000006,76.52603825510184,-15.543613956075104
0.17382812500000003,76.48815359067628,-15.563959077555424
0.17773437500000017,76.4494132662751,-15.584758590272221
0.18164062499999975,76.40981764429445,-15.606011955608492
0.185546875,76.36936709533406,-15.627718623042181
0.18945312499999983,76.32806199820689,-15.649878030150582
0.19335937499999978,76.2859027399488,-15.672489602614897
0.19726562500000033,76.2428897158283,-15.695552754224902
0.201171875,76.19902332935672,-15.7190668868837
0.20507812499999986,76.15430399229828,-15.743031390612659
0.20898437500000017,76.10873212468047,-15.767445643556407
0.212890625,76.06230815480453,-15.792309011987982
0.21679687499999986,76.015032519256,-15.817620850314114
0.220703125,75.96690566291564,-15.843380501080615
0.22460937500000003,75.91792803897025,-15.8695872949779
0.228515625,75.86810010892374,-15.896240550846645
0.23242187499999953,75.81742234260838,-15.923339575683569
0.23632812500000044,75.76589521819605,-15.950883664647362
0.24023437499999992,75.71351922220981,-15.978872101064697
0.24414062499999997,75.66029484953536,-16.007304156436472
0.24804687499999967,75.60622260343291,-16.036179090444076
0.2519531250000002,75.55130299554888,-16.06549615095589
0.255859375,75.49553654592793,-16.09525457403385
0.2597656250000001,75.43892378302503,-16.125453583940214
0.26367187499999994,75.38146524371761,-16.156092393144434
0.26757812500000006,75.3231614733179,-16.18717020233018
0.27148437500000017,75.26401302558524,-16.21868620040252
0.27539062499999983,75.20402046273873,-16.25063956449523
0.279296875,75.1431843554696,-16.283029459978284
0.28320312500000006,75.08150528295415,-16.315855040465447
0.28710937500000017,75.01898383286635,-16.349115447822072
0.2910156249999997,74.95562060139079,-16.382809812173015
0.29492187500000006,74.89141619323559,-16.41693725191074
0.298828125,74.82637122164546,-16.451496873703512
0.302734375,74.76048630841483,-16.486487772503864
0.306640625,74.69376208390094,-16.521909031557108
0.31054687500000017,74.62619918703717,-16.557759722410086
0.3144531249999998,74.55779826534639,-16.59403890492005
0.318359375,74.48855997495417,-16.63074562726374
0.32226562500000017,74.4184849806024,-16.66787892594656
0.3261718749999999,74.34757395566267,-16.705437825812034
0.330078125,74.27582758214979,-16.743421340051345
0.333984375,74.20324655073544,-16.781828470213057
0.337890625,74.12983156076177,-16.820658206213075
0.341796875,74.05558332025502,-16.859909526344705
0.345703125,73.98050254593925,-16.899581397288937
0.349609375,73.90458996325002,-16.939672774124908
0.353515625,73.82784630634822,-16.980182600340534
0.357421875,73.75027231813374,-17.021109807843324
0.361328125,73.67186875025934,-17.0624533169714
0.365234375,73.59263636314438,-17.10421203650469
0.369140625,73.51257592598866,-17.146384863676317
0.373046875,73.43168821678623,-17.188970684184174
0.376953125,73.34997402233924,-17.2319683722027
0.380859375,73.26743413827165,-17.275376790394862
0.3847656250000005,73.18406936904314,-17.319194789924296
0.3886718749999995,73.09988052796288,-17.363421210467678
0.392578125,73.01486843720316,-17.408054880227347
0.396484375,72.92903392781338,-17.45309461594399
0.400390625,72.84237783973362,-17.49853922290967
0.404296875,72.75490102180834,-17.544387494981017
0.408203125,72.66660433180013,-17.590638214592587
0.412109375,72.57748863640326,-17.637290152770493
0.416015625,72.4875548112573,-17.68434206914621
0.419921875,72.39680374096065,-17.731792711970613
0.423828125,72.30523631908403,-17.779640818128204
0.427734375,72.2128534481839,-17.827885113151613
0.431640625,72.1196560398159,-17.876524311236246
0.435546875,72.02564501454802,-17.925557115255216
0.439453125,71.93082130197398,-17.974982216774468
0.443359375,71.83518584072634,-18.024798296068134
0.447265625,71.73873957848959,-18.07500402213412
0.451171875,71.64148347201315,-18.125598052709915
0.455078125,71.54341848712433,-18.17657903428863
0.458984375,71.44454559874114,-18.227945602135296
0.462890625,71.34486579088502,-18.279696380303356
0.466796875,71.24438005669353,-18.331829981651417
0.470703125,71.14308939843279,-18.384345007860237
0.474609375,71.04099482751002,-18.437240049449954
0.478515625,70.93809736448577,-18.490513685797552
0.482421875,70.8343980390862,-18.54416448515457
0.4863281249999999,70.72989789021507,-18.59819100466506
0.49023437500000006,70.62459796596576,-18.652591790383795
0.494140625,70.51849932363308,-18.707365377294696
0.498046875,70.41160302972494,-18.762510289329573
0.501953125,70.30391015997392,-18.818025039387045
0.505859375,70.19542179934868,-18.87390812935177
0.509765625,70.08613904206523,-18.93015805011389
0.513671875,69.97606299159797,-18.986773281588757
0.517578125,69.86519476069077,-19.04375229273691
0.521484375,69.75353547136766,-19.10109354158433
0.525390625,69.64108625494349,-19.158795475242894
0.529296875,69.5278482520344,-19.21685652993119
0.533203125,69.41382261256814,-19.275275130995507
0.537109375,69.29901049579409,-19.33404969293115
0.541015625,69.18341307029328,-19.393178619403983
0.544921875,69.06703151398808,-19.452660303272285
0.548828125,68.94986701415178,-19.512493126608828
0.552734375,68.83192076741793,-19.57267546072325
0.556640625,68.71319397978952,-19.633205666184722
0.560546875,68.59368786664795,-19.694082092844862
0.564453125,68.47340365276172,-19.75530307986092
0.568359375,68.35234257229503,-19.81686695571927
0.5722656250000008,68.23050586881605,-19.87877203825918
0.5761718749999993,68.10789479530524,-19.941016634696762
0.580078125,67.98451061416276,-20.003599041649476
0.583984375,67.86035459721667,-20.066517545160508
0.587890625,67.73542802573003,-20.129770420723805
0.591796875,67.60973219040817,-20.1933559333092
0.595703125,67.48326839140562,-20.257272337387867
0.599609375,67.35603793833289,-20.32151787695808
0.603515625,67.22804215026287,-20.386090785571234
0.607421875,67.09928235573705,-20.45098928635818
0.6113281250000007,66.96975989277144,-20.516211592055857
0.6152343749999993,66.83947610886244,-20.581755905034118
0.619140625,66.70843236099194,-20.64762041732312
0.623046875,66.57663001563289,-20.713803310640593
0.626953125,66.4440704487539,-20.780302756419783
0.630859375,66.31075504582402,-20.8471169158375
0.634765625,66.17668520181701,-20.914243939842507
0.638671875,66.04186232121543,-20.9816819691842
0.642578125,65.90628781801449,-21.049429134441606
0.646484375,65.76996311572545,-21.117483556052647
0.650390625,65.63288964737886,-21.185843344343752
0.654296875,65.4950688555275,-21.254506599559733
0.658203125,65.356502192249,-21.323471411893962
0.662109375,65.21719111914803,-21.392735861518894
0.666015625,65.07713710735848,-21.462298018616845
0.669921875,64.93634163754504,-21.532155943411095
0.6738281249999999,64.79480619990463,-21.602307686197307
0.6777343750000066,64.65253229416719,-21.67275128737535
0.6816406249999938,64.50952142959792,-21.743484777480617
0.685546875,64.36577512499413,-21.814506177218107
0.689453125,64.22129490869001,-21.885813497492734
0.693359375,64.076082318553,-21.95740473944401
0.697265625,63.930138901984535,-22.029277894478593
0.701171875,63.78346621591896,-22.101430944303985
0.705078125,63.636065826822346,-22.173861860962376
0.708984375,63.48793931069086,-22.246568606864844
0.712890625,63.33908825304892,-22.319549134825838
0.716796875,63.189514248946914,-22.392801388097975
0.720703125,63.039218902958595,-22.466323300407154
0.724609375,62.888203829178174,-22.540112795987984
0.728515625,62.73647065121697,-22.614167789619497
0.732421875,62.58402100219976,-22.68848618666122
0.736328125,62.4308565247608,-22.763065883089496
0.740234375,62.2769788710394,-22.837904765534184
0.744140625,62.12238970267521,-22.913000711315615
0.748046875,61.9670906908031,-22.98835158848188
0.751953125,61.811083516047695,-23.063955255846437
0.755859375,61.654369868517506,-23.139809563026027
0.759765625,61.496951447798736,-23.21591235047888
0.763671875,61.338829962948665,-23.29226144954326
0.767578125,61.18000713248868,-23.368854682476304
0.771484375,61.020484684396926,-23.44568986249318
0.775390625,60.86026435610057,-23.522764793806537
0.779296875,60.699347894467685,-23.600077271666304
0.783203125,60.537737055798736,-23.677625082399754
0.787109375,60.37543360581768,-23.7554060034519
0.791015625,60.21243931966272,-23.833417803426197
0.794921875,60.0487559818766,-23.91165824212557
0.798828125,59.884385386396545,-23.99012507059369
0.802734375,59.7193293365438,-24.06881603115665
0.806640625,59.55358964501278,-24.147728857464866
0.810546875,59.387168133859795,-24.226861274535313
0.814453125,59.22006663449143,-24.30621099879409
0.818359375,59.05228698765246,-24.38577573811925
0.822265625,58.88383104341339,-24.465553191883963
0.826171875,58.7147006611576,-24.545541050999976
0.830078125,58.5448977095681,-24.625736997961354
0.833984375,58.37442406661381,-24.706138706888567
0.837890625,58.20328161953553,-24.78674384357283
0.841796875,58.03147226483141,-24.867550065520767
0.845703125,57.858997908242046,-24.9485550219994
0.849609375,57.685860464735235,-25.029756354081368
0.853515625,57.51206185849016,-25.111151694690516
0.857421875,57.33760402288135,-25.192738668647724
0.861328125,57.162488900462044,-25.27451489271708
0.865234375,56.98671844294729,-25.35647797565229
0.869140625,56.81029461119657,-25.438625518243448
0.873046875,56.63321937519594,-25.52095511336403
0.876953125,56.45549471403992,-25.603464346018242
0.880859375,56.2771226159128,-25.686150793388585
0.884765625,56.09810507806962,-25.76901202488379
0.888671875,55.91844410681672,-25.85204560218697
0.892578125,55.73814171749185,-25.935249079304093
0.896484375,55.55719993444388,-26.018620002612735
0.900390625,55.3756207910121,-26.102155910911097
0.904296875,55.19340632950508,-26.185854335467333
0.908203125,55.01055860117911,-26.269712800069122
0.912109375,54.82707966621626,-26.35372882107355
0.916015625,54.64297159370195,-26.437899907457236
0.919921875,54.45823646160221,-26.522223560866774
0.923828125,54.272876356740404,-26.6066972756694
0.927734375,54.08689337477361,-26.69131853900396
0.931640625,53.90028962016856,-26.776084830832147
0.935546875,53.71306720617717,-26.86099362398999
0.939453125,53.525228254811644,-26.946042384239618
0.943359375,53.33677489681916,-27.031228570321286
0.947265625,53.14770927165616,-27.11654963400567
0.951171875,52.9580335274622,-27.202003020146396
0.955078125,52.767749821033384,-27.287586166732876
0.958984375,52.57686031779543,-27.37329650494334
0.962890625,52.38536719177627,-27.459131459198172
0.966796875,52.193272625578224,-27.545088447213455
0.970703125,52.00057881034986,-27.63116488005482
0.974609375,51.80728794575732,-27.717358162191474
0.978515625,51.613402239955334,-27.80366569155054
0.982421875,51.41892390955776,-27.890084859571594
0.986328125,51.22385517960777,-27.976613051261467
0.990234375,51.02819828354756,-28.063247645249263
0.9941406249999993,50.831955463187775,-28.149986013841637
0.9980468750000006,50.63512896867625,-28.236825523078362
