0.007812499999999998,71.76654341826624,-18.02575164404741
0.023437499999999997,71.75361075787652,-18.031966219805618
0.0390625,71.72774767184781,-18.044392538296588
0.0546875,71.68895862957059,-18.063024934246066
0.07031250000000001,71.63725033485196,-18.087854911684214
0.0859375,71.57263172557917,-18.118871146275648
0.10156249999999999,71.4951139732671,-18.156059488426386
0.1171875,71.40471048248637,-18.199402967167885
0.13281250000000003,71.30143689016836,-18.248881794818484
0.1484375,71.18531106478213,-18.304473372422468
0.16406249999999997,71.05635310537737,-18.366152295967098
0.1796875,70.91458534048775,-18.433890363377916
0.1953125,70.76003232688686,-18.507656582292764
0.2109375,70.59272084818943,-18.587417178614725
0.22656249999999992,70.41267991328921,-18.67313560584448
0.24218750000000006,70.21994075462449,-18.764772555192383
0.2578125,70.0145368262614,-18.862285966470512
0.2734375,69.79650380178485,-18.965631039765064
0.2890625,69.56587957198593,-19.07476024788928
0.30468749999999994,69.32270424233477,-19.189623349617012
0.3203125000000001,69.06702013022645,-19.31016740369714
0.3359375,68.79887176198807,-19.436336783648713
0.3515625,68.5183058696337,-19.568073193336744
0.3671875,68.2253713873546,-19.70531568332843
0.3828125,67.92011944773063,-19.848000668029368
0.3984375,67.60260337764957,-19.99606194359929
0.4140625,67.27287869391996,-20.14943070664653
0.42968749999999994,66.93100309856337,-20.308035573700394
0.4453125,66.57703647377171,-20.471802601460244
0.4609375,66.211040876515,-20.640655307820026
0.4765625,65.83308053278505,-20.814514693666666
0.4921875,65.44322183146048,-20.99329926545043
0.5078125,65.04153331777857,-21.176925058525228
0.5234375,64.62808568639934,-21.365305661256443
0.5390625,64.2029517740475,-21.558352239893548
0.5546875,63.76620655171827,-21.755973564204545
0.5703125,63.31792711643292,-21.958076033868863
0.5859375,62.85819268253034,-22.16456370562497
0.6015625,62.38708457248141,-22.375338321168687
0.6171875,61.90468620721297,-22.59029933579775
0.6328125,61.411083095928795,-22.809343947797768
0.6484375,60.90636282541552,-23.032367128564374
0.6640625000000001,60.390615048821644,-23.25926165345591
0.6796875000000001,59.86393147389861,-23.4899181333706
0.6953125000000002,59.32640585069319,-23.724225047041777
0.7109375,58.778133958681366,-23.962068774044095
0.7265625,58.21921359333421,-24.20333362850354
0.7421875,57.64974455210724,-24.44790189350331
0.7578125,57.069828619845154,-24.695653856177312
0.7734375,56.47956955359482,-24.946467843482605
0.7890625,55.87907306682009,-25.200220258641565
0.8046875,55.26844681301273,-25.456785618244123
0.8203125,54.6478003686947,-25.716036590000012
0.8359375,54.0172452158079,-25.977844031130452
0.8515625,53.3768947234881,-26.24207702738822
0.8671875,52.726864129221084,-26.50860293269472
0.8828125,52.067270519379434,-26.777287409382094
0.8984375,51.39823280913993,-27.047994469027994
0.9140625,50.719871721781686,-27.320586513870325
0.9296875,50.032309767367,-27.59492437878867
0.9453125,49.33567122080689,-27.870867373838834
0.9609375,48.6300820993149,-28.148273327326457
0.9765625,47.9156701392537,-28.42699862940533
0.9921875,47.192564772379356,-28.7068982761856
