0.007812499999999998,61.90198134151481,-22.236243945747677
0.023437499999999997,61.89079895723721,-22.240391748809632
0.0390625,61.86843619957608,-22.24868512683665
0.0546875,61.83489708998425,-22.26111962430946
0.07031250000000001,61.790187659802555,-22.277688559635298
0.0859375,61.734315949253684,-22.298383027170782
0.10156249999999999,61.66729200610063,-22.323191899918303
0.1171875,61.589127883969475,-22.35210183289513
0.13281250000000003,61.49983764033666,-22.38509726717452
0.1484375,61.399437334180405,-22.42216043459767
0.16406249999999997,61.287945023296345,-22.463271363155343
0.1796875,61.16538076127707,-22.508407883037748
0.1953125,61.03176659415557,-22.557545633351186
0.2109375,60.8871265567123,-22.610658069499642
0.22656249999999992,60.73148666844585,-22.667716471229486
0.24218750000000006,60.56487492920685,-22.72868995133513
0.2578125,60.38732131449517,-22.79354546502351
0.2734375,60.19885777041996,-22.862247819934808
0.2890625,59.99951820832272,-22.93475968681701
0.30468749999999994,59.789338499062865,-23.011041610851336
0.3203125000000001,59.568356466965895,-23.091052023625767
0.3359375,59.336611883433946,-23.174747255753488
0.3515625,59.09414646021857,-23.262081550132983
0.3671875,58.84100384235566,-23.353007075846314
0.3828125,58.57722960076258,-23.447473942692053
0.3984375,58.30287122449711,-23.545430216348933
0.4140625,58.01797811267862,-23.64682193416644
0.42968749999999994,57.722601566071134,-23.7515931215781
0.4453125,57.41679477832862,-23.859685809133236
0.4609375,57.100612826902406,-23.971040050142715
0.4765625,56.77411266361093,-24.085593938934114
0.4921875,56.43735310487216,-24.20328362971146
0.5078125,56.090394821598764,-24.324043356014684
0.5234375,55.73330032875649,-24.447805450773583
0.5390625,55.36613397458608,-24.57450036695113
0.5546875,54.98896192948916,-24.70405669877065
0.5703125,54.60185217457875,-24.836401203521262
0.5859375,54.20487448989497,-24.971458823935897
0.6015625,53.79810044228647,-25.109152711135973
0.6171875,53.38160337295865,-25.249404248136646
0.6328125,52.95545838468933,-25.392133073906503
0.6484375,52.51974232871293,-25.53725710797525
0.6640625000000001,52.074533791274234,-25.684692575582982
0.6796875000000001,51.61991307985284,-25.834354033364306
0.6953125000000002,51.155962209059616,-25.986154395560572
0.7109375,50.68276488620655,-26.14000496075321
0.7265625,50.200406496551395,-26.29581543911117
0.7421875,49.708974088218945,-26.45349398014514
0.7578125,49.20855635680031,-26.612947200961244
0.7734375,48.69924362963235,-26.774080215006702
0.7890625,48.181127849759044,-26.936796661299798
0.8046875,47.65430255957698,-27.10099873413641
0.8203125,47.118862884167086,-27.266587213265183
0.8359375,46.57490551431504,-27.43346149452335
0.8515625,46.02252868922274,-27.601519620925018
0.8671875,45.46183217891348,-27.7706583141937
0.8828125,44.89291726633359,-27.94077300673063
0.8984375,44.315886729153256,-28.11175787401041
0.9140625,43.73084482126975,-28.2835058673954
0.9296875,43.13789725401595,-28.45590874736001
0.9453125,42.53715117707764,-28.628857117116183
0.9609375,41.92871515912277,-28.802240456631065
0.9765625,41.31269916814634,-28.975947157027786
0.9921875,40.68921455153452,-29.149864555360324
