0.007812499999999998,53.385519929794725,-24.94513685267587
0.023437499999999997,53.37587339679696,-24.947670410576865
0.0390625,53.35658207301097,-24.95273579561964
0.0546875,53.327649442543645,-24.960329546829808
0.07031250000000001,53.289080730775076,-24.97044647410588
0.0859375,53.24088290342227,-24.98307965985092
0.10156249999999999,53.18306466529111,-24.998220461147458
0.1171875,53.11563645871665,-25.015858512475067
0.13281250000000003,53.03861046169196,-25.035981728969865
0.1484375,52.952000585685894,-25.058576310225096
0.16406249999999997,52.85582247315013,-25.08362674463184
0.1796875,52.7500934947157,-25.111115814258635
0.1953125,52.6348327460797,-25.141024600268782
0.2109375,52.51006104458252,-25.173332488873903
0.22656249999999992,52.3758009254761,-25.20801717782218
0.24218750000000006,52.23207663788393,-25.245054683419582
0.2578125,52.07891414045333,-25.284419348082213
0.2734375,51.91634109670076,-25.32608384841784
0.2890625,51.744386870050825,-25.370019203834453
0.30468749999999994,51.56308251856982,-25.416194785673586
0.3203125000000001,51.372460789394694,-25.46457832686605
0.3359375,51.172556112858175,-25.515135932107476
0.3515625,50.963404596311136,-25.56783208855106
0.3671875,50.7450440176432,-25.622629677014686
0.3828125,50.51751381850246,-25.67948998369946
0.3984375,50.28085509721555,-25.738372712416613
0.4140625,50.03511060140928,-25.79923599731955
0.42968749999999994,49.78032472033477,-25.8620364161377
0.4453125,49.5165434768956,-25.926729003908733
0.4609375,49.243814519381104,-25.993267267205486
0.4765625,48.96218711290625,-26.06160319885391
0.4921875,48.671712130559484,-26.131687293138132
0.5078125,48.372442044259955,-26.203468561488723
0.5234375,48.06443091532569,-26.27689454864996
0.5390625,47.747734384754246,-26.351911349321938
0.5546875,47.422409663217444,-26.428463625273068
0.5703125,47.08851552077192,-26.506494622918588
0.5859375,46.74611227628708,-26.585946191360353
0.6015625,46.395261786592386,-26.66675880088331
0.6171875,46.036027435345694,-26.74887156190368
0.6328125,45.6684741216246,-26.832222244363965
0.6484375,45.29266824824257,-26.916747297569657
0.6640625000000001,44.908677709792116,-27.002381870462482
0.6796875000000001,44.516571880416755,-27.089059832324825
0.6953125000000002,44.116421601314094,-27.176713793909936
0.7109375,43.70829916797201,-27.265275128992368
0.7265625,43.292278317140166,-27.354673996333016
0.7421875,42.86843421353929,-27.444839362052967
0.7578125,42.436843436310205,-27.535699022410345
0.7734375,41.997583965205216,-27.62717962697412
0.7890625,41.55073516652421,-27.71920670218888
0.8046875,41.09637777879787,-27.81170467532435
0.8203125,40.634593898220594,-27.90459689880335
0.8359375,40.16546696383558,-27.997805674901894
0.8515625,39.68908174247488,-28.091252280814903
0.8671875,39.2055243134569,-28.184856994080985
0.8828125,38.714882053044164,-28.278539118359593
0.8984375,38.217243618664156,-28.37221700955384
0.9140625,37.71269893289593,-28.46580810227212
0.9296875,37.201339167225505,-28.559228936621565
0.9453125,36.68325672557284,-28.652395185326352
0.9609375,36.15854522759348,-28.745221681163752
0.9765625,35.627299491757846,-28.837622444710703
0.9921875,35.08961551821114,-28.92951071239364
