0.0625,57.450894355521726,-23.718332864096414
0.1875,56.78764608064095,-23.928009335202567
0.3125,55.46879344002633,-24.33935284887831
0.4375,53.50953850505384,-24.936502248585857
0.5625,50.93247055340238,-25.696057410911525
0.6875,47.76731105518595,-26.587541828435246
0.8125,44.05057650033073,-27.574007259838275
0.9375,39.82516188088356,-28.61277030412255
