0.664970442652704,48.18683993842734,-26.583720741125177
0.6416035443544377,48.90326417014504,-26.385588023524825
0.7662730440497401,45.472889217655705,-27.312241063504118
0.7325110062956817,46.42573196314214,-27.059940749300736
0.5187873244285583,51.69937598564454,-25.5889826075653
0.9510210156440755,39.3351359180564,-28.8237162888333
0.1958628287262843,56.49930847673345,-24.13941794878051
0.6535187214612961,48.54824350186382,-26.484466533388616
0.6374211162328731,48.90159888748978,-26.38625822271468
0.5315572619438174,51.42484708170838,-25.66876848992158
0.6879565417766579,47.656497781450064,-26.729381448533413
0.4859477207064623,52.37698292300961,-25.39043701941207
0.8336229613444,43.334784760905315,-27.85982221108739
0.9461446184227149,39.531096308410476,-28.77974980490733
0.48531206019907475,52.390890451229374,-25.38633611123521
0.46673802639552275,52.75864615508324,-25.27789426058912
0.35598347412721565,54.65310131100195,-24.709071868083377
0.327484858928693,55.05574238598257,-24.586040455103625
0.28391510993242286,55.61453387870724,-24.414203241148186
0.3104033002243161,55.28101394287884,-24.516884627175898
0.012278405949473381,57.30856096512764,-23.885216683895997
0.15882724627182174,56.794424166571474,-24.047089762008145
0.2564927637577057,55.93000205424145,-24.316668309508813
0.1345169523769095,56.926930047450995,-24.00548952723573
0.5106128833511392,51.87862684578556,-25.537011989959638
0.5855657458305349,50.187320553567844,-26.02421571891316
0.5310270637273785,51.43364216732861,-25.666169234567032
0.5138882249593737,51.79761542134671,-25.559978862181875
0.4934865012764933,52.22573942501974,-25.43486615068248
0.466680251498959,52.755228804018806,-25.278746872077306
0.9158171732316442,40.608706837389136,-28.526326061797562
0.9717226624488825,38.59872583041363,-28.99324238790076
0.9138075509897301,40.67351906244871,-28.510457375650937
0.8670037081858267,42.285533015836776,-28.120753553147942
0.888916784602479,41.53710524964804,-28.303278635286446
0.13481130618984244,56.93661079875848,-24.002453070062987
0.18165014960836603,56.6164326328022,-24.10281887372243
0.10908331600139005,57.01913498403901,-23.976465167526637
0.08403215528586964,57.14239258016609,-23.937647575880533
0.5377211719751355,51.2918745562229,-25.707514341583313
0.5499609112739563,51.015135984944955,-25.787304563848085
0.5735276341438288,50.476586699161885,-25.94195238777097
0.6125989258289346,49.52189936867788,-26.21237549761404
0.6882289797067642,47.65178942253624,-26.730386228786262
0.6292909979820253,49.17065805615694,-26.31131873477664
0.5608107149600983,50.77354045882714,-25.856908483269326
0.5572199076414106,50.86248707149673,-25.831192284991488
0.5722865611314774,50.5124733607282,-25.932002190791472
0.6497336626052858,48.517522919933874,-26.492396553521896
0.7222778946161287,46.77943352897255,-26.966247752039205
0.6564002484083177,48.47177917774462,-26.505296499852754
0.7079703807830806,47.22308944048052,-26.84691128528644
0.7170523107051856,46.9196045274977,-26.929126273189105
0.5848111659288417,50.22274105265078,-26.014646616243212
0.583188489079476,50.259883313678905,-26.004010417437563
0.649664163589477,48.393408400247495,-26.526889988522107
0.5870956033468243,50.1601648917016,-26.032286971098518
0.491160504519939,52.27170473053586,-25.421284867980905
0.8267455480298889,43.58079719496282,-27.797142992623137
0.8930561097125309,41.39228546943896,-28.338229728959266
0.8371121219596757,43.26876232996759,-27.876938594415627
0.8895669490972514,41.5119107531218,-28.309487401787205
0.756526343524455,45.74483116389785,-27.240607541101074
0.6849842816591268,47.8531875555423,-26.67542846982569
0.8242787411829594,43.654895447531274,-27.780375528874256
0.7518929243087763,45.910274669243734,-27.19738942345355
0.7957264548560727,44.56513607392102,-27.547528472999545
0.7849574005624417,44.89183862454055,-27.463475112110704
0.8113799840211864,44.03361139422099,-27.684271783788347
0.7781942784786227,45.11419073256629,-27.405297771674007
0.7078637480735791,47.12529955766343,-26.873137397424138
0.7947041010877235,44.592661094405635,-27.54060673408978
0.9905215203762068,37.90415994083891,-29.149636314101006
0.9553581633618222,39.196955465594314,-28.855817147742503
0.9346565165570045,39.93221116108649,-28.68437818154129
0.9454894880313268,39.54970674494672,-28.77404881620021
0.9812011420726803,38.25095132276494,-29.072285959796496
0.9625091175097794,38.93615705642507,-28.91616487226292
0.9741570212891401,38.50880591535107,-29.01308491963647
0.8704928688011064,42.1628572202407,-28.15058617638076
0.9116728822249784,40.74778950968017,-28.492243540078896
0.33389234542846674,54.96495124269722,-24.613800435545325
0.46521216742379873,52.78424712524278,-25.270172022694016
0.35445852654353993,54.66952682007703,-24.703915898714992
0.4429259136891912,53.210273098744175,-25.14385561799384
0.4443825523009136,53.17725661299202,-25.153487598703258
0.46052385407009716,52.87413728872713,-25.24361248583714
0.43244730221548766,53.38359685378529,-25.091787588158073
0.3940812854128124,54.0632982873652,-24.888022674317806
0.46448244507619013,52.80125413516825,-25.265306780371763
0.4201000812780177,53.6058373566956,-25.02527242843986
0.3176492580757264,55.18471696272906,-24.546405105947514
0.3003815934062004,55.41141152417054,-24.476799704253065
0.38981684626453306,54.128627298766574,-24.868217797557605
0.3630060358575889,54.54498232918084,-24.741923251392095
0.37908206460310606,54.29861863974951,-24.81668942862848
0.2393800802528858,56.10340729707918,-24.26276919917306
0.2483894675970077,56.01353179221601,-24.290705025810958
0.27091196924448013,55.7644798641289,-24.367843960749582
0.3087470436082005,55.295656529579524,-24.512273582267927
0.2839323133230212,55.60357203704195,-24.417436908466843
0.3009966686367986,55.408686609783544,-24.477735110336965
0.05507672764360903,57.24417211789393,-23.905549511313772
0.08175260079214437,57.16324455861463,-23.93108685609143
0.0497105484828353,57.252109603890645,-23.90304262693355
0.034913429990410805,57.28659748682564,-23.89215594897357
0.07638642163137065,57.17468072840883,-23.927476839944315
0.012278405949473381,57.30157593942368,-23.88742491980349
0.032441703602671616,57.281196479037504,-23.89386086733249
0.28845679014921194,55.55433254300748,-24.432699696286065
0.2668926194310188,55.8157082247161,-24.352031115667106
0.2591970413923262,55.90424767566195,-24.32468897877566
0.21969969674274603,56.293836307496534,-24.203540608880974
0.18907960235402257,56.561069835159344,-24.120140029358847
0.2340431213378908,56.16082113971526,-24.244976387804357
0.21603619783446468,56.33190243448183,-24.191711061188844
0.20708652585744855,56.41188454982411,-24.166750804122856
0.15853289245888874,56.79125704957271,-24.048071423977753
0.2238092395596235,56.26167129005107,-24.213603516265355
0.19655829026624844,56.5011565284756,-24.138867490467828
0.13881537690758705,56.90985527470913,-24.01084522069604
0.05735628213733435,57.2333414135359,-23.908959223360128
0.1096168278635488,57.0656366065815,-23.961865508754535
0.10828686133027075,57.06542697682876,-23.96191334927812
0.06814422830939294,57.209337466836544,-23.91653364971544
0.4987801990726506,52.11639967065329,-25.467014886322282
0.5218254409053844,51.63938020804173,-25.606726163397028
0.43105842073519757,53.42708746116114,-25.079202267470322
0.50508463382721,51.983582513685334,-25.505754886636108
0.6128877103328698,49.522300347833784,-26.21243489338478
0.8135096868893248,43.968118315349564,-27.700828228014807
0.8669552565494529,42.268251323699104,-28.124895825904616
0.027075524441897862,57.28671010453514,-23.89211714540789
0.5443394780158994,51.14731126834199,-25.749429543678982
0.6008504778146746,49.86023189354423,-26.117292001583895
0.7022640556097018,47.28060283570787,-26.831343573818142
0.422001171520833,53.58019346055211,-25.033063219183294
0.155438642633763,56.808799631724504,-24.0425608898278
0.6370628327131269,48.87875837111426,-26.392220534860545
0.7620478123426456,45.59525622901043,-27.279648561268658
0.746667340397833,46.04744455694002,-27.16121176965285
0.6106032729148866,49.59680582691378,-26.191596868694994
0.6826292872428894,47.79591260667943,-26.69083133018234
0.7030513137578962,47.265258416720826,-26.83494258541238
0.3766504067256887,54.33194560539913,-24.806388426648503
0.39513445775713185,54.037458564493505,-24.895516734955976
0.34278770576034495,54.83387156029861,-24.65374313954235
0.35058344940458214,54.72779885324828,-24.68621561742619
0.6359280049800862,48.983619873925626,-26.363460781233314
