0.0019531249999999807,89.38809855739329,-7.6274389295608
0.005859374999999951,89.38721792277806,-7.628037253212413
0.009765624999999972,89.38545662859126,-7.629233909763007
0.013671874999999983,89.38281462492776,-7.631028917700799
0.01757812499999995,89.37929183694885,-7.633422304741802
0.021484374999999965,89.374888164905,-7.636414107810272
0.025390624999999986,89.36960348416618,-7.640004373012604
0.029296875,89.36343764525981,-7.644193155604726
0.03320312499999997,89.35639047391635,-7.648980519952948
0.037109374999999944,89.34846177112233,-7.654366539488301
0.04101562499999997,89.33965131318121,-7.660351296654322
0.04492187500000002,89.32995885178164,-7.66693488284833
0.04882812499999995,89.31938411407346,-7.674117398356147
0.05273437499999997,89.30792680275128,-7.681898952280288
0.056640625,89.2955865961457,-7.690279662461607
0.06054687499999995,89.28236314832215,-7.699259655394393
0.064453125,89.26825608918736,-7.70883906613492
0.068359375,89.25326502460354,-7.719018038203441
0.072265625,89.23738953651014,-7.729796723479613
0.07617187499999992,89.22062918305339,-7.741175282091379
0.08007812499999996,89.20298349872336,-7.753153882297251
0.08398437499999992,89.18445199449887,-7.765732700362048
0.08789062499999996,89.16503415800007,-7.778911920426031
0.09179687500000001,89.14472945364862,-7.792691734367468
0.09570312499999988,89.12353732283573,-7.807072341658591
0.09960937499999997,89.10145718409791,-7.822053949214978
0.10351562500000007,89.0784884333004,-7.837636771238308
0.107421875,89.05463044382846,-7.853821029052517
0.11132812499999996,89.02988256678643,-7.8706069509333405
0.11523437499999989,89.0042441312045,-7.887994771931226
0.11914062500000011,88.97771444425341,-7.905984733687619
0.123046875,88.95029279146682,-7.924577084244608
0.12695312500000003,88.92197843697176,-7.943772077847938
0.1308593749999999,88.89277062372666,-7.963569974743357
0.13476562500000008,88.86266857376744,-7.983971040966326
0.13867187499999997,88.83167148846148,-8.004975548125042
0.1425781249999998,88.79977854876937,-8.026583773176814
0.14648437500000006,88.76698891551472,-8.048795998197752
0.1503906250000001,88.73330172966182,-8.07161251014576
0.15429687499999986,88.69871611260135,-8.095033600616865
0.15820312499999994,88.66323116644392,-8.11905956559484
0.1621093749999999,88.62684597432178,-8.143690705194105
0.16601562499999994,88.58955960069837,-8.168927323395952
0.16992187500000006,88.55137109168602,-8.194769727778041
0.17382812500000003,88.51227947537164,-8.221218229237168
0.17773437500000017,88.47228376215045,-8.248273141705335
0.18164062499999975,88.43138294506785,-8.275934781859053
0.185546875,88.38957600016934,-8.304203468821967
0.18945312499999983,88.34686188685855,-8.333079523860675
0.19335937499999978,88.30323954826343,-8.36256327007387
0.19726562500000033,88.25870791161057,-8.392655032074707
0.201171875,88.21326588860771,-8.423355135666403
0.20507812499999986,88.16691237583429,-8.454663907511158
0.20898437500000017,88.11964625514044,-8.486581674792253
0.212890625,88.07146639405394,-8.519108764869426
0.21679687499999986,88.02237164619558,-8.552245504927518
0.220703125,87.97236085170259,-8.585992221618339
0.22460937500000003,87.92143283766052,-8.620349240695797
0.228515625,87.86958641854316,-8.655316886644282
0.23242187499999953,87.81682039666096,-8.690895482300313
0.23632812500000044,87.76313356261751,-8.727085348467451
0.24023437499999992,87.70852469577456,-8.763886803524413
0.24414062499999997,87.65299256472512,-8.801300163026596
0.24804687499999967,87.59653592777504,-8.839325739300728
0.2519531250000002,87.53915353343278,-8.877963841032921
0.255859375,87.4808441209077,-8.91721477284993
0.2597656250000001,87.42160642061647,-8.957078834893816
0.26367187499999994,87.36143915469796,-8.997556322389844
0.26757812500000006,87.30034103753641,-9.038647525207764
0.27148437500000017,87.23831077629302,-9.080352727416416
0.27539062499999983,87.17534707144581,-9.122672206831709
0.279296875,87.11144861733784,-9.165606234557991
0.28320312500000006,87.04661410273384,-9.209155074522792
0.28710937500000017,86.98084221138507,-9.253318983005023
0.2910156249999997,86.91413162260265,-9.298098208156594
0.29492187500000006,86.84648101183905,-9.343492989517534
0.298828125,86.77788905127807,-9.389503557524552
0.302734375,86.70835441043302,-9.436130133013197
0.306640625,86.6378757567532,-9.48337292671352
0.31054687500000017,86.5664517562387,-9.531232138739341
0.3144531249999998,86.49408107406346,-9.579707958071147
0.318359375,86.42076237520641,-9.628800562032664
0.32226562500000017,86.34649432509119,-9.678510115761085
0.3261718749999999,86.27127559023364,-9.728836771671096
0.330078125,86.19510483889775,-9.779780668912679
0.333984375,86.11798074175961,-9.831341932822717
0.337890625,86.0399019725795,-9.883520674370537
0.341796875,85.96086720888204,-9.936316989597369
0.345703125,85.88087513264436,-9.989730959049796
0.349609375,85.7999244309923,-10.04376264720729
0.353515625,85.71801379690446,-10.09841210190384
0.357421875,85.63514192992415,-10.153679353743783
0.361328125,85.55130753687929,-10.209564415511888
0.365234375,85.46650933261002,-10.266067281577769
0.369140625,85.38074604070388,-10.3231879272947
0.373046875,85.29401639423895,-10.38092630839293
0.376953125,85.2063191365343,-10.439282360367542
0.380859375,85.11765302190808,-10.498255997861014
0.3847656250000005,85.02801681644306,-10.557847114040488
0.3886718749999995,84.93740929875949,-10.61805557996988
0.392578125,84.84582926079514,-10.678881243977074
0.396484375,84.75327550859276,-10.740323931015908
0.400390625,84.65974686309436,-10.802383442023604
0.404296875,84.56524216094262,-10.86505955327331
0.408203125,84.46976025528912,-10.9283520157221
0.412109375,84.37330001660935,-10.992260554354495
0.416015625,84.2758603335244,-11.056784867521635
0.419921875,84.17744011362906,-11.121924626276263
0.423828125,84.07803828432642,-11.187679473703625
0.427734375,83.97765379366871,-11.254049024248467
0.431640625,83.87628561120415,-11.32103286303826
0.435546875,83.77393272882995,-11.388630545202838
0.439453125,83.67059416165088,-11.456841595190578
0.443359375,83.56626894884373,-11.52566550608133
0.447265625,83.46095615452704,-11.595101738896261
0.451171875,83.35465486863627,-11.665149721904791
0.455078125,83.24736420780397,-11.735808849928835
0.458984375,83.13908331624496,-11.807078483644528
0.462890625,83.02981136664619,-11.878957948881652
0.466796875,82.91954756106101,-11.951446535920994
0.470703125,82.80829113180798,-12.024543498789829
0.474609375,82.69604134237342,-12.098248054555777
0.478515625,82.58279748831805,-12.17255938261928
0.482421875,82.46855889818704,-12.247476624004932
0.4863281249999999,82.35332493442347,-12.322998880651921
0.49023437500000006,82.23709499428479,-12.39912521470387
0.494140625,82.11986851076212,-12.475854647798306
0.498046875,82.00164495350201,-12.553186160356104
0.501953125,81.88242382973033,-12.631118690871153
0.505859375,81.76220468517823,-12.709651135200552
0.509765625,81.64098710500946,-12.788782345855683
0.513671875,81.51877071474904,-12.86851113129445
0.517578125,81.39555518121286,-12.94883625521504
0.521484375,81.27134021343767,-13.029756435851544
0.525390625,81.14612556361145,-13.111270345271814
0.529296875,81.01991102800334,-13.193376608677893
0.533203125,80.8926964478931,-13.276073803709435
0.537109375,80.7644817104996,-13.35936045975049
0.541015625,80.6352667499077,-13.443235057240063
0.544921875,80.50505154799342,-13.527696026986874
0.548828125,80.37383613534665,-13.612741749488743
0.552734375,80.24162059219121,-13.698370554257057
0.556640625,80.10840504930148,-13.78458071914677
0.560546875,79.97418968891535,-13.871370469692426
0.564453125,79.83897474564282,-13.958737978450657
0.568359375,79.70276050736985,-14.046681364349727
0.5722656250000008,79.56554731615671,-14.135198692046592
0.5761718749999993,79.42733556913066,-14.224287971291906
0.580078125,79.28812571937145,-14.313947156304017
0.583984375,79.1479182767907,-14.404174145151536
0.587890625,79.00671380900259,-14.494966779146273
0.591796875,78.86451294218658,-14.586322842246188
0.595703125,78.72131636194109,-14.678240060469458
0.599609375,78.57712481412726,-14.77071610132016
0.603515625,78.43193910570234,-14.863748573226236
0.607421875,78.28576010554194,-14.957335024990432
0.6113281250000007,78.13858874525022,-15.05147294525491
0.6152343749999993,77.99042601995767,-15.146159761980137
0.619140625,77.84127298910474,-15.241392841939213
0.623046875,77.69113077721211,-15.337169490227526
0.626953125,77.54000057463492,-15.433486949789609
0.630859375,77.38788363830145,-15.53034240096314
0.634765625,77.23478129243472,-15.627732961041298
0.638671875,77.08069492925631,-15.725655683854269
0.642578125,76.92562600967126,-15.824107559370725
0.646484375,76.76957606393337,-15.92308551332021
0.650390625,76.61254669228956,-16.022586406837334
0.654296875,76.4545395656025,-16.12260703612873
0.658203125,76.29555642595041,-16.223144132163753
0.662109375,76.13559908720278,-16.32419436038988
0.666015625,75.97466943557109,-16.425754320473903
0.669921875,75.81276943013324,-16.527820546069904
0.6738281249999999,75.6499011033306,-16.630389504615135
0.6777343750000066,75.486066561436,-16.73345759715506
0.6816406249999938,75.32126798499385,-16.837021158197334
0.685546875,75.15550762922328,-16.941076455600722
0.689453125,74.98878782439824,-17.045619690490533
0.693359375,74.82111097618426,-17.150646997213748
0.697265625,74.65247956594548,-17.25615444332564
0.701171875,74.48289615101321,-17.362138029613877
0.705078125,74.3123633649164,-17.46859369016009
0.708984375,74.14088391757244,-17.57551729244052
0.712890625,73.96846059543664,-17.68290463746702
0.716796875,73.79509626160878,-17.79075145997
0.720703125,73.62079385589516,-17.899053428624672
0.724609375,73.44555639482437,-18.00780614632218
0.728515625,73.26938697161505,-18.117005150487174
0.732421875,73.09228875609402,-18.226645913443352
0.736328125,72.91426499456266,-18.336723842828754
0.740234375,72.73531900960988,-18.447234282062286
0.744140625,72.55545419986979,-18.55817251086341
0.748046875,72.37467403972187,-18.66953374582658
0.751953125,72.19298207893182,-18.78131314105238
0.755859375,72.01038194223088,-18.893505788837114
0.759765625,71.82687732883161,-19.006106720422828
0.763671875,71.64247201187774,-19.119110906809674
0.767578125,71.45716983782614,-19.2325132596326
0.771484375,71.27097472575824,-19.346308632104492
0.775390625,71.08389066661884,-19.460491820027777
0.779296875,70.89592172237978,-19.575057562876683
0.783203125,70.70707202512594,-19.690000544952397
0.787109375,70.51734577606099,-19.8053153966133
0.791015625,70.32674724443048,-19.920996695582666
0.794921875,70.13528076635936,-20.037038968336187
0.798828125,69.94295074360127,-20.153436691571695
0.802734375,69.74976164219679,-20.270184293763663
0.806640625,69.55571799103782,-20.387276156804983
0.810546875,69.36082438033498,-20.504706617738616
0.814453125,69.16508545998511,-20.622469970581868
0.818359375,68.96850593783577,-20.740560468245928
0.822265625,68.77109057784354,-20.858972324553573
0.826171875,68.57284419812267,-20.97769971635787
0.830078125,68.37377166888116,-21.096736785764787
0.833984375,68.17387791024038,-21.21607764246283
0.837890625,67.97316788993497,-21.33571636616266
0.841796875,67.77164662088947,-21.455647009149963
0.845703125,67.56931915866778,-21.575863598954736
0.849609375,67.36619059879189,-21.69636014114036
0.853515625,67.16226607392582,-21.817130622215796
0.857421875,66.95755075092104,-21.938169012674404
0.861328125,66.75204982771916,-22.059469270162932
0.865234375,66.54576853010762,-22.18102534278434
0.869140625,66.33871210832451,-22.302831172538106
0.873046875,66.13088583350778,-22.42488069890192
0.876953125,65.92229499398451,-22.54716786255858
0.880859375,65.71294489139588,-22.669686609272134
0.884765625,65.50284083665277,-22.79243089391733
0.888671875,65.29198814571757,-22.915394684666545
0.892578125,65.08039213520709,-23.038571967338473
0.896484375,64.86805811781166,-23.16195674991296
0.900390625,64.6549913975252,-23.28554306721643
0.904296875,64.44119726468111,-23.409324985782497
0.908203125,64.22668099078858,-23.533296608892453
0.912109375,64.01144782316366,-23.657452081800383
0.916015625,63.79550297934979,-23.781785597147888
0.919921875,63.578851641321606,-23.906291400573306
0.923828125,63.36149894946655,-24.030963796520673
0.927734375,63.14344999633796,-24.155797154253612
0.931640625,62.92470982017353,-24.280785914079498
0.935546875,62.70528339817293,-24.405924593789415
0.939453125,62.485175639528,-24.531207795319517
0.943359375,62.26439137819893,-24.656630211639484
0.947265625,62.042935365429756,-24.78218663387399
0.951171875,61.82081226199614,-24.90787195866314
0.955078125,61.598026630178396,-25.033681195768022
0.958984375,61.37458292545256,-25.159609475927677
0.962890625,61.15048548789201,-25.28565205897381
0.966796875,60.92573853327222,-25.41180434220991
0.970703125,60.70034614387066,-25.53806186906137
0.974609375,60.47431225895423,-25.664420338003534
0.978515625,60.24764066494578,-25.790875611774656
0.982421875,60.02033498526178,-25.917423726880887
0.986328125,59.792398669812364,-26.04406090340066
0.990234375,59.563834984155285,-26.17078355509594
0.9941406249999993,59.33464699829489,-26.29758829983793
0.9980468750000006,59.10483757511673,-26.424471970355274
