0.006249987054616213,53.35227277610328,-24.968529584306182
0.2622264226998428,52.003444380593194,-25.318312895535303
0.7428272500949898,42.84390891767,-27.46352844608208
0.6899944958974087,44.23884850908402,-27.16365820660225
0.1664931995095728,52.806699181306186,-25.11101830711667
0.4577448774811744,49.277080411006295,-25.999441902020724
0.5418022602805879,47.67007840494315,-26.3843395595596
0.6367769937918372,45.55716281502314,-26.871203888997567
0.36255098774652483,50.78412728318119,-25.62725849837437
0.9931717418711853,35.06500528946502,-28.94621593396159
0.7847616159144581,41.667306404483845,-27.708625932351367
0.5950083403073327,46.52383804590583,-26.651153449604013
0.30998362429298604,51.46917222320048,-25.4545329234293
0.9697528874560128,35.862318679442204,-28.809585384873877
0.9699446551599618,35.85499775532061,-28.81068145162036
0.9240832596950744,37.3799706919403,-28.53921908967177
0.7851438089249952,41.65627699615764,-27.710817544372663
0.8303105154780053,40.331065501368016,-27.978260480323037
0.40502993861081604,50.15129062003411,-25.78485256507605
0.12778523150610724,53.03026856837376,-25.052792960419048
0.21961342648364046,52.40423397516733,-25.21524408268718
0.4699790809986178,49.057824787159134,-26.052711525086067
0.44680352089939684,49.46604999810369,-25.953376130848063
0.4347908678465905,49.66857964226958,-25.90381185985995
0.5650396618387457,47.18314115164905,-26.498510723922212
0.5529691848299237,47.43937093419152,-26.438559443672403
0.529818359018304,47.91422752366831,-26.326683503872594
0.7553875031011897,42.49744108434372,-27.53649188629144
0.731685563494436,43.143963129560404,-27.399891312287966
0.7198179061906222,43.45772783965657,-27.332871088997557
0.7079429249660896,43.763456611220086,-27.266974075342457
0.6899851440665135,44.231273850151204,-27.165180706047444
0.6719384971837534,44.69990701298781,-27.062354210406422
0.7672625066774672,42.171162945873675,-27.604522363276235
0.7968123527045291,41.3188916484469,-27.77981353062971
0.8018199097657168,41.17344973608107,-27.809263402623447
0.9843383931201246,35.36898600368909,-28.894812794739277
0.9889050722122211,35.210336917743575,-28.92144998271662
0.9817477281409058,35.45712138229204,-28.87954672994813
0.9928426559286894,35.0732765367793,-28.94482853253768
0.8471469835078291,39.821904653785516,-28.078516606298095
0.8309269753646774,40.31091677621949,-27.982217661214353
0.8131044935154655,40.84191877919066,-27.87618212117934
0.903144160900434,38.06239679537565,-28.413774840736878
0.9408095165967599,36.83273743690659,-28.63860531313569
0.9374671741925168,36.94062877782759,-28.61881057004297
0.8005956727052107,41.20959870909474,-27.802016095128913
0.7843328338077369,41.680235023653715,-27.70583104334344
0.766314380711105,42.19521234640286,-27.599551577032887
0.19872387377390074,52.575692623233245,-25.17093696228637
0.21525379578512144,52.44021987907829,-25.205957207467822
0.2333360618081925,52.28121715613804,-25.24696611914873
0.14961452589641133,52.91133980670695,-25.083790697126858
0.17137571561612194,52.775434854103885,-25.119146571077867
0.18344139417871239,52.68939974247155,-25.14146757212265
0.12027319241071893,53.06716645650031,-25.04316051357952
0.12110634395750051,53.064609343190774,-25.04383313729702
0.10336352791393952,53.1413429169088,-25.02377997426469
0.23131180962833375,52.30318964588479,-25.24131554056903
0.22114463301818413,52.39020706338516,-25.218880494533995
0.1948839043521145,52.60821727524083,-25.162522616446022
0.5769146505138619,46.92979055552453,-26.557387609962554
0.5949987544960912,46.52278190156513,-26.65130447094594
0.6130264501974756,46.10830666542923,-26.74630472867451
0.48800222993020753,48.72738851892412,-26.132529955673096
0.4790457454689996,48.89255120199893,-26.092662978064606
0.5216631853398952,48.078952462667075,-26.287666696002358
0.3868295353613386,50.43277511863522,-25.714995967361002
0.40494108048835487,50.150774363587885,-25.784948526983108
0.42291586799560243,49.86013836088344,-25.856724648157563
0.5312068290106857,47.886656285429034,-26.333205964581584
0.48939938645675574,48.70000250293638,-26.1390650769228
0.5016744979387935,48.467717924224885,-26.194849114388376
0.37495453551035085,50.606606881520754,-25.671681686760724
0.35182775479745726,50.931538044831996,-25.590280053259672
0.33982043636035897,51.09175405245157,-25.549975378523936
0.6600634861568909,44.992496098784514,-26.99759078461095
0.6482065278868177,45.28372590121029,-26.932577401300218
0.624901453773755,45.836865215479584,-26.808039670951878
0.7160367146078712,43.56275042681819,-27.310309934390904
0.6686288323876136,44.78249820212163,-27.044094172199337
0.6919630035783558,44.19063041545999,-27.17422280442499
0.6130635012934792,46.11021525950271,-26.74590421391959
0.5950264309403558,46.523390625133885,-26.651224886244176
0.5770558371948277,46.926165450565456,-26.558267366015173
0.24384150510903851,52.1883493222067,-25.270857770636155
0.2676081446654179,51.94841972644455,-25.33240651004056
0.2789668981659266,51.82661467384032,-25.363550740771448
0.28962962660511593,51.708230829296795,-25.393765987101926
0.3062349963518006,51.51456715572133,-25.443027316107965
0.3161516636610031,51.39420922771786,-25.473556873439225
0.42318534260550356,49.858949168572906,-25.857024514092924
0.40505623530583224,50.14965454092048,-25.78521935990834
0.3870950706867105,50.428919564680925,-25.715952201291753
0.2919226828699712,51.683445410143925,-25.400061151362983
0.3099823977256425,51.467661439303726,-25.454887443330676
0.3279454327840802,51.24213068390781,-25.512018292142375
0.5123427595501591,48.262074128285114,-26.244037771715192
0.5000328563996141,48.4989254306768,-26.1873810455573
0.050380991055339414,53.30151547019796,-24.981844194982205
0.6451923409321821,45.35611715755438,-26.916423849262525
0.5511421581871312,47.47716955921327,-26.429716935848106
0.6452970418868806,45.353656864479866,-26.91694181918332
0.6563217908975754,45.08638242786578,-26.976761423931407
0.7380864664868908,42.97143944647865,-27.436592639070913
0.9211011125429132,37.48140244743119,-28.521020144157035
0.9316968933870404,37.13605909485284,-28.58404422195876
0.9064225198706948,37.95855440933617,-28.43318513754232
0.48769999017209864,48.73280292414989,-26.13124255923753
0.4518403349551897,49.37880732044832,-25.97468041641032
0.3583246553482303,50.84226335427651,-25.612699252818228
0.3575530727075033,50.85265517060318,-25.61009615306704
0.2746592312849322,51.87381077219321,-25.35150774631292
0.3269463229230513,51.25841352016575,-25.507910008290438
0.1606506024379944,52.84422697825361,-25.101257968549724
0.2619180978033032,52.006330109675446,-25.317587505093563
0.16913561020175383,52.789653446069764,-25.115450633447566
0.10262146134602296,53.14367797449301,-25.023166719304335
0.158848810940981,52.85635747473014,-25.098107518771833
0.5000098933226386,48.49955882471007,-26.187217100428875
0.5708429890819795,47.0574079275083,-26.527846578781464
0.5180082798013468,48.149851188749736,-26.270662568879143
0.5652052566217451,47.17934399527166,-26.499421204080132
0.5181366856690317,48.14807680122809,-26.27115068449633
0.05962938079378835,53.28205383920139,-24.98694591223571
0.8846511379399676,38.65428835538093,-28.30282677299458
0.8923862730871119,38.40842690433439,-28.34944393100336
0.937320003926145,36.94924750490372,-28.61758420844938
0.8804466002468152,38.787986095240704,-28.27777967310894
0.13410782146209868,52.997726966152406,-25.06128492217931
0.14113939614755283,52.960751862084656,-25.0709228010861
0.18410454376991991,52.68637328565448,-25.142265835295113
0.1913838159911364,52.63384812679044,-25.155888252107065
0.11098803606196554,53.11156531782123,-25.031566900396577
0.5499785265095047,47.50076182164118,-26.424183553217347
0.614178830772229,46.08809262165801,-26.75094085395324
0.6249079208777125,45.83378961759358,-26.808723572100945
0.6082450572052712,46.22502500939522,-26.71974590121134
0.582698044368013,46.79875820821375,-26.587829098355154
0.5950230378401982,46.524763996953,-26.65102238738911
0.5944427057397922,46.53716121706307,-26.64813787634121
0.5943347122921555,46.5399389801466,-26.647442639338387
0.6035129065293621,46.332669458809214,-26.69504736393135
0.6451197275736839,45.357014813285794,-26.916198033701093
0.5834673973145442,46.78306318885042,-26.591417900927965
0.5968623403722173,46.48517715953158,-26.66008567536919
0.5469025520132194,47.5646152357458,-26.409158353022654
0.6134951999748188,46.10456640894754,-26.74720266515814
0.5956764757777503,46.5098635547437,-26.654386753334695
0.7268295327377043,43.27532679578439,-27.371933862934416
0.7604723079554988,42.35441990118392,-27.566487714967934
0.6249709148953554,45.83444524583615,-26.808573059170396
0.665760038461151,44.85132475476324,-27.028985005778484
0.6249066244766888,45.83765715482266,-26.80777661830497
0.6899580612060421,44.23569622421817,-27.16432519090235
0.6719109821896063,44.693799966759215,-27.063661213369095
0.7137512427350627,43.62175853224931,-27.29765276053619
0.9684505157270643,35.90640330608739,-28.801803967711383
0.8403347256982303,40.03020520236436,-28.03765404543071
0.8112798070279044,40.8955683798819,-27.8654152444904
0.8532445471722976,39.635084452966495,-28.115014002532213
0.7911736356623725,41.478348744472264,-27.74728446746188
0.7790091131672376,41.829311170664226,-27.675245488916552
0.8277039797778146,40.409336084326384,-27.962696427497324
0.7548353491460313,42.51367224158325,-27.533089983537998
0.7723782432492594,42.01986393506245,-27.636041406069907
0.7968296356091139,41.31868714373153,-27.779968260521162
0.7652885467908251,42.22033507702055,-27.594312133485193
0.7851922950184735,41.65399986417399,-27.711400042103303
0.7824941264895754,41.73171511795619,-27.69549076426652
0.7813691316030296,41.76369318581581,-27.68878173884196
0.784903255757024,41.662419533583794,-27.70973744685775
0.7844871091084641,41.674222305529156,-27.707233234877545
0.9605669184479209,36.17345879651021,-28.755379985510537
0.9832418675738156,35.401797435026886,-28.889032114919495
0.9736885704545359,35.72962806795374,-28.832573794775477
0.9795767759962793,35.52773908268515,-28.86717807477721
0.967311198083948,35.94232230240137,-28.795459706593043
0.9213422513012945,37.47357142562844,-28.52242232042447
0.9911666512489307,35.1347428704285,-28.934593124603875
0.9931717418711972,35.061276535139676,-28.94698602778828
0.9574270601106757,36.280166721380134,-28.736563494391984
0.8494651366807388,39.751141427229356,-28.092309743395074
0.9029319644650686,38.07017588885783,-28.412521765161163
0.8776511563264352,38.875049365084614,-28.261057407024172
0.42924817014433414,49.76317325214013,-25.8806137477291
0.48205881690501573,48.83594324088375,-26.10634854064527
0.4349410119467796,49.666674507607745,-25.904235635105355
0.3560721282528322,50.87245276272367,-25.60512667939145
0.40869944117522083,50.09359307682738,-25.799127737243055
0.4165070578455918,49.96955188781278,-25.829764772111343
0.4530189827490552,49.35891462783383,-25.979521602017705
0.41078415919556227,50.06114133971253,-25.807180023501644
0.43257276620657875,49.70675155995028,-25.894434734201056
0.45309730750653376,49.357357503155285,-25.97992031897644
0.38582564083884424,50.445781338294644,-25.711756146836386
0.3755823739436998,50.59839077955947,-25.67373222544136
0.39236417120483386,50.34768515460058,-25.736180420365397
0.41734609501265874,49.956969053685356,-25.832901629791532
0.4049797118779495,50.15296698796392,-25.784469612569204
0.4033171464883117,50.17840406497885,-25.77814626178622
0.41343202848448496,50.018356039771724,-25.817722194217986
0.3964994590403043,50.28406435660075,-25.751976973577904
0.32836675643920904,51.241155717890486,-25.5122889766105
0.3458365167449581,51.012820544597666,-25.569863963456434
0.38083083381551563,50.52019071542111,-25.693256868479423
0.24418452258301876,52.181737834884096,-25.272563566560766
0.28545573073164754,51.75601542334755,-25.381587552820136
0.24529908281835314,52.17147923780903,-25.27520157168787
0.31001152949577665,51.46910154154872,-25.45454567924299
0.2801357004528644,51.81435715027253,-25.36668961899181
0.3345346180276959,51.16185172771489,-25.532318777559144
0.057932912769452366,53.28519456237934,-24.986122278184997
0.08742322989473447,53.20210317714291,-25.00788558023037
0.11060871616959951,53.113266661693224,-25.031121812912648
0.035105553344909925,53.32719822347073,-24.975108729954016
0.02171547234160162,53.34116326220335,-24.97144427711062
0.07549634161624182,53.240737182104176,-24.997770708479127
0.012595513476816056,53.35088569127439,-24.9688938186652
0.06465384768755485,53.271015913527535,-24.989839176159247
0.02946926329989141,53.33581704212108,-24.972846374035612
0.025525048353910448,53.34084570704811,-24.971527527246838
0.044113356147918295,53.31559210460052,-24.97815397186935
0.016512907353808306,53.348714271075416,-24.969463500294953
0.05776192810036994,53.28633020564043,-24.985824455617333
0.029154563767105342,53.33644993431977,-24.972681147165233
0.29227443316826346,51.6775223496244,-25.40157532305997
0.2630506829115833,51.99487183310073,-25.320521961653636
0.1969967713063403,52.588506316359535,-25.167622837754443
0.20329831841635562,52.54076155641049,-25.17999286423217
0.2281670067089147,52.32997405463178,-25.23441303054296
0.2158322641085918,52.43757898279262,-25.20665483652619
0.21567428603444494,52.4378165661537,-25.20659267876505
0.22289038951390766,52.37673252444524,-25.2223348228602
0.20671644277793091,52.5118438479927,-25.187453961607584
0.17207765034192465,52.770692874565555,-25.120381521874815
0.21013660502210502,52.484881740278624,-25.19443300537776
0.21091901726943194,52.478663581133404,-25.19604446989277
0.26368518468964997,51.988921981891984,-25.322044390997693
0.20667989128452577,52.511284744190895,-25.187605043723064
0.2257698139391199,52.35039260116408,-25.22914953404226
0.10020080494000781,53.15451967586545,-25.02033484783113
0.12394584298899951,53.05067101166299,-25.04746804253101
0.48195049508781773,48.8368659658814,-26.106081418440063
0.6874799239198796,44.30651128572753,-27.148951374183707
0.5124217080234279,48.26060857330583,-26.24439847360447
0.5370578459476677,47.76733684646075,-26.36143738224821
0.5356397360572608,47.796418715542245,-26.354575549349697
0.5242057825928358,48.02708581975859,-26.29992661537548
0.5246493752578079,48.01831883571142,-26.302019465260425
0.5248898408388314,48.01325979045264,-26.303205691513302
0.5239653170118103,48.03163516299778,-26.298840049525303
0.5001820412226862,48.49633853661479,-26.18801315671376
0.4762102134368321,48.94685424319526,-26.07961263367495
0.5253270111059389,48.003599128706156,-26.30551032840588
0.500165044600566,48.49666325917993,-26.187919478099126
0.5006788736153374,48.48723904325501,-26.190202917040754
0.4876849122187977,48.73402734283349,-26.130948899599534
0.5131590059971046,48.245866133947665,-26.24791055946785
0.938143570184119,36.92228246002448,-28.62224690156363
0.9356894570142867,37.003359270843355,-28.607633575158832
0.30247335135936704,51.55929465401444,-25.431649170720373
0.32940169901167005,51.228427253857014,-25.515503829855202
0.33734038204466016,51.124230448771975,-25.54177992555084
0.19878379713150435,52.57597671949964,-25.17087316197305
0.19031569612988652,52.640143716129984,-25.154242620195834
0.6991307899742223,44.006455613954245,-27.214335441041836
0.6842510765260089,44.38704628292466,-27.13109138171219
0.6886339266638191,44.275708923456584,-27.155519744939188
0.6651417963514158,44.86845862864717,-27.025129131641826
0.6621390392850566,44.943194407988614,-27.00862451626042
0.6450521562038197,45.35918429894831,-26.915705278345275
0.6202228190378782,45.94835785669288,-26.782706852683496
0.6702272564516721,44.74131727576974,-27.05321686005685
0.6451169405940332,45.35842177428538,-26.9159297036938
0.6450203119598404,45.36041341964998,-26.915438550711535
0.6319155087591708,45.673707731113694,-26.8449577059196
0.6582217437947043,45.03975251421391,-26.98714039271797
0.5754375183371871,46.959275972304354,-26.550532742194648
0.5246311736637173,48.017588980653684,-26.302120810936657
0.5430350095366447,47.64333996578288,-26.390548926544547
0.5614817856845192,47.25929516139185,-26.480717780772054
0.5764849940533596,46.93698339151926,-26.55569579904627
0.5281995033077959,47.94657780507567,-26.318993296227905
0.5625292614006936,47.23628976715495,-26.486062642578013
0.563691466729378,47.21121102570218,-26.491969019557374
0.548813020225581,47.524982416022794,-26.418476540693273
0.5476508148968955,47.54836043002189,-26.41296246063271
0.6200850978302841,45.951485814151106,-26.78201177217955
0.6693561333482245,44.76327303619443,-27.048322937316364
0.6322981156498272,45.66522633118446,-26.846858020141077
0.6452651976429014,45.35509036641584,-26.916639168375706
0.644628424381236,45.36929025924699,-26.913399059083666
0.6575955063743101,45.05576468075779,-26.9835337429476
0.6558929620585185,45.09721686301787,-26.974356462695948
0.6776318470905986,44.55415408549852,-27.094608928048668
0.682125410796621,44.441218890344224,-27.119325541319707
0.6681881009985421,44.792754246558914,-27.041875625595445
0.667715716065318,44.8039095044979,-27.039407897503967
0.6657839189242077,44.85141373027364,-27.02890360149155
0.6701198981396519,44.74423168430112,-27.052618974429407
0.6934228818726421,44.15428625416402,-27.182153010331977
0.6899674130369392,44.23721045065331,-27.164029802990534
0.6935826581861674,44.15001975233734,-27.183108692665037
0.6800631120254005,44.49623775079871,-27.10732708304482
0.6681968019244354,44.79425742480308,-27.041623773583254
0.7149545515131607,43.58979352106547,-27.30450435434227
0.6934521565560582,44.15487468379369,-27.182077417047648
0.4917675685167967,48.657223233095465,-26.14940392000601
0.5097804079161744,48.31024566474648,-26.232488718819354
0.4731733790047568,49.00005502244958,-26.066680690329253
0.48157807786276285,48.847130735831335,-26.103682487134225
0.8087220200055175,40.970204921727714,-27.850463621316166
0.8498777225599035,39.74014301377904,-28.094271660715446
0.8206497813648352,40.6224869171437,-27.92028823026679
0.8323387972488924,40.27573461341828,-27.98891567449895
0.736889400272126,43.00313739342329,-27.429842940764757
0.7605328408253631,42.352069574544565,-27.5668685602116
0.715031981527999,43.589354437766616,-27.304533955328605
0.738289723510389,42.965899731770456,-27.43778213775688
0.7369518115200174,43.0014556619257,-27.430199381895317
0.7484650739079847,42.68718237825958,-27.496656164375093
0.7267764611224307,43.276274956425745,-27.371738392566215
0.7375466719226466,42.98627902922303,-27.43345002497372
0.7600498825070441,42.36556665926229,-27.564025564189468
0.7151686137647405,43.58596675365301,-27.30519088833666
0.7433259243056983,42.82806388260631,-27.466877316037333
0.7428941877776131,42.83973728590664,-27.46438829747597
0.731949294154475,43.13714473560615,-27.401274819905815
0.7315175576263898,43.1491421520618,-27.398717211189307
0.8281008823484451,40.39871348977023,-27.96491555238863
0.8075732687389764,41.003772910884365,-27.84363550573281
0.8511458478813575,39.699731251633224,-28.10219480544934
0.8206827389035495,40.62107544983307,-27.92057378943169
0.8347556738368926,40.198956699573884,-28.004436715519383
0.8336398801090623,40.23355394520142,-27.997688826636104
0.8217985326313687,40.58539558277287,-27.92767530448227
0.9175686275991792,37.59807287431656,-28.499702258808803
0.9491888288524722,36.55558405101087,-28.687717050442938
0.9022456548552749,38.093718603195626,-28.408121641288062
0.9266287311751473,37.301921403134365,-28.55391251893516
0.9192597603830742,37.543689395121675,-28.509822552470176
0.9383654032337713,36.91502233049305,-28.62376729874105
0.9149874228324624,37.68261321057031,-28.484315164541815
0.9764066123190431,35.632844521337184,-28.849171282925955
0.9496621427207674,36.539801617419286,-28.690612000822416
0.8993617561474418,38.186088409898304,-28.390871852636177
0.9362009565815866,36.99120718115249,-28.609924338300804
0.9104123913407444,37.83070911851964,-28.457054919085113
0.930005760603151,37.193206510908425,-28.57351761503935
0.9215803858151377,37.46699708977726,-28.523561997097204
0.8723979592763768,39.04327839964521,-28.229091330479427
0.8385694026947018,40.080694208423694,-28.0276508718579
0.8759886117657917,38.927405566746174,-28.25119362742295
0.890360418803582,38.47418150580662,-28.336868364732414
0.888119229861188,38.54583198261942,-28.323579312455315
0.9094289791467153,37.86266806770069,-28.451063105945362
0.8787812339420547,38.84132831741708,-28.26757100101463
0.887301983255238,38.57122523393883,-28.318672985749156
0.8983526184485441,38.218777259202916,-28.385060823283073
0.48824840579761697,48.72214708797616,-26.133789101359596
0.46460759765916276,49.15554896541613,-26.029038039893827
0.46419104112600085,49.16267319594564,-26.02730626290606
0.4758130060622189,48.952018398864595,-26.078324009415915
0.4767260658794361,48.93533425909695,-26.08236041061397
0.4768733320336867,48.93260340197838,-26.083004876531824
0.47566573990796907,48.954911901283445,-26.07762434583264
0.42642828489446843,49.806693798244886,-25.869840200931506
0.4761161551010911,48.946661962191385,-26.07960556627655
0.44237958290555196,49.54124052855741,-25.934982617688252
0.45880362974820776,49.25661642158981,-26.00441821266087
0.45755772472440964,49.27847913528507,-25.999102841603353
0.4436254879293511,49.519081414554826,-25.940375097108916
0.3828612620511283,50.4883894110799,-25.701142618460768
0.3361333538507958,51.14071071746861,-25.537630537855325
0.36741890896928575,50.7128796439849,-25.64509255135563
0.368684017115999,50.694893826488624,-25.64959597440681
0.35436867272274525,50.89590002497293,-25.599223458921305
0.3531035645760325,50.913449167940705,-25.594825129044853
0.3570507401766065,50.8599584049151,-25.608267486155178
0.38049350045061636,50.52378726235768,-25.692317289834836
0.3342895112898958,51.164591172196964,-25.53160126989951
0.35811209765891555,50.845089773411786,-25.61199677541842
0.3566664694703844,50.86517965693312,-25.606954902325896
0.368614052263126,50.697187234436775,-25.649038658996115
0.3461645148661734,51.0083141126559,-25.57099185712146
0.4287931106032188,49.768132199064425,-25.87934282286871
0.4781428611041679,48.90897625326603,-26.088670656111532
0.46319516146003575,49.17967490184327,-26.02314690491312
0.44599031363810154,49.479730684832774,-25.9500458900746
0.2736293952855586,51.88446127900534,-25.34877788845984
0.2972354237024749,51.621798701687254,-25.415778863584723
0.2987089888924886,51.604335598616444,-25.420223336164682
0.28678757417479295,51.739759454495015,-25.385715716709175
0.2853776994974794,51.75546345593993,-25.381703986473497
0.2853312883560612,51.756411263898364,-25.381470281480052
0.28683398531621035,51.739423819350506,-25.38580506674981
0.31130839153070977,51.45371304764699,-25.458469543439772
0.310012756063119,51.46945157288533,-25.454464587771152
0.31130839153071,51.45399553861506,-25.458400036511634
0.31046901934969523,51.463447315733816,-25.45599037431445
0.3339615131686791,51.1685860737718,-25.530616828948904
0.286534234861211,51.743528764652154,-25.384759507831024
0.31812684237956973,51.36905978899495,-25.47991807717879
0.30142568796873115,51.57042214082092,-25.42881264722402
0.0651355043452615,53.26986066588905,-24.990142036015893
0.053708607133635025,53.29499714300505,-24.983552819269327
0.09992289813697991,53.15542309176305,-25.020098396959778
0.08529313220136156,53.2084600700142,-25.006221500143404
0.07028965900721397,53.25482815339192,-24.99408099713571
0.006345526422199843,53.35091597884199,-24.968885324254572
0.01016738093160846,53.35269853205888,-24.968418124055297
0.05595812328383603,53.291434304111235,-24.984486287043275
0.05126819609132764,53.30082584620953,-24.982025227591564
0.09559183216760668,53.17291135867819,-25.01552563827645
0.06898515789721042,53.25906556575142,-24.992970678742168
0.07014110904410763,53.25552484944678,-24.993897145043327
0.16772172920605416,52.799147016474805,-25.11298467087389
0.19017317965279792,52.64108762059363,-25.15400486057699
0.13938282025875318,52.97187721998734,-25.068028757561905
0.16588146443019167,52.81175307798661,-25.109709584539647
0.1671243990472619,52.802641995849214,-25.11207546515022
0.17771131627584696,52.731398175289506,-25.130584015554614
0.15529454720160663,52.878186835525355,-25.092427842075097
0.2385314406931989,52.23514327547578,-25.258823728065884
0.286159693098189,51.746417533474855,-25.38401370449129
0.27099093971037885,51.91339353661066,-25.341391602540824
0.25387814590493085,52.08847477690981,-25.296528467279025
0.23591408804904834,52.25866013726661,-25.25276940446511
0.2845784768732954,51.76501575433182,-25.379284023298958
0.2512607932607805,52.11317952268417,-25.29017337013995
0.2501330968299765,52.12447236973047,-25.28727707090697
0.2656646744105306,51.96693798955502,-25.32766328969959
0.26679237084133445,51.95593075019571,-25.330486741406173
0.1927883537937914,52.620759184724214,-25.159267344563375
0.14165175534371363,52.95724190049058,-25.07183907200102
0.16853828004296165,52.793944379927815,-25.114337986446973
0.17064170092021516,52.78024707676494,-25.1179003502228
0.15743960955063646,52.8657300699278,-25.095672025942118
0.18174037141253988,52.70360173490956,-25.13780392053491
0.14590011909604067,52.93334695979428,-25.078063728964736
0.11849843811963416,53.07603749547964,-25.04084596860223
0.11439704810010659,53.09547787861395,-25.035768226169132
0.12698895585464695,53.03539385882006,-25.05145680796594
0.12124748133220085,53.0639110282373,-25.044012875622396
0.15081097635335955,52.90562063643435,-25.085286578029386
0.10725597136101882,53.1274500729309,-25.027415190938445
0.11986215256533776,53.070543247941835,-25.042283054744004
0.14642905567978906,52.93209288883316,-25.078396535704503
0.5004880725983585,48.49084692835492,-26.18932889128433
0.5236458659181378,48.03693993497208,-26.297616338486538
0.4763637346725987,48.94385782595842,-26.08030492558605
0.4998790462261965,48.501696521523705,-26.18669588022618
0.5007218696936144,48.48633214248636,-26.190412817522635
0.5119714468726912,48.26852729712466,-26.24250204349272
0.4886294690471227,48.715618461203675,-26.13535201338343
0.49544632145057926,48.586143007869644,-26.166429717436895
0.5300690045313867,47.90926855093699,-26.32785419173385
0.5144518056330365,48.21993563521982,-26.25404274921636
0.4963675357112009,48.56945859957573,-26.170475722845477
0.564844173505044,47.18953969717963,-26.49700434665453
0.5769722435018765,46.92208670976931,-26.55914009394304
0.5758072808175628,46.94969077859141,-26.552775383494573
0.5791396583107936,46.87781902144259,-26.569491368039436
0.5242421861296311,48.02744085267022,-26.29987296070473
0.5532471361896745,47.43177519367579,-26.440362848274027
0.5421203430291067,47.66374655633196,-26.38589987266776
0.5589633512445719,47.31170470873148,-26.468522257184713
0.5361052091723114,47.7876189767377,-26.35665818196241
0.5415243089208391,47.67348020881149,-26.383536826814392
0.5536107525037799,47.42506796314548,-26.441935382311197
0.5530221286556435,47.43789717512646,-26.438977131122225
0.5299392372379069,47.911537942456164,-26.32725458870539
0.5651267740270834,47.17907815060783,-26.499424625390496
0.5415772527465627,47.67507851783027,-26.38322651205408
0.5300768520232086,47.90952692276433,-26.32780388014978
0.5421974863406094,47.6605503400394,-26.386601704413202
0.5770077511476536,46.92255081063505,-26.559120844224225
0.5535336091922775,47.4265439531246,-26.441639488553662
0.5000802271910503,48.49803612189273,-26.187590829229205
0.5183215941782848,48.14143690384856,-26.27273243364172
0.4707348359179446,49.046160702834754,-26.055545529113402
0.5002124153920001,48.494422772187434,-26.1884008980854
0.4822569054913466,48.83556036112648,-26.106429908197743
0.5304422284956828,47.89984736179086,-26.330072805599613
0.470269293839926,49.05269464333613,-26.05397278750535
0.8903077734616381,38.47695305009689,-28.336575361785442
0.913707960896654,37.72400066641284,-28.476617897243003
0.9330563129916093,37.08812016591521,-28.592526437645102
0.9046713434765097,38.015613782121115,-28.42265100966423
0.9030495414388311,38.06880419196269,-28.412814695728592
0.9034981215579067,38.05413805757038,-28.415465878745692
0.904222763357433,38.030510414873305,-28.419857457753793
0.9231946463713605,37.414468511193384,-28.53315388943518
0.891785998374977,38.42837516616875,-28.34564712844082
0.9526432238021257,36.43830429602424,-28.70840782734452
0.924154620108289,37.38211474745328,-28.538993208972844
0.9267963856667654,37.29348488994098,-28.555166133237414
0.9487045094251337,36.56865821220316,-28.685523508100957
0.924490234938664,37.369794572422435,-28.54139862463816
0.8995393631312946,38.179236731630695,-28.392256780172183
0.9154192252738943,37.66466103540382,-28.487235980259925
0.9152170348544695,37.67377093889151,-28.485757713505894
0.9538493096223906,36.39747586941112,-28.715912869272096
0.911824433520686,37.783375184310444,-28.465604722231365
0.9233310538503098,37.409018944263934,-28.534305472285897
0.9272033609103433,37.280744021776314,-28.557633728274066
0.8791332308307226,38.831356393488115,-28.269650552187752
0.892570874867714,38.403808378541235,-28.350109727664815
0.8462397280538088,39.848109833880784,-28.073223946191806
0.8867941688480719,38.58712335466623,-28.315720604613748
0.8808241676273705,38.775197374815335,-28.279946929376507
0.8744464042985393,38.976631528017585,-28.24171567733399
0.8684764030778367,39.16161892883669,-28.20618237410221
0.8602036312335148,39.42135670674596,-28.15628194009676
0.8387105153031458,40.0774408983171,-28.0283586401525
0.904894635022348,38.006242594853894,-28.42421515232123
0.8790793173977108,38.831869547700855,-28.269438484047896
0.8852660902304681,38.635306163062786,-28.30656216051359
0.8735193829901233,39.00546133520783,-28.236158451513024
0.8536424056899347,39.62193914569822,-28.11740783881027
0.9039346612854268,38.037148464928634,-28.418467630433494
0.31900763989006103,51.359242689792026,-25.482411633353554
0.13271299379485615,53.00737659558368,-25.058770383890145
0.15540956834476083,52.87798446060855,-25.092482428197588
0.17223964779340176,52.768750692106295,-25.12087639434512
0.15846137914091948,52.858989140294256,-25.097423184824006
0.14401564331712585,52.944751250736914,-25.075093869820257
0.14353333430148799,52.94728590465262,-25.074433858586904
0.14328557728565297,52.94776461438752,-25.074303232446468
0.17261259872305557,52.76651585071295,-25.12146164884644
0.14333680427202514,52.94864940369709,-25.074077107606648
0.188094341115679,52.656299706412184,-25.15006193051883
0.17003560141992505,52.7832666968919,-25.117103018408436
0.16371044507015875,52.825153496288046,-25.10622253284196
0.19606581204745066,52.598191283008774,-25.165118838145457
0.16486538371105766,52.81623383368999,-25.10853263394324
0.15426100278844476,52.885029598390176,-25.09064753701537
0.16504568797323163,52.81604761212373,-25.10858615404181
0.1507961085949557,52.905116539693005,-25.08541596119327
0.1786549878373386,52.72576431549367,-25.132045933995762
0.14054769035019826,52.96391326737236,-25.07009880706468
0.16799622928195265,52.79753811013933,-25.11340141160566
0.1653382608686741,52.81452890452816,-25.108985753622726
0.12010372689068254,53.07048400411713,-25.042300153203946
0.15181684857228775,52.89857573538762,-25.087115305149656
0.10343327217469316,53.14148369691803,-25.023741763972556
0.11437080297057982,53.09541166363306,-25.03578022041266
0.13028708564784766,53.017963579057195,-25.0560008528551
0.11850698872197758,53.075747508232865,-25.040917929842593
0.12615089989645,53.039218943158005,-25.05045541766534
0.12399442592346356,53.05066015316168,-25.04746994264706
0.09476377532063733,53.17605053148879,-25.014704076724154
0.1528872308463171,52.89313664104303,-25.08853525245689
0.09494239566857203,53.17457935916478,-25.015087323914276
0.1439018099568226,52.945679537754714,-25.074853851447322
0.12471746759476084,53.04714430955551,-25.048391162769562
0.10964375104747659,53.1161132173087,-25.030375966494166
0.15922109400847945,52.85379884497284,-25.098770490689056
0.6772199223668851,44.56723322744042,-27.091693638995302
0.6994752534601978,43.99779151291664,-27.216231585746034
0.6697974269885325,44.753802035167816,-27.050595574854466
0.5463204160123417,47.57667195969426,-26.40633481315625
0.57160316925865,47.04126365594408,-26.531516314783783
0.5242981379486501,48.02545500183791,-26.3003102977597
0.5496869513258912,47.506847540948606,-26.422772449757762
0.5465224268921137,47.57250782314485,-26.40730734288179
0.5596835730349796,47.296354134258074,-26.47208370409971
0.5365258051830287,47.77861865007319,-26.35877295872131
0.5654613330768593,47.1754354323031,-26.500305745674137
0.5950310652014877,46.52441994880589,-26.65108703395993
0.6034072387848177,46.33453634161154,-26.694641370970864
0.5950033887572214,46.52373412160478,-26.651160290384688
0.6129858097713556,46.11463106418434,-26.744897295741932
0.6074707256180638,46.2417360665399,-26.71590944519964
0.6073379680406462,46.24586340578433,-26.71497870432755
0.6318535172587737,45.675071766288575,-26.84467102785214
0.6312176140633394,45.68956260206102,-26.84139836119563
0.6200754681341529,45.951244338274904,-26.78208383131454
0.6192083373557956,45.971375139224854,-26.77750023058766
0.6199380762956039,45.95454191554859,-26.78132993739716
0.619345729194343,45.96779969728681,-26.778301792686964
0.583481221198937,46.78174391284137,-26.591764910752545
0.5607328305438062,47.27513909605956,-26.47708315374291
0.5579806613853286,47.333068873336124,-26.4635052824896
0.5708184065306032,47.05755741885132,-26.52775116622851
0.5715616249752644,47.04172894418683,-26.53145469179271
0.5723193073004798,47.02501967297087,-26.535305601878978
0.5700607242053873,47.074144685674554,-26.523893516091732
0.5972835726644135,46.47454607419839,-26.66257543881545
0.5976075558745566,46.467736208293815,-26.664125638966404
0.59036256964456,46.62813157327309,-26.62715202467033
0.6199785136824907,45.952825354473845,-26.78174316265824
0.60341171349777,46.33480066610674,-26.694593736885555
0.59036704435751,46.62807122725538,-26.62717445417269
0.5726078341200826,47.020855994175704,-26.536329585196142
0.5950129745684641,46.52363449088517,-26.651189051157054
0.5943981130924001,46.537971694421756,-26.64793403691831
0.5942375868913663,46.54195007674896,-26.647022324528297
0.6193426104870604,45.966753240060804,-26.778597279671924
0.5819357277816664,46.81596918139269,-26.583820864392855
0.5698556649616058,47.080557126697364,-26.522422091403154
0.6173920530180571,46.01370763284122,-26.767823269467222
0.6642881073699839,44.88814124278231,-27.02060556963916
0.6322701331131381,45.66441628765307,-26.846929126527225
0.6474312078643712,45.29868383508586,-26.929054951866863
0.6172543318104614,46.01703129120577,-26.767059499509003
0.6651592304734399,44.86737118593236,-27.025262464169387
0.6481646097602312,45.2834615737513,-26.93256299044998
0.632090286785357,45.67039522549789,-26.84561302843892
0.6481224846400443,45.28479741211062,-26.93231698914934
0.6321324119055426,45.668093697866944,-26.84608791955394
0.5684282864121409,47.110790977321884,-26.51538238568729
0.6057828670429829,46.28346065410697,-26.70637117607685
0.5779756573051411,46.9042635238417,-26.563395570037045
0.5887316218511841,46.66759394109842,-26.618088363999362
0.5976581285126755,46.466363697748406,-26.664351714770817
0.6175406646133705,46.01189023882867,-26.768302215811637
0.5976521485219495,46.46681860478124,-26.664322785092665
0.6259812209900092,45.81300908352025,-26.81338129608149
0.6114951498811806,46.15102717002885,-26.736555851494053
0.5705556935424766,47.06465885765725,-26.526088447367847
0.5207298083045742,48.09617791693105,-26.283491633352586
0.5592182333196806,47.306730719564605,-26.469652744920648
0.5471045628929908,47.56086292070195,-26.41005743036236
0.5335396115398263,47.84041783195685,-26.34418991677488
0.5456532819665144,47.590373265112255,-26.403084505337493
0.6081776595644378,46.227312681058514,-26.71924863675501
0.6251056990306949,45.83408355018706,-26.80868972641823
0.5773599914747133,46.915567148820536,-26.560700075238802
0.582228626634337,46.81032293459233,-26.58515907171457
0.5961686993074077,46.49988295449997,-26.656756187001047
0.5708911664115403,47.057031853747496,-26.527909222358343
0.5941929942439738,46.542425548437706,-26.646882157047006
0.6202529561763799,45.94869591410884,-26.782736419167634
0.5645144132421593,47.1932679221547,-26.496105641215873
0.6873140042009435,44.31066170563002,-27.148006924277446
0.6748703879373237,44.62537544453078,-27.078812361630575
0.7145697560029152,43.602350876311064,-27.301747603716503
0.6627003115670845,44.92848609783012,-27.01174057905688
0.7042589309181839,43.87277936680504,-27.243391512226594
0.7196837566575062,43.46550508986117,-27.33120986467543
0.6740523388456049,44.64657951102436,-27.07416996477426
0.6917981771234355,44.19444067300293,-27.173374035112413
0.7256605487844147,43.30623169494596,-27.365351986472355
0.7023029564774709,43.92252795404231,-27.232632008671416
0.7032577134194063,43.89866921700205,-27.237800827591997
0.715258521652594,43.584270034848466,-27.305658626831555
0.7139486919237069,43.61759791581646,-27.298496427757826
0.7142050205624793,43.61098030222042,-27.299916830146785
0.715002193013833,43.590243183405754,-27.30440983042192
0.7547022536712661,42.5192783717833,-27.531900391142383
0.7830405357258193,41.71638280338901,-27.698548659473563
0.7671060891884189,42.16730263959281,-27.605246503270564
0.7656717821709885,42.20867201649117,-27.59675420854462
0.7543287062106421,42.526033490186094,-27.53055506202305
0.7140738070353364,43.615023571223865,-27.29910638417118
0.7431145444828048,42.83340600530177,-27.46578284959545
0.742849674645565,42.84245446420043,-27.463886453986916
0.7488411767833244,42.676960397952385,-27.49885550776413
0.725975871120343,43.29867089527239,-27.366968585295503
0.7313982691066112,43.148228870416766,-27.398982879740938
0.7429446397458536,42.83947374273003,-27.464594276425608
0.7429147050100364,42.840772923666016,-27.464322276607554
0.7547456756549832,42.512595115253454,-27.533253627572307
0.7080032970206669,43.769614303395606,-27.26555112701715
0.7314857240216611,43.15003197391032,-27.398715721751415
0.7660548024831064,42.19721125966723,-27.599161490411312
0.7315083150712475,43.149649596055184,-27.398794297339293
0.7314133499709636,43.15031655221331,-27.3985702787782
0.6130606998751749,46.11454832836861,-26.744916590111696
0.6192043543811634,45.97268672974812,-26.777269829199366
0.6482005972246623,45.281937938685935,-26.93300740583444
0.6482555591144473,45.282940551483414,-26.932792616129223
0.6539121102947598,45.143908873940184,-26.96391622131986
0.6310747236963096,45.69379104841736,-26.840453961253484
0.636782924453995,45.553954924614295,-26.871926184344737
0.6482522659578236,45.28292445642492,-26.932873230341446
0.6600485253910526,44.991055086388585,-26.997858166239137
0.6482060957531441,45.2832175464772,-26.932792676216796
0.6130306523249337,46.11344935043016,-26.745054214490104
0.6367824923203173,45.55726070292407,-26.871274503548115
0.6368384827921981,45.55708132915011,-26.871323793208774
0.6719000660457534,44.697311218462424,-27.06297755491737
0.6249343623469497,45.83776160513363,-26.807860530071093
0.6368417759488231,45.55518196313547,-26.87168302230421
0.7033835404280617,43.89665929247826,-27.238206812379513
0.7195232878820809,43.46355193202967,-27.3315917130309
0.7197834994094285,43.46143168867527,-27.331958999539513
0.708745863919949,43.75431813130924,-27.268955251412635
0.6743304369108841,44.63948646091848,-27.075705659009174
0.6600815389136768,44.995477846500705,-26.996900401227585
0.667733648260569,44.805503096891194,-27.03911990646269
0.6899673905311287,44.24108731676733,-27.16321575723763
0.6918004660298636,44.194527204368065,-27.173372403129164
0.7020393858743663,43.92985232800921,-27.231058014959928
0.679556402267367,44.507282615133946,-27.104888252162123
0.6899601485667889,44.24132816672224,-27.16314017662964
0.6916356395749401,44.19895515969012,-27.172436293080963
0.6899445084458664,44.24163526921505,-27.163078166402258
0.6601003878393078,44.9945742731308,-26.99712783353318
0.6899372664815303,44.24089193364169,-27.163127898692196
0.6719002597608461,44.70169236831263,-27.06198686128541
0.7196786110249941,43.46622125252602,-27.331052889667383
0.7078807805625401,43.773388881679416,-27.26483521128243
0.7078715120402779,43.778280220213496,-27.26377977374264
0.7196155195085014,43.46477937510246,-27.331330069369383
0.6600554310359847,44.993170101106614,-26.99746795921759
0.5178155300986789,48.154340535113576,-26.269704579395377
0.48385970205144074,48.804223684876895,-26.113997424147637
0.533535966972234,47.83910179860833,-26.344465132460925
0.502171330331442,48.457446541031054,-26.197298084981178
0.5079086006766842,48.34805995201462,-26.22349403685897
0.5206415004528793,48.09646330395299,-26.283410167860758
0.5258890430940402,47.99185414487502,-26.308235233077884
0.9711345686185564,35.81391665688804,-28.817784567033748
0.9785024348769361,35.56705944846211,-28.8604199966073
0.023524602644946033,53.34110724344815,-24.97145974849723
0.8091323427917071,40.95986807563797,-27.852616666421383
0.7993145502426601,41.24679349947226,-27.794480226233482
0.8231435596313107,40.54345680490099,-27.935950747996742
0.8679181414242998,39.18064557243913,-28.20280514149711
0.8677285828096949,39.187917595212156,-28.20136350806098
0.856633898934128,39.53120127664396,-28.134924068916437
0.8565396493613473,39.53389742579687,-28.134394205489286
0.8564532046611413,39.53658962422795,-28.133972298169592
0.8567203436343348,39.52891229588273,-28.13549035215382
0.8297200956514741,40.34800495807163,-27.974863244446205
0.8025773284976117,41.15081574579556,-27.813774536604466
0.8468973198306186,39.828840979577016,-28.077082967534796
0.8270932255315849,40.42656923678199,-27.95926533742803
0.8296316786097365,40.35010131953229,-27.974556644154127
0.8565914801672216,39.53177774957259,-28.134906447705248
0.8096728902684658,40.94314908358536,-27.855857859516092
0.8353779361309188,40.178019773025085,-28.00850611184326
0.8060437076982161,41.05011897331186,-27.834414726633863
0.8286849364941093,40.38054500794709,-27.968431351891706
0.8278711426551613,40.401210008803446,-27.964288353358576
0.8417796104091394,39.98523029334518,-28.046567690408324
0.8181625836785916,40.69276500692982,-27.90625335085041
0.8267649585458513,40.4363470565582,-27.957405323389768
0.699642374693939,43.99309024195754,-27.217222435505654
0.6925528848686779,44.175679808427084,-27.177433914812205
0.7076473874113925,43.78463254857785,-27.262392162462945
0.7200810505802364,43.45510872054616,-27.333342829171205
0.6895158497067077,44.2541653965184,-27.160352484717787
0.7077411465128913,43.77995626311662,-27.26343034111557
0.7093695538442892,43.737475913292364,-27.272536763124634
0.7616817341141571,42.31955679882156,-27.57358447659938
0.7160072937150221,43.56382515213172,-27.309971915558723
0.7327879741047557,43.11499689780013,-27.406017487487066
0.7457964558630923,42.76014884246564,-27.481154741428863
0.8392827109159623,40.060269045722954,-28.031732831194088
0.8073333181540907,41.00711023685971,-27.84293351069793
0.8554491266939258,39.567465270147835,-28.127996142591737
0.8317236968979396,40.28837255764529,-27.986724802507226
0.8331214508613156,40.248328038271886,-27.99483550947949
0.8204042602406963,40.6271744570892,-27.919427165689047
0.8444408875185607,39.90532004371039,-28.06223701630881
0.8088968093121135,40.96540199182399,-27.851388344850143
0.7848760877702841,41.66409729158934,-27.70923877627855
0.7853876813290948,41.65094229530063,-27.71177825127317
0.7840897660663442,41.686468297880054,-27.70470970009687
0.7985363969923897,41.26888982560329,-27.7899779081014
0.7723572870317373,42.02091109759804,-27.635798240984336
0.7723211279301282,42.02145862737181,-27.63569607382539
0.7484687255242665,42.68790022283813,-27.496525051426623
0.7485752744463706,42.684562309538585,-27.49721975001408
0.7603104763318784,42.3587007013228,-27.565513808142278
0.7606899967579448,42.34795970772189,-27.567745126806166
0.7605173849716659,42.3529074103418,-27.56669841610812
0.7604830881181661,42.35379050869575,-27.566520877429443
0.7971138097801848,41.310231800971316,-27.78166725192253
0.8160541905737004,40.75549595801516,-27.893589614013056
0.8270483344163512,40.42725061793611,-27.95916395966549
0.808948511589498,40.96512695059722,-27.85151223869539
0.8087960500153638,40.96995349456398,-27.850573497952404
0.8084656974684812,40.97916202423131,-27.84867734927504
0.8092788641363742,40.95548888897356,-27.853457228733028
0.7842997580109686,41.68019825093544,-27.706012938525202
0.7603437291005498,42.36031968508355,-27.565190620875807
0.8041791869974149,41.1029646519369,-27.823596512028956
0.7846322153661842,41.67041642974882,-27.70795676516874
0.7841069946698682,41.686064880637176,-27.704825982245023
0.7723923885479411,42.02021029519125,-27.635920052918877
0.796590693892207,41.32559348102116,-27.778525199230746
0.7845185481730667,41.67363213464146,-27.70735379449604
0.7842103237385036,41.68219894895369,-27.705572412631856
0.7849987270146704,41.66027981236015,-27.710143553247658
0.7604494733599455,42.3561835069022,-27.5660616453336
0.7974030558973952,41.30271739580869,-27.783218958392133
0.8055109438771673,41.065212378584114,-27.83124156263209
0.8263550670619031,40.448458367878644,-27.954892719941128
0.808482069420628,40.97461426739818,-27.84953139228663
0.85418100137247,39.606236067867954,-28.120422317355697
0.8303747841820243,40.32809004616652,-27.978818602005983
0.8179065962582529,40.70102381019713,-27.904551763016265
0.8293556615574107,40.36023143934888,-27.972317001942052
0.8418238494811869,39.98299189408438,-28.046914340900717
0.7582212645052698,42.4169392872399,-27.553335890488988
0.7832332990669212,41.7106345252017,-27.699752120258214
0.7987340252443654,41.26348167830911,-27.79108357298566
0.8073384435648927,41.011913530189375,-27.84202172227979
0.7948985995695997,41.37444367208286,-27.768601571284012
0.805231927088869,41.07437142765562,-27.82948646135777
0.7636100160218602,42.26575455341518,-27.584799928472613
0.7528737486502971,42.56595742591638,-27.522128947470687
0.770828825986894,42.063809314641105,-27.62692882932519
0.7369227043673958,43.00213453261825,-27.430056713310552
0.7621646924324732,42.30608225084428,-27.576434245424434
0.7158706614782816,43.56754975978052,-27.30920802022273
0.7407935591630523,42.89710150760434,-27.452295863890452
0.7369851156152872,43.000609170503935,-27.430395473422756
0.7276484451679788,43.25271404169215,-27.37668538531732
0.7501302296103649,42.641158537885936,-27.506385510870608
0.8062474498869823,41.04554245044029,-27.835295003601182
0.7844038917423038,41.676704768810396,-27.70672527547553
0.7538308873526836,42.53870422885972,-27.527855004841268
0.7673196899132906,42.16211543193264,-27.6065096389953
0.7960854559191229,41.34033466976686,-27.775562361482734
0.7732216915802048,41.99589920336337,-27.64098825899757
0.7611872287580935,42.334613910642865,-27.57065033023144
0.7995309978723539,41.24082181360843,-27.79566748782384
0.8088919589640583,40.96718886282376,-27.85104417948755
0.9807353569734284,35.48568900689076,-28.874281711578256
0.9511490843692186,36.488256892467895,-28.69952552749371
0.9887324396643827,35.220756987194875,-28.920140351043134
0.9719743072381973,35.78626335828578,-28.82289480507747
0.9795454435148426,35.52736070781444,-28.867209745421697
0.9273744257225865,37.27560426102533,-28.558346232810713
0.938491452849887,36.90774808541782,-28.625043844771685
0.9492701789609167,36.551768738431086,-28.688681084579184
0.9292301657844679,37.21605087702501,-28.56948489903547
0.9530095710027401,36.42579570628781,-28.710766149783133
0.9511242706319195,36.48792994098281,-28.69989869134407
0.971022025985581,35.818374197348604,-28.817409545129184
0.9928426559286846,35.072499096620994,-28.94506784866379
0.9815750955930677,35.45829753692318,-28.879320878270605
0.9696404291856465,35.86570821892697,-28.808882705470324
0.9860143977998784,35.31243297189746,-28.904416650182764
0.9398692363655089,36.866031071439934,-28.632284523575997
0.9757834202056002,35.655777221818404,-28.84499997902751
0.991652742470099,35.11069887574572,-28.938251245299114
0.9565187771790378,36.30876457886174,-28.731313939356852
0.9689016465220665,35.88957927152008,-28.804912456875932
0.988732439664385,35.21385042212752,-28.921051505828423
0.9692492682477336,35.877636305753526,-28.806841347785895
0.9492490782854852,36.55186512162684,-28.68828071701547
0.9033242908879358,38.056666349989804,-28.41478011294422
0.9352769108054885,37.01477032056385,-28.60558031399948
0.9205960906060311,37.49557822775449,-28.518061830329614
0.9497223921537794,36.53835777174379,-28.69077268287376
0.9062081895957681,37.96451679680635,-28.4319292530244
0.9243487105773203,37.37558934246407,-28.540319920741105
0.9239533031821554,37.388192813133756,-28.5379637406112
0.9361456320689457,36.9872104746665,-28.610590062747683
0.9357502246737815,37.00049561170001,-28.608151045774562
0.9720728152077905,35.78383857959061,-28.823154152474405
0.9800500898645693,35.5129334963412,-28.869722698169603
0.9481127089266842,36.591672963672494,-28.68139426793429
0.9712167411135011,35.81573750322814,-28.817787963595357
0.9492833590512402,36.54890979863787,-28.688724310975587
0.9728927457932595,35.75778469149186,-28.827718891083432
0.9686260761342913,35.90102722673129,-28.802734293106248
0.9343098229174721,37.047261843400626,-28.59971742928159
0.9589511632011752,36.230268943974565,-28.745264185529468
0.9901761114597346,35.161070631911244,-28.930111845513114
0.9931717418711926,35.06454336762852,-28.94661839364022
0.9665827237787744,35.965206338327185,-28.79173659992304
0.9444391878397803,36.718430031061594,-28.658986206328454
0.983347853330918,35.39722839071149,-28.890014260005067
0.9808459145258505,35.48368621752943,-28.874867884215192
0.9382439918613404,36.915903599745334,-28.62350773030932
0.8652107817559787,39.26511556174344,-28.186315255344322
0.8752233414321562,38.95204289952456,-28.246504547084633
0.8875350366478029,38.56355570846606,-28.319980457287315
0.8568271936854643,39.52117825808001,-28.136850147942155
0.8560619233518286,39.54542815740383,-28.132305936900394
0.8986632194248119,38.2093099146778,-28.38656294750518
0.8798578142646001,38.80575750699155,-28.27431165761968
0.8789031254406232,38.83776415144063,-28.2682925797614
0.8823351840249334,38.72762651508852,-28.288941320802905
0.8855049219205027,38.62753651433744,-28.30795803556645
0.8736516937804089,39.00162096509116,-28.23687086551551
0.8704819558848446,39.10017068539165,-28.217948013234103
0.8433660074494894,39.93658305213043,-28.056133843848123
0.8935722164827188,38.36954768926661,-28.356448365617894
0.9025880561866221,38.08195660351536,-28.410167449111512
0.8548698638059248,39.58433309199898,-28.124735653042396
0.8748914852439866,38.961935434332254,-28.244477424061337
0.8412967433827733,39.99904387810853,-28.04377511164167
0.8901715589097053,38.47837589332793,-28.33607106094169
0.8921552460190321,38.418254193974036,-28.347472614740212
0.8718241618117529,39.058756469338036,-28.226005042349094
0.9055088547069869,37.98972037260527,-28.427540082536584
0.8764782604474068,38.913762778683044,-28.253731276454964
0.8578459697610191,39.49380508524723,-28.142348840790557
0.8633034124985639,39.325658002010975,-28.174892822596092
0.8421880828982652,39.97306317761428,-28.04889982606237
0.850774927055877,39.71265475063203,-28.100037997197273
0.2971716970205309,51.62058629686309,-25.41606392652121
0.3373984619975097,51.123950671431636,-25.541855763771288
0.43542986517706866,49.65752786957158,-25.906513343666923
0.42313192566791435,49.86257535117666,-25.856125318996323
0.4231905890622885,49.86048139802664,-25.856644271311506
0.42168484603058864,49.88550641240963,-25.850497214118207
0.47585654725522725,48.95138250935815,-26.078510493890192
0.45874722426652037,49.259090601731195,-26.00384092770904
0.45825159891815553,49.26668618169622,-26.00199421432773
0.44111067909695245,49.56414643625464,-25.929419660288545
0.46396956314534976,49.166091266634034,-26.026478725564182
0.4586497632217356,49.26096217370969,-26.003421425038283
0.44629679946242085,49.47287737121959,-25.951708967872808
0.44723895719209567,49.459538255965825,-25.95501953967321
0.4350918956653206,49.66473001050043,-25.904762064477918
0.44733641823688464,49.45622680431853,-25.955794441344228
0.4701385830280335,49.05376412121906,-26.053676294824935
0.4578293074605036,49.27597590020894,-25.999768153898152
0.4230127888732975,49.86328888285223,-25.855914986255833
0.446381229441744,49.47422779613749,-25.951426713836305
0.5096847438145352,48.312450629376265,-26.23194218442527
0.3787903563829231,50.54823022161576,-25.68621222633676
0.3317381121185431,51.1967620893828,-25.523463572750003
0.36001440926059997,50.81708722917475,-25.618986202020167
0.36150416074018016,50.79672519431887,-25.62409571743344
0.34700517877608683,50.99603081483844,-25.57405693012364
0.34551542729650603,51.016240420979244,-25.568972609593285
0.38057500869035743,50.52381566526683,-25.692322449056487
0.4323028658796507,49.710803211254245,-25.893440846865786
0.3932430700774018,50.33391321668991,-25.739581724441628
0.3764119775409523,50.583495677981276,-25.677415075564948
0.39413169743979226,50.320197376262655,-25.74299578150545
0.39740610122680675,50.270985952485965,-25.755216227421194
0.4078108138128298,50.108168158094685,-25.79553083450348
0.42429375250827867,49.843832031708736,-25.860765291300986
0.37246969653318535,50.64122700139375,-25.663016297025596
0.4304060188095177,49.742138070946005,-25.88575374326312
0.4783890406968655,48.90435804789524,-26.089781168339204
0.44919331822879116,49.42434241663329,-25.963538002814207
0.44784940143709995,49.4473884685045,-25.95792692732381
0.46478525784442615,49.15070359075618,-26.03016614641759
0.46344134105273393,49.17436034866165,-26.024405208485778
0.3769644359292264,50.57564845693179,-25.679379809879503
0.3849492008032085,50.45852948127104,-25.70859894971656
0.3955547338190759,50.29859767156146,-25.748369235534227
0.40413994750204063,50.164993108280896,-25.78145769607294
0.42911005020141596,49.763315585403454,-25.8805331478012
0.41240505129098903,50.03408151943504,-25.813832422676526
0.41936937287852843,49.92319331960932,-25.841210644269296
0.436398430726841,49.64305010747983,-25.91008093222216
0.39335433393716857,50.330520160008845,-25.740393055200947
0.4516861334849098,49.382068593177266,-25.973892243734873
0.428041193100767,49.781483296121586,-25.87607349419243
0.47636233469378914,48.9412837826609,-26.08088550635671
0.4534769707772302,49.350742002585434,-25.981533623526442
0.4512747611630519,49.388929711828055,-25.97221193104203
0.43991173716467125,49.584470421307124,-25.92444785863579
0.46483999477561067,49.15005884896632,-26.030351372001597
0.4344217996114317,49.67192018558924,-25.90297849825825
0.40495356393614473,50.152428706088365,-25.784581168934633
0.41136686370750236,50.05076135275571,-25.809716403907906
0.4050687187536217,50.15058814990062,-25.785027697215742
0.38756552060859284,50.419341637524845,-25.718335167869025
0.3920679878602414,50.35235863666277,-25.735015549888754
0.39267603892389824,50.342905488298236,-25.73737299598692
0.36865059492757973,50.69720724120494,-25.649038179108015
0.3687065879612577,50.69642632138797,-25.649242373751996
0.38048472301734215,50.52503772997337,-25.692029995133428
0.3807885556251193,50.520093916840615,-25.69325194060734
0.38108029063320953,50.515439216351275,-25.694397305222164
0.3801929880092527,50.52916486704653,-25.69100046277377
0.4161817461560452,49.97579562516443,-25.828246540833387
0.44059103655646054,49.57238220740839,-25.927406569330664
0.44042046056937073,49.57574167185521,-25.926595155329093
0.42920860396527505,49.762616507270145,-25.88072126527542
0.42805229021995184,49.78196786263025,-25.875970657480803
0.42911125288243707,49.764041849997575,-25.88037418753368
0.42814964130278826,49.7798670088286,-25.876472476386013
0.4052287708725687,50.14972284585435,-25.785283647604896
0.4043356655820383,50.163687522675176,-25.781815318357577
0.4113713416356421,50.051522425571754,-25.809541093320018
0.38052559477856823,50.52499244733837,-25.692030643854704
0.3991023095837736,50.243091691737256,-25.762099996989775
0.3990978316556343,50.24256798271171,-25.76221782016022
0.42871604415605297,49.76919009456291,-25.87912206689424
0.40504242205860475,50.150884182421166,-25.78495008138499
0.4041354991655389,50.16511992142372,-25.78142720599939
0.40331269815180854,50.17856071434752,-25.778111871257106
0.3805815878122464,50.524872744595484,-25.692083855451862
0.4162746489023815,49.973614021764,-25.82878491748486
0.4285454681689627,49.77319761457807,-25.878140121603487
0.38115811798343635,50.51347081862176,-25.69488656205217
0.3335819546794438,51.17315055266743,-25.52943011559739
0.3488490213369866,50.97160889450537,-25.580210851854424
0.3657157649015925,50.73723041676224,-25.638999110975305
0.2956117074997573,51.64042697193807,-25.411037607476572
0.3212564662098883,51.330447518533724,-25.48968523142067
0.27885754220797176,51.82770258836696,-25.363280793159678
0.28260411881519915,51.786066811861396,-25.373907077020178
0.3206782415509225,51.33806176923485,-25.487774059644273
0.34135444462299297,51.072376083557685,-25.554867194366633
0.3099675286146027,51.47034362409911,-25.454264823957878
0.34624839103985533,51.00755755091846,-25.57119793011398
0.3223581753102189,51.31839064829439,-25.49276091374001
0.32239841124242824,51.317714433194176,-25.492934553999078
0.3345044416489025,51.162317785830346,-25.532185349884063
0.33397302028616715,51.16876162076654,-25.530553822096024
0.334204047116364,51.16624969856798,-25.53119126361388
0.33427341481870626,51.16546858944124,-25.531394560461873
0.3744259875975145,50.614920793998564,-25.669586968704547
0.3869315449855805,50.42759872850192,-25.716276843740438
0.3342747410035217,51.166646212031566,-25.53110761739572
0.3632250045202257,50.77331832415095,-25.629979580910348
0.35222016549874274,50.92676556099477,-25.591514508217486
0.36894335051673866,50.6928146663193,-25.650146498342377
0.34612061280966666,51.009656426171354,-25.570660710973563
0.35115373802375804,50.93902837512349,-25.588400573624675
0.3637416467634569,50.766705060702535,-25.631635418861784
0.32806409073066717,51.24415803932922,-25.51148178780113
0.3626405139229794,50.78314360834753,-25.62753594230432
0.37511248781900475,50.602596273761876,-25.672671396657208
0.3399818829913142,51.0901042765428,-25.550362928783237
0.3512432642002099,50.94043303622014,-25.588076279666293
0.37525434350646747,50.60187220638324,-25.67286552311909
0.35231615877915357,50.924021463460235,-25.592181540015385
0.3870458335248356,50.42632141880642,-25.716601993023183
0.3636456534830451,50.76829816867089,-25.63125902408471
0.2328385821454564,52.28697291556866,-25.245487236700875
0.23214312196434692,52.294577024603036,-25.243515563133588
0.2394771243701514,52.227377522637674,-25.260834843553255
0.25655781162055724,52.06016505072859,-25.303781777119873
0.2565782387476447,52.059837988530035,-25.303860014002492
0.2735515953852339,51.88582022965651,-25.34843284907332
0.25107091695766953,52.115721073090974,-25.289531803423888
0.2565739942816131,52.061326242407105,-25.303496431290146
0.26212183214266993,52.00471583139447,-25.317995570690627
0.26802476679140447,51.94424510468983,-25.33349101011158
0.23372147289189096,52.279810616684166,-25.247326423921667
0.26800858413034817,51.94387514502644,-25.333571143668202
0.2617564174224415,52.00922687887856,-25.316844638875974
0.2907664429551664,51.69429040506657,-25.397296558944507
0.24498444616012516,52.174073267867236,-25.27452074005121
0.2618610079796147,52.00778089471905,-25.317193662735946
0.2918651308925304,51.682264851593544,-25.400359762574343
0.29866257775107113,51.6042191097277,-25.420235863113017
0.3392787344474788,51.09682854469652,-25.548693728997588
0.32262943807262423,51.31404449790326,-25.49386367428746
0.2797955665474538,51.81822090151512,-25.36569742715869
0.2920560184603335,51.68000307836236,-25.400941759309074
0.2856656294259545,51.75242544950706,-25.3824821142485
0.30958084294957294,51.47530143837169,-25.452997486095548
0.3097990086042068,51.4734543089261,-25.453484007329315
0.3154892129675788,51.40195648176434,-25.4715753578657
0.3156577329779749,51.3996245199994,-25.472166181601786
0.3031902048618975,51.550910511154626,-25.433784372997422
0.3033587248722938,51.54838256682242,-25.434420347159485
0.3090553129220809,51.481161082854875,-25.451503471137197
0.28002636292404404,51.81401594764517,-25.366747944656694
0.3091874117160643,51.477952823473935,-25.452300258145115
0.2912491371084728,51.68913740224681,-25.398604762349002
0.3395152579979713,51.09723945283809,-25.548600298376837
0.32776721231506317,51.24768792783761,-25.51063005357534
0.32757339291141424,51.25205763794622,-25.50951761805841
0.34056811309624574,51.0817608815162,-25.552495022021475
0.27951228001183115,51.82035850268832,-25.365150302155723
0.30623499635180046,51.51401314526846,-25.443153975368183
0.06730427081808626,53.263675613311655,-24.991761068141848
0.12437374581582958,53.04898073636472,-25.047910630133824
0.1082287270396943,53.12340772854207,-25.02847297212877
0.09644890454973555,53.169696094978526,-25.016364886008276
0.09543088901959848,53.17285618140915,-25.015537771606194
0.09402957589843933,53.177533839827525,-25.0143139290608
0.09635400162461721,53.17040919674412,-25.016179863151585
0.07674238068233455,53.23649744666558,-24.998880170203524
0.09645178211405743,53.1702551454921,-25.016220873266494
0.0784303874757547,53.23191268356538,-25.000081453032127
0.07201144415414887,53.24988890833363,-24.995373697757532
0.08296011176063203,53.21766716280327,-25.003812984432763
0.1111518390324897,53.11057306724398,-25.031825852708987
0.0707534010537514,53.25343730221101,-24.994444863953483
0.04824265963524753,53.30664251483199,-24.980499416409042
0.07561231412921506,53.240123256054645,-24.99793103711873
0.0816397264947712,53.221074738242464,-25.002918944572183
0.10969589639946663,53.11696896574758,-25.03015317757134
0.04759424973983471,53.30689814227888,-24.980431410839923
0.0773003209226353,53.23495771691701,-24.99928326085168
0.07703591104791535,53.23604603626447,-24.99899888935866
0.07836158092818855,53.23187555517678,-25.000091455451223
0.05010861796272756,53.30380732501124,-24.981243669270988
0.09683293785991492,53.16868392520637,-25.016632263791504
0.07312622709146362,53.24823612135024,-24.995806033774684
0.07372006333384545,53.24721304512233,-24.996076847976212
0.06188807798047103,53.278702713640634,-24.987825654253502
0.08495821244483812,53.21162962528238,-25.00539362616957
0.049060400624918885,53.30366978516376,-24.981280030110202
0.031125938062276697,53.33331532505698,-24.973503161528896
0.0174485794092885,53.34741740629636,-24.96980323038703
0.0621269071214207,53.27637567404187,-24.9884341814519
0.029805347631856084,53.33352096011498,-24.97344937020131
0.036529780762926393,53.326190499420036,-24.975372632478646
0.017112495077323858,53.34936918967909,-24.96929123276148
0.006249987054616213,53.354661643743874,-24.967902309252924
0.006249987054616214,53.35371615597976,-24.968150294767412
0.03775555122861866,53.326103837296344,-24.975396035802518
0.06368542585072239,53.27388879420308,-24.989086101028718
0.07058241638466899,53.25440490971154,-24.994190809844973
0.06400543779214202,53.27202010730962,-24.989574900642655
0.04953501124636211,53.3053045709577,-24.980851086308718
0.048962244591835326,53.3059391563491,-24.980684163616658
0.0503096864896343,53.30321000972337,-24.98139983170758
0.024826016351524264,53.34126740646317,-24.97141734311322
0.00790666181700144,53.35135775458788,-24.968769114540812
0.0551023570030661,53.29316861276383,-24.98403279730967
0.02814867286947084,53.33674638565624,-24.972603120660224
0.02239788380631666,53.34205770864763,-24.971210363336724
0.01848048992932441,53.34584090120741,-24.97021731241198
0.040379175744179006,53.320322142482254,-24.976912145588262
0.03011767319530422,53.33607621273689,-24.972778852621666
0.010424083098769191,53.350533410958015,-24.968986394229066
0.029603605030479783,53.33574466272387,-24.97286647937361
0.029679248271365803,53.33625618703707,-24.972732209673747
0.016674070153385394,53.34887679189611,-24.96942082677829
0.04260878314846017,53.31689054276504,-24.97781247303545
0.08071693550082906,53.22311145802115,-25.002384838238765
0.05254902900503492,53.298069833827725,-24.982747464634134
0.1011640038292882,53.15059113995357,-25.02136216175172
0.0857121342301134,53.20789560701198,-25.00636983340623
0.07834682097605096,53.23178939330725,-25.000113366472096
0.09450987229879862,53.17744327106563,-25.014340517271695
0.06954908290736572,53.2574094061187,-24.993403292055493
0.02874341022851651,53.336843096868314,-24.972578572580638
0.061113410050249055,53.28140311042172,-24.987117636377544
0.06671663244435051,53.26524709486686,-24.991350196109483
0.031882853273210075,53.333297244430625,-24.973509140324406
0.015791904646903266,53.349714555981954,-24.96920069769544
0.02802240752161147,53.338428473846,-24.972162317601104
0.05291296971210699,53.29659886058957,-24.98313220890816
0.0063455264221998426,53.35307090883464,-24.968320212695556
0.07898220131589477,53.2294271185094,-25.00073261144542
0.08013815246279198,53.22566160109946,-25.001718420362717
0.052992125379296894,53.29627219904886,-24.9832185260448
0.00987950246781111,53.35194827263938,-24.96861536973055
0.04254464477041365,53.31730306632864,-24.97770455544366
0.016225028890010946,53.34864627276886,-24.969481579261352
0.08170206866023448,53.2218292177293,-25.00272418446611
0.03323312044367469,53.3302972958882,-24.974295476522837
0.020303585566580285,53.34480747726879,-24.970489079837503
0.304150328040123,51.53990879325984,-25.436590593975748
0.286079660058022,51.74742102233709,-25.3837571662856
0.31046901934969623,51.463845718835195,-25.455896421783276
0.32067824155092284,51.33846465838264,-25.487676509337742
0.28144533464560023,51.79906013686153,-25.37058822070579
0.33287188410758944,51.18276862719446,-25.52702210142808
0.262478049071917,52.00101902634102,-25.318943658048436
0.23883803359723021,52.232094547302836,-25.259611186741484
0.2868363860850124,51.73895573465237,-25.38592021756543
0.26330642299396795,51.992113675379684,-25.321224828023396
0.26235375047636206,52.00190658878187,-25.31871158465135
0.25069879096159603,52.119319469882704,-25.288603328890822
0.27496138250873403,51.86981844281904,-25.352517814397054
0.23300983204262815,52.28620664493394,-25.245688231423433
0.21553500304859066,52.43978831475132,-25.20608102949601
0.20099291405433042,52.55897544585642,-25.175272315167973
0.24459479061039657,52.17666337297296,-25.273864239808308
0.20900716683479112,52.49406163253534,-25.192058673152847
0.20645779386501362,52.5139977163789,-25.18688412486275
0.18388730228189198,52.68783208406414,-25.14188628221227
0.20172515079319475,52.55222853640799,-25.17701825454095
0.20266625199828245,52.54577457722513,-25.17869361239715
0.17663473332863866,52.73792102215396,-25.128876640128958
0.17765042172996737,52.73191065731661,-25.130451264202136
0.1828984063487876,52.69544059393742,-25.13991485181506
0.19599893058804,52.59787394736168,-25.16520541953381
0.19623973707828796,52.59574655142956,-25.165757361480757
0.18313921283903586,52.693001930764915,-25.140548824110482
0.22762082577264234,52.33542106199329,-25.23300961972851
0.25057487066675976,52.12040786644725,-25.288329978912376
0.2509704859290282,52.11677923711847,-25.2892593378151
0.23976079929643376,52.22313696635144,-25.261915341947542
0.23948158313700832,52.226337162103064,-25.26109524780121
0.23961340292455605,52.22461956678115,-25.261537902840328
0.23962897950888576,52.224201328957946,-25.26163796101584
0.21524485815455324,52.443128759253234,-25.205226421165786
0.21500934680472794,52.445170857753396,-25.20469787434052
0.22151495424042836,52.38786549772559,-25.21948076255296
0.1943378307354693,52.60898440747792,-25.16231078564519
0.20835426348586641,52.49897607525638,-25.190784503903604
0.22086205089150399,52.39314752768252,-25.218116785826343
0.23869987081577118,52.23349929295157,-25.259259083429598
0.2079890003995559,52.501260334898895,-25.19019951935269
0.21475934311595585,52.44520887695569,-25.204680754123054
0.21577647295198635,52.43726029438123,-25.206735479279473
0.21120592155677126,52.47410239128655,-25.19721748738097
0.18919734218842946,52.64856401157088,-25.1520702806998
0.22685327922603046,52.34085222024579,-25.231608220434158
0.2381947856461741,52.23842027723223,-25.257991283273906
0.19117829944016318,52.633163906393534,-25.156055668955624
0.15066085525671807,52.907012450569624,-25.084925708728854
0.1740827441183237,52.75625668666204,-25.124129461313256
0.1631495878337058,52.82903687236508,-25.105217537623474
0.18856312529916977,52.65355686842684,-25.150773972550606
0.1529297903416785,52.89290988487373,-25.0885967555096
0.17384478652214974,52.75822209305752,-25.123619112809163
0.16542608940661835,52.814102027986216,-25.10909701849249
0.16362498903012251,52.82635972892656,-25.10591489321871
0.17564588689864566,52.74505973402963,-25.127034823708847
0.22847171646133344,52.32739407908249,-25.235079806522524
0.24375224678533602,52.18619434327027,-25.27142530053348
0.224475611361258,52.362913704244626,-25.225924028422746
0.1907816176747646,52.636763763621744,-25.155129758166073
0.21502358929135046,52.44472039488092,-25.204814437509878
0.23520378361734298,52.2671623883934,-25.250603033739786
0.19639956206083287,52.59382182318037,-25.166249861884236
0.20146699519952457,52.55562028052422,-25.176150294955747
0.19032177901619315,52.64049378514538,-25.154162159238282
0.24145538624138058,52.207994692233484,-25.265817258922603
0.28841760230990665,51.720005634615916,-25.39073120916709
0.2602720249600394,52.0227882556605,-25.313358064387536
0.2590600006648304,52.0350028234025,-25.310227277606668
0.2744608732173052,51.87494028829892,-25.351212668736647
0.2732488489220961,51.88746346690026,-25.348000270673502
0.19563190890327478,52.60041663536883,-25.164554585483547
0.18686373184357782,52.66491602652365,-25.147822118057764
0.23883770692121825,52.23109654919751,-25.259867681104037
0.24340825831643365,52.189011415559534,-25.27069026927434
0.23034036533433472,52.31114129519236,-25.2392674499677
0.22124378366687428,52.39175007804994,-25.218481736496447
0.24682141804604407,52.15709244462946,-25.27890393625565
0.21486153003349792,52.44415229521622,-25.204950864255437
0.20015793917551994,52.564658926307246,-25.173805019882845
0.1179885137806564,53.07726935961522,-25.040521731081586
0.13612568332133473,52.98812378690286,-25.063789398799464
0.13337664010876787,53.000832352756646,-25.060472315947344
0.10865557357766036,53.12227115523487,-25.028766549923834
0.14559782028980175,52.93520066713562,-25.077583323329293
0.12248990035597643,53.05785296989863,-25.04559176543334
0.12259724542481143,53.057034600359806,-25.04581060087431
0.11276108164308825,53.10184863490237,-25.03410078468217
0.11425285199691494,53.09480932691579,-25.03594078670273
0.12629346115228052,53.0383746396726,-25.05067818348985
0.1208379939438677,53.06627494836839,-25.04339893321067
0.10131437781598256,53.14974918482918,-25.02158447197375
0.14094853281919303,52.96102418456133,-25.070846843328862
0.1512781694157304,52.90131686397075,-25.086405953915488
0.11014381603138998,53.11386125131564,-25.030967812266994
0.12164514937035947,53.06102541174081,-25.04476313175243
0.10009216243638863,53.154385971716934,-25.020369790225526
0.14085787800548044,52.96103266794347,-25.0708490666092
0.14040983420850586,52.96478531172632,-25.06987489985169
0.13371252516181956,53.002247477981534,-25.060110480218295
0.15163546325916458,52.900496508653205,-25.086622381153422
0.14006285648792968,52.96646085367221,-25.06943558792335
0.10722342653907681,53.12614461240724,-25.027754658458473
0.09701526444162084,53.167514541214224,-25.016937527430013
0.095491818152368,53.173587912383134,-25.015348255469203
0.49997836246555266,48.499691405382464,-26.18716615732578
0.48173521056147,48.84541339855475,-26.10403126032671
0.5295304238805544,47.91659566960729,-26.326104482746075
0.4998475153691099,48.50093062405294,-26.186816911535168
0.5178244739780192,48.14893836339764,-26.270926854376455
0.4695010070440334,49.068614157911895,-26.0500824929065
0.49329753206194893,48.62673298646172,-26.15667463107565
0.5088533821046411,48.329551025277794,-26.227915479005095
0.4752229174606817,48.963110528853704,-26.075656877368335
0.4825186372562416,48.829037121463635,-26.107987328283794
0.5004880763236484,48.49074818809609,-26.189346277803047
0.5174929983913906,48.15927630095479,-26.268490069821233
0.46950552769146114,49.06663503234512,-26.050571689451797
0.5007218734189038,48.48597015521167,-26.19047583727037
0.9494887073509973,36.54380790976095,-28.689972266253104
0.9931717418711926,35.06620309473555,-28.946381565902538
0.9669500714545325,35.95632039536497,-28.793091626246074
0.010167380931608462,53.35129665851553,-24.96878600499286
0.009879502467811104,53.35306770534815,-24.96832154883059
0.029615109893319235,53.33565823366861,-24.972889598411918
0.03696820568686483,53.3257769918656,-24.97548065108435
0.03193980139860373,53.33255933488278,-24.97370211864615
0.01042408309876919,53.35164069370563,-24.968695759441673
0.07815416004732527,53.23329385211937,-24.999722397273448
0.06451575491801181,53.27052061451427,-24.989968803307267
0.9467925619254329,36.62664076497337,-28.675134089685777
0.9928426559286859,35.07674937569298,-28.944471612041674
