0.0019531249999999807,89.17922552573309,-8.083575191829242
0.005859374999999951,89.17829376033943,-8.084194572284092
0.009765624999999972,89.17643022657346,-8.085433324861933
0.013671874999999983,89.17363491848026,-8.087291432897626
0.01757812499999995,89.16990782713363,-8.089768871389921
0.021484374999999965,89.16524894064334,-8.09286560699721
0.025390624999999986,89.15965824416502,-8.096581598031856
0.029296875,89.15313571991229,-8.10091679445312
0.03320312499999997,89.14568134717146,-8.105871137858673
0.037109374999999944,89.1372951023187,-8.111444561474688
0.04101562499999997,89.12797695883951,-8.117636990144545
0.04492187500000002,89.11772688735073,-8.124448340316116
0.04882812499999995,89.10654485562492,-8.131878520027653
0.05273437499999997,89.09443082861723,-8.139927428892287
0.056640625,89.08138476849463,-8.148594958081118
0.06054687499999995,89.06740663466749,-8.157880990304934
0.064453125,89.05249638382377,-8.167785399794536
0.068359375,89.03665396996539,-8.178308052279679
0.072265625,89.01987934444713,-8.18944880496666
0.07617187499999992,89.00217245601785,-8.201207506514509
0.08007812499999996,88.98353325086411,-8.213583997009845
0.08398437499999992,88.96396167265618,-8.226578107940364
0.08789062499999996,88.94345766259637,-8.240189662166975
0.09179687500000001,88.92202115946974,-8.254418473894605
0.09570312499999988,88.89965209969715,-8.269264348641668
0.09960937499999997,88.87635041739063,-8.284727083208201
0.10351562500000007,88.85211604441109,-8.30080646564269
0.107421875,88.82694891042834,-8.317502275207586
0.11132812499999996,88.80084894298342,-8.334814282343515
0.11523437499999989,88.77381606755311,-8.352742248632214
0.11914062500000011,88.74585020761697,-8.371285926758159
0.123046875,88.7169512847263,-8.390445060468942
0.12695312500000003,88.68711921857572,-8.410219384534386
0.1308593749999999,88.65635392707664,-8.430608624704403
0.13476562500000008,88.62465532643321,-8.451612497665614
0.13867187499999997,88.59202333122042,-8.473230710996736
0.1425781249999998,88.55845785446422,-8.495462963122769
0.14648437500000006,88.52395880772413,-8.518308943267963
0.1503906250000001,88.48852610117771,-8.541768331407585
0.15429687499999986,88.45215964370743,-8.565840798218536
0.15820312499999994,88.41485934298949,-8.590526005028773
0.1621093749999999,88.3766251055848,-8.615823603765579
0.16601562499999994,88.33745683703216,-8.641733236902715
0.16992187500000006,88.29735444194345,-8.668254537406415
0.17382812500000003,88.25631782410078,-8.695387128680293
0.17773437500000017,88.21434688655584,-8.723130624509137
0.18164062499999975,88.1714415317313,-8.751484629001618
0.185546875,88.12760166152397,-8.780448736531957
0.18945312499999983,88.0828271774103,-8.81002253168048
0.19335937499999978,88.03711798055352,-8.84020558917321
0.19726562500000033,87.99047397191295,-8.870997473820387
0.201171875,87.94289505235517,-8.902397740453962
0.20507812499999986,87.89438112276704,-8.934405933864193
0.20898437500000017,87.84493208417068,-8.967021588735165
0.212890625,87.7945478378403,-9.000244229579394
0.21679687499999986,87.74322828542084,-9.034073370671525
0.220703125,87.69097332904849,-9.068508515981058
0.22460937500000003,87.63778287147292,-9.103549159104189
0.228515625,87.58365681618136,-9.139194783194773
0.23242187499999953,87.52859506752439,-9.175444860894407
0.23632812500000044,87.47259753084349,-9.212298854261698
0.24023437499999992,87.41566411260028,-9.2497562147006
0.24414062499999997,87.3577947205074,-9.287816382888108
0.24804687499999967,87.2989892636611,-9.326478788700985
0.2519531250000002,87.23924765267543,-9.365742851141846
0.255859375,87.17856979981805,-9.405607978264385
0.2597656250000001,87.11695561914763,-9.446073567097976
0.26367187499999994,87.0544050266527,-9.487139003571466
0.26757812500000006,86.99091794039224,-9.528803662436335
0.27148437500000017,86.9264942806375,-9.571066907189147
0.27539062499999983,86.86113397001554,-9.613928089993369
0.279296875,86.79483693365405,-9.657386551600576
0.28320312500000006,86.72760309932768,-9.701441621270984
0.28710937500000017,86.65943239760567,-9.746092616693465
0.2910156249999997,86.59032476200099,-9.791338843904954
0.29492187500000006,86.52028012912064,-9.837179597209342
0.298828125,86.44929843881741,-9.883614159095778
0.302734375,86.37737963434283,-9.93064180015657
0.306640625,86.30452366250134,-9.978261779004518
0.31054687500000017,86.23073047380583,-10.026473342189842
0.3144531249999998,86.15600002263417,-10.075275724116645
0.318359375,86.08033226738708,-10.124668146959007
0.32226562500000017,86.003727170647,-10.174649820576617
0.3261718749999999,85.92618469933814,-10.225219942430117
0.330078125,85.84770482488757,-10.276377697496072
0.333984375,85.76828752338736,-10.328122258181583
0.337890625,85.6879327757577,-10.380452784238681
0.341796875,85.60664056791106,-10.433368422678376
0.345703125,85.52441089091725,-10.486868307684498
0.349609375,85.44124374116936,-10.540951560527304
0.353515625,85.35713912055071,-10.595617289476873
0.357421875,85.27209703660252,-10.650864589716342
0.361328125,85.18611750269243,-10.706692543254963
0.365234375,85.09920053818392,-10.763100218841062
0.369140625,85.01134616860634,-10.820086671874865
0.373046875,84.92255442582571,-10.877650944321259
0.376953125,84.83282534821628,-10.93579206462249
0.380859375,84.74215898083266,-10.994509047610833
0.3847656250000005,84.65055537558257,-11.053800894421263
0.3886718749999995,84.55801459140041,-11.113666592404083
0.392578125,84.46453669442089,-11.174105115037758
0.396484375,84.37012175815384,-11.23511542184155
0.400390625,84.27476986365895,-11.296696458288517
0.404296875,84.17848109972127,-11.35884715571845
0.408203125,84.08125556302709,-11.421566431251026
0.412109375,83.98309335834016,-11.484853187699098
0.416015625,83.8839945986783,-11.548706313482198
0.419921875,83.78395940549035,-11.613124682540237
0.423828125,83.68298790883337,-11.678107154247458
0.427734375,83.58108024755015,-11.743652573326644
0.431640625,83.4782365694469,-11.809759769763629
0.435546875,83.37445703147118,-11.87642755872211
0.439453125,83.26974179988991,-11.943654740458813
0.443359375,83.1640910504676,-12.011440100239012
0.447265625,83.05750496864457,-12.079782408252456
0.451171875,82.94998374971526,-12.148680419529684
0.455078125,82.84152759900662,-12.21813287385881
0.458984375,82.73213673205642,-12.288138495702745
0.462890625,82.62181137479146,-12.358695994116935
0.466796875,82.51055176370585,-12.42980406266759
0.470703125,82.39835814603899,-12.501461379350467
0.474609375,82.28523077995354,-12.573666606510209
0.478515625,82.17116993471316,-12.64641839076028
0.482421875,82.05617589085999,-12.719715362903502
0.4863281249999999,81.94024894039191,-12.793556137853233
0.49023437500000006,81.82338938693948,-12.867939314555226
0.494140625,81.70559754594264,-12.942863475910121
0.498046875,81.58687374482693,-13.01832718869672
0.501953125,81.46721832317941,-13.094329003495933
0.505859375,81.34663163292412,-13.170867454615514
0.509765625,81.22511403849701,-13.247941060015577
0.513671875,81.1026659170206,-13.325548321234907
0.517578125,80.97928765847779,-13.403687723318102
0.521484375,80.85497966588535,-13.482357734743582
0.525390625,80.72974235546677,-13.561556807352455
0.529296875,80.60357615682436,-13.641283376278299
0.533203125,80.47648151311083,-13.72153585987785
0.537109375,80.3484588812001,-13.802312659662658
0.541015625,80.21950873185742,-13.883612160231687
0.544921875,80.08963154990862,-13.965432729204922
0.548828125,79.95882783440874,-14.047772717157994
0.552734375,79.82709809880964,-14.13063045755782
0.556640625,79.69444287112694,-14.214004266699325
0.560546875,79.56086269410585,-14.297892443643235
0.564453125,79.42635812538627,-14.382293270154962
0.568359375,79.29092973766677,-14.46720501064464
0.5722656250000008,79.15457811886768,-14.552625912108295
0.5761718749999993,79.01730387229324,-14.638554204070081
0.580078125,78.8791076167922,-14.724988098526044
0.583984375,78.7399899869182,-14.811925789888543
0.587890625,78.59995163308818,-14.89936545493243
0.591796875,78.45899322174006,-14.98730525274218
0.595703125,78.31711543548924,-15.075743324660381
0.599609375,78.17431897328375,-15.164677794237514
0.603515625,78.03060455055817,-15.254106767183027
0.607421875,77.88597289938637,-15.344028331317757
0.6113281250000007,77.74042476863289,-15.434440556527708
0.6152343749999993,77.59396092410302,-15.525341494719084
0.619140625,77.4465821486911,-15.616729179775058
0.623046875,77.29828924252844,-15.70860162751337
0.626953125,77.14908302312858,-15.800956835645934
0.630859375,76.99896432553192,-15.893792783739519
0.634765625,76.8479340024486,-15.987107433178046
0.638671875,76.69599292439982,-16.080898727126307
0.642578125,76.54314197985774,-16.175164590495203
0.646484375,76.38938207538365,-16.2699029299085
0.650390625,76.23471413576473,-16.365111633671102
0.654296875,76.07913910414898,-16.460788571738863
0.658203125,75.92265794217867,-16.556931595689996
0.662109375,75.76527163012196,-16.65353853869803
0.666015625,75.60698116700293,-16.750607215506374
0.669921875,75.44778757072977,-16.848135422404493
0.6738281249999999,75.28769187822131,-16.946120937205702
0.6777343750000066,75.12669514553134,-17.04456151922679
0.6816406249999938,74.96479844797321,-17.143454909268097
0.685546875,74.80200288023671,-17.242798829598755
0.689453125,74.63830955651268,-17.342590983937892
0.693359375,74.47371961060615,-17.44282905744318
0.697265625,74.3082341960534,-17.543510716697742
0.701171875,74.14185448623505,-17.644633609699888
0.705078125,73.97458167448744,-17.74619536585443
0.708984375,73.8064169742122,-17.848193595965746
0.712890625,73.63736161898355,-17.950625892232605
0.716796875,73.46741686265379,-18.05348982824477
0.720703125,73.29658397945666,-18.15678295898137
0.724609375,73.12486426410848,-18.260502820811077
0.728515625,72.95225903190745,-18.36464693149409
0.732421875,72.77876961883055,-18.469212790185924
0.736328125,72.6043973816286,-18.57419787744304
0.740234375,72.42914369791876,-18.6795996552303
0.744140625,72.25300996627529,-18.785415566930265
0.748046875,72.0759976063177,-18.891643037354346
0.751953125,71.89810805879698,-18.998279472755822
0.755859375,71.71934278567937,-19.105322260844744
0.759765625,71.539703270228,-19.212768770804676
0.763671875,71.35919101708221,-19.320616353311358
0.767578125,71.17780755233447,-19.42886234055325
0.771484375,70.99555442360521,-19.537504046253964
0.775390625,70.81243320011504,-19.64653876569664
0.779296875,70.62844547275479,-19.75596377575017
0.783203125,70.44359285415321,-19.86577633489741
0.787109375,70.25787697874209,-19.975973683265266
0.791015625,70.07129950281917,-20.086553042656725
0.794921875,69.88386210460857,-20.197511616584826
0.798828125,69.69556648431875,-20.30884659030855
0.802734375,69.50641436419802,-20.420555130870667
0.806640625,69.31640748858773,-20.53263438713752
0.810546875,69.12554762397274,-20.64508148984075
0.814453125,68.93383655902963,-20.75789355162098
0.818359375,68.74127610467231,-20.87106766707347
0.822265625,68.54786809409507,-20.98460091279566
0.826171875,68.3536143828132,-21.098490347436755
0.830078125,68.15851684870107,-21.2127330117492
0.833984375,67.9625773920275,-21.327325928642157
0.837890625,67.76579793548885,-21.442266103236893
0.841796875,67.56818042423927,-21.557550522924174
0.845703125,67.36972682591858,-21.673176157423594
0.849609375,67.17043913067735,-21.789139958844856
0.853515625,66.97031935119968,-21.90543886175101
0.857421875,66.76936952272301,-22.022069783223657
0.861328125,66.56759170305565,-22.1390296229301
0.865234375,66.36498797259152,-22.25631526319243
0.869140625,66.16156043432221,-22.373923569058586
0.873046875,65.95731121384661,-22.491851388375327
0.876953125,65.75224245937765,-22.61009555186317
0.880859375,65.54635634174667,-22.72865287319327
0.884765625,65.33965505440483,-22.84752014906618
0.888671875,65.13214081342214,-22.966694159292615
0.892578125,64.92381585748369,-23.08617166687608
0.896484375,64.71468244788318,-23.20594941809744
0.900390625,64.50474286851397,-23.32602414260139
0.904296875,64.2939994258572,-23.446392553484852
0.908203125,64.08245444896747,-23.56705134738723
0.912109375,63.870110289455695,-23.68799720458262
0.916015625,63.65696932146937,-23.809226789073815
0.919921875,63.4430339416701,-23.93073674868829
0.923828125,63.228306569208506,-24.052523715175965
0.927734375,63.0127896456964,-24.174584304308883
0.931640625,62.79648563517633,-24.296915115982724
0.935546875,62.57939702408843,-24.419512734320154
0.939453125,62.361526321234564,-24.542373727776017
0.943359375,62.142876057739855,-24.66549464924434
0.947265625,61.923448787011516,-24.788872036167156
0.951171875,61.703247084694986,-24.91250241064513
0.955078125,61.48227354862745,-25.03638227954998
0.958984375,61.260530798788665,-25.160508134638654
0.962890625,61.03802147724913,-25.2848764526693
0.966796875,60.814748248115635,-25.409483695519
0.970703125,60.5907137974741,-25.534326310303186
0.974609375,60.365920833329845,-25.65940072949687
0.978515625,60.14037208554517,-25.784703371057528
0.982421875,59.91407030577432,-25.91023063854972
0.986328125,59.687018267395835,-26.035978921271376
0.990234375,59.45921876544231,-26.161944594381776
0.9941406249999993,59.23067461652749,-26.28812401903117
0.9980468750000006,59.00138865877062,-26.414513542492163
