0.0019531249999999807,71.76873480581199,-18.024492388806635
0.005859374999999951,71.76792647673147,-18.024880853423557
0.009765624999999972,71.7663098272993,-18.02565777158979
0.013671874999999983,71.76388487497307,-18.026823121170306
0.01757812499999995,71.76065164593922,-18.02837686896304
0.021484374999999965,71.75661017511281,-18.03031897069945
0.025390624999999986,71.7517605061375,-18.032649371045295
0.029296875,71.74610269138536,-18.035368003601548
0.03320312499999997,71.73963679195673,-18.038474790905568
0.037109374999999944,71.73236287768003,-18.041969644432413
0.04101562499999997,71.72428102711159,-18.045852464596344
0.04492187500000002,71.71539132753529,-18.05012314075256
0.04882812499999995,71.70569387496244,-18.054781551199063
0.05273437499999997,71.69518877413132,-18.059827563178764
0.056640625,71.68387613850703,-18.065261032881743
0.06054687499999995,71.671756090281,-18.071081805447726
0.064453125,71.6588287603706,-18.077289714968735
0.068359375,71.64509428841887,-18.083884584491926
0.072265625,71.63055282279397,-18.090866226022623
0.07617187499999992,71.6152045205887,-18.098234440527552
0.08007812499999996,71.59904954762008,-18.105989017938235
0.08398437499999992,71.58208807842878,-18.114129737154613
0.08789062499999996,71.56432029627855,-18.122656366048815
0.09179687500000001,71.5457463931557,-18.131568661469164
0.09570312499999988,71.5263665697684,-18.14086636924432
0.09960937499999997,71.50618103554613,-18.150549224187674
0.10351562500000007,71.48519000863892,-18.16061695010187
0.107421875,71.46339371591672,-18.171069259783554
0.11132812499999996,71.44079239296862,-18.181905855028315
0.11523437499999989,71.41738628410207,-18.193126426635796
0.11914062500000011,71.39317564234213,-18.204730654415002
0.123046875,71.36816072943063,-18.2167182071898
0.12695312500000003,71.34234181582526,-18.229088742804617
0.1308593749999999,71.31571918069876,-18.241841908130308
0.13476562500000008,71.28829311193792,-18.254977339070233
0.13867187499999997,71.2600639061426,-18.268494660566517
0.1425781249999998,71.23103186862487,-18.28239348660649
0.14648437500000006,71.2011973134078,-18.296673420229343
0.1503906250000001,71.17056056322454,-18.311334053532935
0.15429687499999986,71.13912194951718,-18.326374967680827
0.15820312499999994,71.10688181243555,-18.341795732909496
0.1621093749999999,71.07384050083613,-18.35759590853572
0.16601562499999994,71.03999837228085,-18.373775042964176
0.16992187500000006,71.00535579303576,-18.39033267369522
0.17382812500000003,70.96991313806987,-18.407268327332847
0.17773437500000017,70.9336707910537,-18.424581519592866
0.18164062499999975,70.89662914435804,-18.442271755311236
0.185546875,70.85878859905249,-18.46033852845262
0.18945312499999983,70.82014956490401,-18.478781322119104
0.19335937499999978,70.78071246037553,-18.497599608559113
0.19726562500000033,70.74047771262431,-18.516792849176554
0.201171875,70.69944575750056,-18.53636049454006
0.20507812499999986,70.65761703954561,-18.556301984392537
0.20898437500000017,70.61499201199048,-18.57661674766083
0.212890625,70.57157113675409,-18.59730420246557
0.21679687499999986,70.52735488444152,-18.618363756131266
0.220703125,70.48234373434234,-18.639794805196548
0.22460937500000003,70.43653817442869,-18.66159673542461
0.228515625,70.38993870135344,-18.683768921813837
0.23242187499999953,70.34254582044836,-18.706310728608642
0.23632812500000044,70.29436004572206,-18.729221509310484
0.24023437499999992,70.24538189985807,-18.752500606689036
0.24414062499999997,70.19561191421275,-18.776147352793643
0.24804687499999967,70.14505062881321,-18.80016106896485
0.2519531250000002,70.09369859235515,-18.82454106584622
0.255859375,70.04155636220072,-18.84928664339626
0.2597656250000001,69.98862450437619,-18.874397090900622
0.26367187499999994,69.93490359356971,-18.89987168698443
0.26757812500000006,69.88039421312894,-18.925709699624818
0.27148437500000017,69.82509695505865,-18.951910386163664
0.27539062499999983,69.7690124200183,-18.9784729933205
0.279296875,69.71214121731946,-19.005396757205652
0.28320312500000006,69.65448396492332,-19.0326809033335
0.28710937500000017,69.596041289438,-19.060324646635998
0.2910156249999997,69.53681382611599,-19.08832719147635
0.29492187500000006,69.47680221885122,-19.116687731662886
0.298828125,69.4160071201765,-19.145405450463116
0.302734375,69.35442919126051,-19.174479520617997
0.306640625,69.29206910190493,-19.203909104356367
0.31054687500000017,69.22892753054153,-19.233693353409585
0.3144531249999998,69.16500516422903,-19.263831409026356
0.318359375,69.10030269865013,-19.29432240198776
0.32226562500000017,69.03482083810825,-19.325165452622432
0.3261718749999999,68.96856029552438,-19.356359670821984
0.330078125,68.90152179243381,-19.387904156056592
0.333984375,68.83370605898268,-19.419797997390756
0.337890625,68.7651138339247,-19.452040273499293
0.341796875,68.69574586461758,-19.484630052683475
0.345703125,68.62560290701953,-19.517566392887403
0.349609375,68.55468572568559,-19.550848341714524
0.353515625,68.48299509376403,-19.584474936444376
0.357421875,68.41053179299253,-19.61844520404951
0.361328125,68.33729661369436,-19.652758161212596
0.365234375,68.26329035477453,-19.687412814343727
0.369140625,68.18851382371575,-19.722408159597908
0.373046875,68.11296783657446,-19.757743182892757
0.376953125,68.03665321797664,-19.793416859926346
0.380859375,67.95957080111368,-19.82942815619529
0.3847656250000005,67.88172142773809,-19.865776027013
0.3886718749999995,67.80310594815917,-19.902459417528082
0.392578125,67.72372522123851,-19.939477262743065
0.396484375,67.64358011438559,-19.97682848753311
0.400390625,67.56267150355315,-20.0145120066651
0.404296875,67.48100027323254,-20.052526724816822
0.408203125,67.39856731644896,-20.090871536596346
0.412109375,67.31537353475666,-20.129545326561626
0.416015625,67.231419838234,-20.16854696924026
0.419921875,67.1467071454785,-20.207875329149452
0.423828125,67.06123638360172,-20.247529260816165
0.427734375,66.97500848822412,-20.28750760879746
0.431640625,66.88802440346981,-20.327809207701023
0.435546875,66.80028508196122,-20.368432882205884
0.439453125,66.71179148481366,-20.409377447083326
0.443359375,66.62254458162978,-20.450641707217976
0.447265625,66.53254535049406,-20.492224457629096
0.451171875,66.44179477796699,-20.534124483492043
0.455078125,66.35029385907936,-20.576340560159952
0.458984375,66.25804359732638,-20.61887145318557
0.462890625,66.16504500466166,-20.661715918343297
0.466796875,66.0712991014912,-20.704872701651418
0.470703125,65.97680691666714,-20.748340539394516
0.474609375,65.8815694874816,-20.792118158146067
0.478515625,65.78558785966025,-20.83620427479125
0.482421875,65.68886308735587,-20.880597596549904
0.4863281249999999,65.59139623314182,-20.92529682099971
0.49023437500000006,65.49318836800533,-20.970300636099527
0.494140625,65.39424057134082,-21.01560772021295
0.498046875,65.29455393094295,-21.06121674213204
0.501953125,65.19412954299975,-21.107126361101205
0.505859375,65.09296851208548,-21.153335226841353
0.509765625,64.99107195115349,-21.199841979574128
0.513671875,64.88844098152897,-21.246645250046416
0.517578125,64.78507673290153,-21.29374365955501
0.521484375,64.68098034331774,-21.341135819971417
0.525390625,64.57615295917351,-21.388820333766933
0.529296875,64.47059573520642,-21.43679579403784
0.533203125,64.36430983448786,-21.485060784530816
0.537109375,64.25729642841513,-21.533613879668504
0.541015625,64.14955669670344,-21.58245364457531
0.544921875,64.04109182737768,-21.631578635103345
0.548828125,63.931903016764274,-21.68098739785858
0.552734375,63.82199146948266,-21.73067847022715
0.556640625,63.71135839843695,-21.78065038040189
0.560546875,63.6000050248072,-21.830901647409014
0.564453125,63.4879325780408,-21.881430781134988
0.568359375,63.375142295843546,-21.9322362823536
0.5722656250000008,63.2616354241707,-21.983316642753213
0.5761718749999993,63.147413217218066,-22.034670344964134
0.580078125,63.03247693741245,-22.086295862586354
0.583984375,62.916827855402765,-22.138191660217167
0.587890625,62.800467250050296,-22.190356193479268
0.591796875,62.68339640841928,-22.24278790904886
0.595703125,62.56561662576717,-22.295485244684002
0.599609375,62.44712920553487,-22.348446629253104
0.603515625,62.327935459336786,-22.40167048276366
0.607421875,62.208036706950786,-22.455155216391088
0.6113281250000007,62.087434276308,-22.508899232507826
0.6152343749999993,61.96612950348264,-22.56290092471249
0.619140625,61.84412373268127,-22.617158677859447
0.623046875,61.721418316232636,-22.671670868088217
0.626953125,61.598014614576705,-22.726435862853386
0.630859375,61.473913996253955,-22.7814520209545
0.634765625,61.3491178378944,-22.836717692566214
0.638671875,61.223627524206535,-22.892231219268584
0.642578125,61.09744444796612,-22.947990934077573
0.646484375,60.97057001000485,-23.00399516147569
0.650390625,60.84300561919887,-23.06024221744284
0.654296875,60.71475269245719,-23.116730409487342
0.658203125,60.58581265470991,-23.173458036677104
0.662109375,60.456186938896415,-23.230423389671007
0.666015625,60.3258769859533,-23.287624750750425
0.669921875,60.19488424480226,-23.34506039385095
0.6738281249999999,60.06321017233781,-23.40272858459428
0.6777343750000066,59.93085623341464,-23.460627580320374
0.6816406249999938,59.797823900836406,-23.51875563011911
0.685546875,59.66411465533971,-23.57711097486412
0.689453125,59.52972998558566,-23.635691847243482
0.693359375,59.394671388143664,-23.694496471793876
0.697265625,59.258940367479575,-23.75352306493295
0.701171875,59.12253843594224,-23.812769834992498
0.705078125,58.98546711375015,-23.872234982251726
0.708984375,58.84772792897784,-23.931916698970696
0.712890625,58.70932241754229,-23.99181316942391
0.716796875,58.57025212318905,-24.051922569934085
0.720703125,58.43051859747832,-24.112243068906107
0.724609375,58.29012339977085,-24.17277282686112
0.728515625,58.14906809721365,-24.233509996470804
0.732421875,58.007354264725684,-24.294452722591828
0.736328125,57.86498348498325,-24.355599142300434
0.740234375,57.72195734840537,-24.416947384927234
0.744140625,57.57827745313892,-24.478495572092122
0.748046875,57.4339454050437,-24.540241817739407
0.751953125,57.28896281767731,-24.602184228173044
0.755859375,57.143331312279855,-24.66432090209209
0.759765625,56.99705251775858,-24.726649930626284
0.763671875,56.85012807067231,-24.789169397371804
0.767578125,56.702559615215726,-24.851877378427176
0.771484375,56.55434880320353,-24.914771942429365
0.775390625,56.40549729405445,-24.977851150589995
0.779296875,56.25600675477507,-25.041113056731756
0.783203125,56.10587885994359,-25.104555707324963
0.787109375,55.9551152916933,-25.168177141524254
0.791015625,55.80371773969607,-25.231975391205484
0.794921875,55.65168790114555,-25.295948481002732
0.798828125,55.49902748074031,-25.36009442834551
0.802734375,55.345738190666765,-25.42441124349608
0.806640625,55.19182175058202,-25.488896929586975
0.810546875,55.03727988759652,-25.55354948265863
0.814453125,54.88211433625651,-25.618366891697207
0.818359375,54.72632683852647,-25.68334713867253
0.822265625,54.569919143771244,-25.748488198576222
0.826171875,54.412893008738166,-25.813788039459947
0.830078125,54.25525019753889,-25.879244622473834
0.833984375,54.09699248163121,-25.944855901905044
0.837890625,53.93812163980062,-26.010619825216473
0.841796875,53.77863945814177,-26.07653433308563
0.845703125,53.618547730039765,-26.14259735944363
0.849609375,53.45784825615133,-26.20880683151437
0.853515625,53.29654284438579,-26.27516066985383
0.857421875,53.134633309885906,-26.341656788389507
0.861328125,52.97212147500859,-26.40829309446004
0.865234375,52.80900916930543,-26.47506748885493
0.869140625,52.64529822950307,-26.541977865854435
0.873046875,52.48099049948348,-26.609022113269592
0.876953125,52.31608783026402,-26.676198112482385
0.880859375,52.150592079977365,-26.743503738486066
0.884765625,51.98450511385132,-26.81093685992559
0.888671875,51.81782880418843,-26.87849533913823
0.892578125,51.650565030345476,-26.946177032194274
0.896484375,51.48271567871278,-27.013979788937927
0.900390625,51.31428264269343,-27.081901453028294
0.904296875,51.14526782268225,-27.149939861980528
0.908203125,50.97567312604474,-27.218092847207107
0.912109375,50.80550046709577,-27.286358234059247
0.916015625,50.63475176707815,-27.35473384186845
0.919921875,50.46342895414109,-27.42321748398817
0.923828125,50.29153396331845,-27.491806967835647
0.927734375,50.11906873650689,-27.560500094933825
0.931640625,49.94603522244384,-27.62929466095344
0.935546875,49.77243537668533,-27.698188455755215
0.939453125,49.598271161583675,-27.767179263432194
0.943359375,49.423544546265,-27.836264862352195
0.947265625,49.248257506606656,-27.90544302520041
0.951171875,49.07241202521442,-27.974711519022094
0.955078125,48.8960100913996,-28.044068105265424
0.958984375,48.71905370115601,-28.11351053982444
0.962890625,48.5415448571367,-28.183036573082138
0.966796875,48.363485568630665,-28.252643949953683
0.970703125,48.184877851539326,-28.32233040992972
0.974609375,48.0057237283529,-28.392093687119832
0.978515625,47.826025228126596,-28.46193151029611
0.982421875,47.64578438645671,-28.531841602936826
0.986328125,47.46500324545652,-28.601821683270252
0.990234375,47.2836838537321,-28.67186946431856
0.9941406249999993,47.10182826635795,-28.741982653941875
0.9980468750000006,46.91943854485235,-28.81215895488246
