0.006249987054616213,89.15432456756022,-8.103523817367499
0.2622264226998428,87.05666335733183,-9.489336995079057
0.7428272500949898,72.31944728665682,-18.751497631403897
0.6899944958974087,74.6111431365598,-17.364701827448933
0.1664931995095728,88.30848429087705,-8.664408691152726
0.4577448774811744,82.75382160281255,-12.278578150383467
0.5418022602805879,80.18161362178027,-13.912214083371396
0.6367769937918372,76.76319683560531,-16.04470589208699
0.36255098774652483,85.14228044784004,-10.73910883590269
0.9931717418711853,59.31846061287687,-26.248383706863734
0.7847616159144581,70.3756562567854,-19.912368392856344
0.5950083403073327,78.3319593685931,-15.071423409249103
0.30998362429298604,86.21987756521229,-10.037350213126695
0.9697528874560128,60.66517074194065,-25.50132358568698
0.9699446551599618,60.652727833469456,-25.507861869308318
0.9240832596950744,63.22053808236502,-24.064038534429397
0.7851438089249952,70.35731058361056,-19.923104621424716
0.8303105154780053,68.15719931420662,-21.22035292131971
0.40502993861081604,84.14223304579808,-11.386314732165498
0.12778523150610724,88.65553468348587,-8.434612341718616
0.21961342648364046,87.68219719202835,-9.077891298450034
0.4699790809986178,82.40441738393925,-12.501997166169074
0.44680352089939684,83.05463662556565,-12.085897179921494
0.4347908678465905,83.37662225248496,-11.87927143546738
0.5650396618387457,79.39737760484032,-14.405357146462745
0.5529691848299237,79.81028279256388,-14.145981282800959
0.529818359018304,80.57404480073416,-13.664610097596
0.7553875031011897,71.74812273844513,-19.09422308114994
0.731685563494436,72.81364560028602,-18.45412288150678
0.7198179061906222,73.32975317608086,-18.142641376904223
0.7079429249660896,73.83175976619997,-17.838541506619936
0.6899851440665135,74.598536433846,-17.372121416224566
0.6719384971837534,75.36534921551281,-16.904000791238857
0.7672625066774672,71.20919744257554,-19.41618695235171
0.7968123527045291,69.79826608525984,-20.25452039087161
0.8018199097657168,69.55693170369781,-20.39696821939559
0.9843383931201246,59.83240943023764,-25.96459223268499
0.9889050722122211,59.564140298718435,-26.11230731241288
0.9817477281409058,59.981222368955976,-25.881678068735194
0.9928426559286894,59.332566916060856,-26.240569280159615
0.8471469835078291,67.30899503364435,-21.715644197221526
0.8309269753646774,68.12363860864791,-21.23990241650501
0.8131044935154655,69.0065337654091,-20.721533776228966
0.903144160900434,64.36629806921493,-23.412242773362266
0.9408095165967599,62.300689886926406,-24.58503189223588
0.9374671741925168,62.48190603281043,-24.481973986628592
0.8005956727052107,69.61699798203792,-20.361653724170072
0.7843328338077369,70.39689448479699,-19.89947481552072
0.766314380711105,71.24897290368072,-19.392514329820337
0.19872387377390074,87.94925316653728,-8.901767231095123
0.21525379578512144,87.7382762758522,-9.040919641611215
0.2333360618081925,87.49041599610418,-9.20420966011323
0.14961452589641133,88.47098431590761,-8.556862455469782
0.17137571561612194,88.2599151716719,-8.696539010016268
0.18344139417871239,88.1261390045159,-8.784946181739032
0.12027319241071893,88.71275310811652,-8.39668488249773
0.12110634395750051,88.70880060692065,-8.399313134905977
0.10336352791393952,88.82773351748344,-8.320421830620095
0.23131180962833375,87.52470864138425,-9.181648524109416
0.22114463301818413,87.6603765071741,-9.092290782797171
0.1948839043521145,87.99988978224478,-8.86836271939739
0.5769146505138619,78.98837962658018,-14.661472406382629
0.5949987544960912,78.33008468375373,-15.072412842926092
0.6130264501974756,77.65857660826654,-15.490325565669448
0.48800222993020753,81.8768752269329,-12.838380551652644
0.4790457454689996,82.14062137372574,-12.670253143762922
0.5216631853398952,80.83858127866736,-13.497482990488713
0.3868295353613386,84.58760136412334,-11.098551243405062
0.40494108048835487,84.14134451949859,-11.38682305430119
0.42291586799560243,83.68070992271028,-11.683726997147382
0.5312068290106857,80.52974806460274,-13.692587060953349
0.48939938645675574,81.83299081649231,-12.866211917464662
0.5016744979387935,81.46147454227612,-13.102464780772586
0.37495453551035085,84.86224348781235,-10.92077465954175
0.35182775479745726,85.37460961387089,-10.588187982770425
0.33982043636035897,85.62685367466266,-10.424110056998089
0.6600634861568909,75.8432016012212,-16.611208866010674
0.6482065278868177,76.3179675509711,-16.31921931598224
0.624901453773755,77.21798336990034,-15.763545854731047
0.7160367146078712,73.50231083965302,-18.03825213097893
0.6686288323876136,75.50026810476741,-16.82138323740601
0.6919630035783558,74.53222428635475,-17.41283950423091
0.6130635012934792,77.66173606909342,-15.488423514648058
0.5950264309403558,78.33118058863072,-15.071841990856965
0.5770558371948277,78.9825981129409,-14.665153850371766
0.24384150510903851,87.34549405484671,-9.299542612052509
0.2676081446654179,86.97064153594165,-9.545806533482027
0.2789668981659266,86.78008493326699,-9.670787234988886
0.28962962660511593,86.59474572958919,-9.792211355684424
0.3062349963518006,86.29114054585366,-9.990800375507035
0.3161516636610031,86.10225083520959,-10.114193326074407
0.42318534260550356,83.67883799233265,-11.6849594817075
0.40505623530583224,84.13955629716074,-11.387968535611934
0.3870950706867105,84.58149963517049,-11.102494864517233
0.2919226828699712,86.55586824139618,-9.817629746429892
0.3099823977256425,86.21743756395325,-10.038889229432012
0.3279454327840802,85.86330363972222,-10.270055378767873
0.5123427595501591,81.13216576139764,-13.311499262589372
0.5000328563996141,81.51144006101198,-13.070748191143906
0.050380991055339414,89.07578652128355,-8.155721566620327
0.6451923409321821,76.43600532597668,-16.246598213637903
0.5511421581871312,79.87120203614985,-14.10770320136671
0.6452970418868806,76.43193972273912,-16.24905778093566
0.6563217908975754,75.99647577453034,-16.517186205612166
0.7380864664868908,72.52965962935122,-18.62520064879148
0.9211011125429132,63.39120777679624,-23.967827939549696
0.9316968933870404,62.81099501212438,-24.297022101478312
0.9064225198706948,64.19221831203593,-23.511897831115032
0.48769999017209864,81.88556154338094,-12.832881627606733
0.4518403349551897,82.91583617046557,-12.174870220686381
0.3583246553482303,85.23396285851432,-10.679574844367343
0.3575530727075033,85.25034996203712,-10.668954657692764
0.2746592312849322,86.85398093759906,-9.622362531064582
0.3269463229230513,85.8889103820487,-10.253362946897834
0.1606506024379944,88.36677485412456,-8.625842929590826
0.2619180978033032,87.06120798663365,-9.486374817620538
0.16913561020175383,88.28200440442265,-8.681921942990106
0.10262146134602296,88.83134627514829,-8.31802529764079
0.158848810940981,88.38562813150028,-8.613377065401513
0.5000098933226386,81.51242867988034,-13.070097436119022
0.5708429890819795,79.19461444977648,-14.532550639461837
0.5180082798013468,80.95202599463052,-13.425406967776006
0.5652052566217451,79.39130222242707,-14.409206273978457
0.5181366856690317,80.9493117254195,-13.427244700187037
0.05962938079378835,89.04566460675282,-8.17573699438039
0.8846511379399676,65.35797936845387,-22.84405549534411
0.8923862730871119,64.94656566663475,-23.080780957291275
0.937320003926145,62.49667689787318,-24.4742710770558
0.8804466002468152,65.58206234146311,-22.715619336095738
0.13410782146209868,88.60506496929732,-8.468067073478426
0.14113939614755283,88.54768920716228,-8.50607367342028
0.18410454376991991,88.12146530109689,-8.788053963389583
0.1913838159911364,88.03978096381667,-8.842023521236474
0.11098803606196554,88.78159354655618,-8.351039753680034
0.5499785265095047,79.90919642036906,-14.083799190776258
0.614178830772229,77.62584039437509,-15.510693941455786
0.6249079208777125,77.2129573508092,-15.766644709322607
0.6082450572052712,77.84802405719009,-15.372797878731262
0.582698044368013,78.77682025683518,-14.793942579133477
0.5950230378401982,78.33360620953523,-15.07055618347713
0.5944427057397922,78.35361515000662,-15.058016413690138
0.5943347122921555,78.35800896190408,-15.055169808768666
0.6035129065293621,78.02237003511834,-15.264274985274573
0.6451197275736839,76.43742171921545,-16.245691357380892
0.5834673973145442,78.75137529528993,-14.809782068630293
0.5968623403722173,78.26944822185148,-15.110476468027061
0.5469025520132194,80.01193509945696,-14.019085834115943
0.6134951999748188,77.65258711230237,-15.494142474420482
0.5956764757777503,78.3093697071219,-15.085552360965941
0.7268295327377043,73.02986904501188,-18.323816004484673
0.7604723079554988,71.51211813763965,-19.235556977881195
0.6249709148953554,77.21401906984825,-15.76597922516874
0.665760038461151,75.6128740713074,-16.75262144334786
0.6249066244766888,77.21911642370382,-15.76271752898748
0.6899580612060421,74.60594683979683,-17.36782542458194
0.6719109821896063,75.35529824300855,-16.91006497507121
0.7137512427350627,73.59929667996202,-17.979613743209626
0.9684505157270643,60.739494267522815,-25.459596494942343
0.8403347256982303,67.65619221230781,-21.513183955445527
0.8112798070279044,69.09565851085704,-20.66912068886326
0.8532445471722976,66.99748259909951,-21.89696634711787
0.7911736356623725,70.06256733795,-20.09801641949343
0.7790091131672376,70.64376757042417,-19.752968233223203
0.8277039797778146,68.28740798013867,-21.144044654559742
0.7548353491460313,71.77492208899376,-19.07816297638312
0.7723782432492594,70.95921604619791,-19.565512987422352
0.7968296356091139,69.79806350543127,-20.25484850776776
0.7652885467908251,71.29045339935918,-19.36775405792197
0.7851922950184735,70.35366800794546,-19.925513860191696
0.7824941264895754,70.48241987649541,-19.84916542715089
0.7813691316030296,70.53518446083913,-19.81757283900345
0.784903255757024,70.36768372425716,-19.917337059520474
0.7844871091084641,70.38712970455984,-19.90563065756847
0.9605669184479209,61.19001723002759,-25.208458953785982
0.9832418675738156,59.88778987429602,-25.93354104847524
0.9736885704545359,60.441259888166066,-25.625962067303544
0.9795767759962793,60.1002598884984,-25.81515605692361
0.967311198083948,60.79996537354718,-25.42573080386658
0.9213422513012945,63.378005432423194,-23.975289221565266
0.9911666512489307,59.43649571183565,-26.183576059371426
0.9931717418711972,59.31231346416216,-26.252094112228164
0.9574270601106757,61.36984518763448,-25.107704029942433
0.8494651366807388,67.19101528623835,-21.78421023712701
0.9029319644650686,64.37948382742098,-23.405116853009737
0.8776511563264352,65.72752298128569,-22.631541518562234
0.42924817014433414,83.52690235552558,-11.782750059057907
0.48205881690501573,82.05026673357524,-12.727897281267786
0.4349410119467796,83.3735006320344,-11.881218943378599
0.3560721282528322,85.28154464735424,-10.64868752314403
0.40869944117522083,84.05084548532638,-11.4452737866607
0.4165070578455918,83.8542574203935,-11.571988555291338
0.4530189827490552,82.8841556018054,-12.195138700063035
0.41078415919556227,83.99949693475855,-11.478447726107655
0.43257276620657875,83.43723126051208,-11.840316648792998
0.45309730750653376,82.88171509467317,-12.196738504516956
0.38582564083884424,84.60815251917542,-11.085276680543643
0.3755823739436998,84.84927030489013,-10.929160100477985
0.39236417120483386,84.453122833905,-11.18558404127129
0.41734609501265874,83.83438018860204,-11.58486979670315
0.4049797118779495,84.14495981229092,-11.384617701133845
0.4033171464883117,84.18518367089064,-11.358615429285118
0.41343202848448496,83.93163261481834,-11.522140234534723
0.3964994590403043,84.35247890684666,-11.250621375375532
0.32836675643920904,85.8618270808328,-10.271037838880622
0.3458365167449581,85.50265443661898,-10.504957769918766
0.38083083381551563,84.7258085636811,-11.009171450649413
0.24418452258301876,87.33518790806252,-9.306326658934163
0.28545573073164754,86.66960053988568,-9.743211759985094
0.24529908281835314,87.31917899987396,-9.3168692971919
0.31001152949577665,86.21975492692289,-10.037425371601415
0.2801357004528644,86.7609210030717,-9.683362823273834
0.3345346180276959,85.73715994593667,-10.352296897016975
0.057932912769452366,89.0505250907068,-8.17250760417631
0.08742322989473447,88.921867555917,-8.257949872365467
0.11060871616959951,88.7842297711647,-8.349291898068028
0.035105553344909925,89.11553034592127,-8.129310146192285
0.02171547234160162,89.13713627496847,-8.11495014122581
0.07549634161624182,88.98169887875981,-8.218223551214704
0.012595513476816056,89.15217936982857,-8.104950353433217
0.06465384768755485,89.02857949658735,-8.187087621957456
0.02946926329989141,89.12886294076738,-8.120447939487063
0.025525048353910448,89.13664486559624,-8.115276900031184
0.044113356147918295,89.09757371378264,-8.141245237970828
0.016512907353808306,89.14881978462198,-8.10718382094163
0.05776192810036994,89.0522827862123,-8.171340543823003
0.029154563767105342,89.1298443887946,-8.119796993837525
0.29227443316826346,86.54660070516228,-9.82370833127722
0.2630506829115833,87.04329395617017,-9.498133956234792
0.1969967713063403,87.96920154355071,-8.888594585570209
0.20329831841635562,87.89491770636477,-8.937643563293602
0.2281670067089147,87.56647581038426,-9.154143358318821
0.2158322641085918,87.73420112271707,-9.043634551776616
0.21567428603444494,87.73456766355082,-9.043382594980912
0.22289038951390766,87.63931556407545,-9.106107724768162
0.20671644277793091,87.84984529447398,-8.967336764548943
0.17207765034192465,88.25255193940146,-8.701404758580715
0.21013660502210502,87.80788089698544,-8.995038450865628
0.21091901726943194,87.79820656708428,-9.001423185051056
0.26368518468964997,87.03398890303345,-9.504239009929085
0.20667989128452577,87.84899204733945,-8.967915936242225
0.2257698139391199,87.59830797693995,-9.13315656532975
0.10020080494000781,88.84815380431822,-8.306878124828293
0.12394584298899951,88.68717588829234,-8.413638580354307
0.48195049508781773,82.05164804659304,-12.72692118245166
0.6874799239198796,74.7220774811637,-17.297242155085062
0.5124217080234279,81.12984009218482,-13.312991562819015
0.5370578459476677,80.33806639763037,-13.813624730765087
0.5356397360572608,80.38482194511418,-13.784142327650013
0.5242057825928358,80.75523746306669,-13.55009139032455
0.5246493752578079,80.74119037794019,-13.5589974914382
0.5248898408388314,80.73304202073682,-13.564119307186283
0.5239653170118103,80.76252526719931,-13.545471726134926
0.5001820412226862,81.5073244847892,-13.073390542982354
0.4762102134368321,82.2274527074457,-12.61502932191563
0.5253270111059389,80.71756000586237,-13.57392880067553
0.500165044600566,81.50781235453685,-13.073044421569168
0.5006788736153374,81.49278068011354,-13.082640706727233
0.4876849122187977,81.88751813421914,-12.831662887709193
0.5131590059971046,81.10620768068414,-13.327936207742086
0.938143570184119,62.45113997553087,-24.499640214021817
0.9356894570142867,62.58749824987454,-24.422635805368017
0.30247335135936704,86.36125846508112,-9.944942086133002
0.32940169901167005,85.84181915623097,-10.28408959837369
0.33734038204466016,85.67792299886969,-10.390833853331399
0.19878379713150435,87.94971881899492,-8.901473402450852
0.19031569612988652,88.04954042280838,-8.835558919915469
0.6991307899742223,74.23042625530782,-17.59647786743072
0.6842510765260089,74.8535520269907,-17.2166456432713
0.6886339266638191,74.67138383353986,-17.327819468291054
0.6651417963514158,75.64075923144325,-16.73541047800283
0.6621390392850566,75.76287991485077,-16.66066336410629
0.6450521562038197,76.4409486845421,-16.24350103807957
0.6202228190378782,77.39900031464288,-15.65133445170907
0.6702272564516721,75.43301711057364,-16.86261194457185
0.6451169405940332,76.43979480698302,-16.244312490415876
0.6450203119598404,76.44296507137022,-16.242274525685385
0.6319155087591708,76.9528154317465,-15.927617977868126
0.6582217437947043,75.9204051958453,-16.56392371476587
0.5754375183371871,79.03597077423727,-14.631680768900907
0.5246311736637173,80.73987698529153,-13.559698770818889
0.5430350095366447,80.13843469596544,-13.93925321828146
0.5614817856845192,79.52014738829634,-14.328292075084535
0.5764849940533596,78.9999500709526,-14.654194737783076
0.5281995033077959,80.6259428328873,-13.631774677030384
0.5625292614006936,79.48300617321043,-14.351537924032812
0.563691466729378,79.44266572412417,-14.376948120216671
0.548813020225581,79.94815200541707,-14.059239432903887
0.5476508148968955,79.98573989624462,-14.03554924859064
0.6200850978302841,77.40410245826195,-15.648214752643348
0.6693561333482245,75.46881942921588,-16.840616933463426
0.6322981156498272,76.93899341475291,-15.936155874778478
0.6452651976429014,76.43430618131228,-16.247631918994735
0.644628424381236,76.45733626305014,-16.233335070489886
0.6575955063743101,75.94645692203463,-16.547839910505402
0.6558929620585185,76.01416172356765,-16.506332872318268
0.6776318470905986,75.12728022954528,-17.049872528345343
0.682125410796621,74.94238376703181,-17.162633386792116
0.6681881009985421,75.51709413004794,-16.811185927486253
0.667715716065318,75.53531499223534,-16.80002416346916
0.6657839189242077,75.61292006609054,-16.752482380551008
0.6701198981396519,75.43785061114559,-16.859748255603286
0.6934228818726421,74.47268467125032,-17.449106303595862
0.6899674130369392,74.60848187891081,-17.36634903157832
0.6935826581861674,74.46573669570994,-17.453376735951778
0.6800631120254005,75.03252226820791,-17.107755810190923
0.6681968019244354,75.51967624182991,-16.80976495464927
0.7149545515131607,73.54675333597676,-18.011372989792765
0.6934521565560582,74.47372961799735,-17.44857204199019
0.4917675685167967,81.76469958980256,-12.909772992128982
0.5097804079161744,81.20925448171135,-13.262495235920056
0.4731733790047568,82.312221736829,-12.560801875546819
0.48157807786276285,82.06820447296785,-12.71653954261601
0.8087220200055175,69.2197038463721,-20.59618767284982
0.8498777225599035,67.17238133895907,-21.794795136206538
0.8206497813648352,68.64199930015707,-20.936136585343505
0.8323387972488924,68.06472580888102,-21.273925042297638
0.736889400272126,72.58183021670663,-18.593753739676767
0.7605328408253631,71.5080803775146,-19.2377757145779
0.715031981527999,73.54594695213426,-18.011719476627153
0.738289723510389,72.52056072303031,-18.630693046718417
0.7369518115200174,72.57906380706942,-18.595409679177134
0.7484650739079847,72.06118019334777,-18.90665276593565
0.7267764611224307,73.03145133177192,-18.32284918726079
0.7375466719226466,72.55410111894246,-18.61051272021183
0.7600498825070441,71.53033796313109,-19.224418158023365
0.7151686137647405,73.54027665515102,-18.015023270585893
0.7433259243056983,72.29335477214867,-18.767140682879834
0.7428941877776131,72.31256175771354,-18.755562424050282
0.731949294154475,72.8023355045012,-18.460787442839422
0.7315175576263898,72.82207548352042,-18.448891404268775
0.8281008823484451,68.26981702851421,-21.1546125868599
0.8075732687389764,69.2753725134647,-20.563257547304023
0.8511458478813575,67.10506099918966,-21.833989528618037
0.8206827389035495,68.63963093024775,-20.9375765647164
0.8347556738368926,67.9372866844694,-21.349104856042477
0.8336398801090623,67.99498405039382,-21.315552005718516
0.8217985326313687,68.58029664032415,-20.9723414743553
0.9175686275991792,63.58720830227582,-23.85658447799128
0.9491888288524722,61.833772465094704,-24.84717768721105
0.9022456548552749,64.41893229852074,-23.382538330304556
0.9266287311751473,63.089763781701336,-24.139143414197683
0.9192597603830742,63.49600501459089,-23.908704603053412
0.9383654032337713,62.43907355411779,-24.506882924502833
0.9149874228324624,63.729287258844344,-23.776037449715577
0.9764066123190431,60.27777197828168,-25.716750552788568
0.9496621427207674,61.80727084617789,-24.862231306159277
0.8993617561474418,64.57375293636406,-23.29396370955478
0.9362009565815866,62.56714930639591,-24.434316422207544
0.9104123913407444,63.977876977826305,-23.634586118701232
0.930005760603151,62.90691303374218,-24.242436948033763
0.9215803858151377,63.36693004900536,-23.981450770161693
0.8723979592763768,66.00895027046849,-22.469484616920212
0.8385694026947018,67.74023586351917,-21.46398296110671
0.8759886117657917,65.81519344909087,-22.58121162250566
0.890360418803582,65.05651624826818,-23.017278155007443
0.888119229861188,65.1767171863311,-22.948671616834726
0.9094289791467153,64.03148188565287,-23.603796179921485
0.8787812339420547,65.67121244393454,-22.664164944816047
0.887301983255238,65.2190892900124,-22.92414371712241
0.8983526184485441,64.62884379578948,-23.26297684070627
0.48824840579761697,81.86849282069028,-12.84371055922727
0.46460759765916276,82.56029983209385,-12.402448467970368
0.46419104112600085,82.57165104528222,-12.395182497095552
0.4758130060622189,82.23561266256438,-12.609737874143008
0.4767260658794361,82.20898953037309,-12.62672911062112
0.4768733320336867,82.20459793278395,-12.629499982830154
0.47566573990796907,82.24023076126753,-12.606795508634836
0.42642828489446843,83.59582364474723,-11.738276079764018
0.4761161551010911,82.22703645593556,-12.615177632456593
0.44237958290555196,83.17419214075927,-12.009193224209122
0.45880362974820776,82.72122300950615,-12.299406795820017
0.45755772472440964,82.75605554740402,-12.277128042877282
0.4436254879293511,83.13889761287224,-12.031775939339441
0.3828612620511283,84.6754771974589,-11.04167316390894
0.3361333538507958,85.70386000506154,-10.373937312859074
0.36741890896928575,85.02989878583494,-10.811998477478705
0.368684017115999,85.0015319717003,-10.830399868723028
0.35436867272274525,85.31844837074397,-10.624653360212715
0.3531035645760325,85.34611629222101,-10.606692348521413
0.3570507401766065,85.26186791224833,-10.661469632970686
0.38049350045061636,84.73139233734842,-11.005476635544138
0.3342895112898958,85.74140675708202,-10.34948170279996
0.35811209765891555,85.23843266634273,-10.676697036217579
0.3566664694703844,85.27009081967984,-10.656127603449551
0.368614052263126,85.00518965414449,-10.828081668968027
0.3461645148661734,85.4955456868622,-10.50956527511023
0.4287931106032188,83.53466096850855,-11.777649350131899
0.4781428611041679,82.16679194006082,-12.65352393189838
0.46319516146003575,82.59868620575858,-12.377835563585101
0.44599031363810154,83.07642513261008,-12.071943076429276
0.2736293952855586,86.87062695309388,-9.611434793299567
0.2972354237024749,86.4593149042611,-9.880863626000398
0.2987089888924886,86.43194331585528,-9.898765584600898
0.28678757417479295,86.64409933268426,-9.759875559682294
0.2853776994974794,86.66867760099178,-9.743772290936183
0.2853312883560612,86.67018071046708,-9.74279923850858
0.28683398531621035,86.64358311070256,-9.760222294753127
0.31130839153070977,86.19565231271856,-10.053201422936837
0.310012756063119,86.22032216471356,-10.037065430532083
0.31130839153071,86.19610017206257,-10.052906732403946
0.31046901934969523,86.2109050622816,-10.043217891010096
0.3339615131686791,85.74774540066554,-10.345406891172981
0.286534234861211,86.65001556336719,-9.756015108421618
0.31812684237956973,86.06273694869299,-10.139965784402559
0.30142568796873115,86.37868748790375,-9.93352751312813
0.0651355043452615,89.02679119846158,-8.18827486126989
0.053708607133635025,89.06569747206288,-8.16242540361544
0.09992289813697991,88.84955204742514,-8.305945789757118
0.08529313220136156,88.93171305215188,-8.251413841411393
0.07028965900721397,89.0035194245606,-8.203733096189126
0.006345526422199843,89.15222512503723,-8.104920166062637
0.01016738093160846,89.15498389582852,-8.103085799329472
0.05595812328383603,89.06018261503156,-8.166092198810526
0.05126819609132764,89.07472004153128,-8.156431511234262
0.09559183216760668,88.87665200537718,-8.287967084050997
0.06898515789721042,89.01007959418382,-8.199376351556147
0.07014110904410763,89.00459523951174,-8.2030184888602
0.16772172920605416,88.29675878373871,-8.672167686222958
0.19017317965279792,88.05102250904751,-8.834574855328308
0.13938282025875318,88.56496838791422,-8.494639672909711
0.16588146443019167,88.31634877885963,-8.659214913809638
0.1671243990472619,88.30218654527171,-8.668574995102551
0.17771131627584696,88.19147348056418,-8.74178788405865
0.15529454720160663,88.41952739532535,-8.590937338158609
0.2385314406931989,87.41852561576022,-9.251496470080193
0.286159693098189,86.65451498797567,-9.753033612806593
0.27099093971037885,86.91591645606123,-9.581745805102441
0.25387814590493085,87.18957908092408,-9.402062847559
0.23591408804904834,87.45521325130248,-9.227352043950548
0.2845784768732954,86.68367473640046,-9.73396850871834
0.2512607932607805,87.22813317294002,-9.376703403963713
0.2501330968299765,87.24577843165454,-9.365112980684396
0.2656646744105306,86.99959077609236,-9.526794363571877
0.26679237084133445,86.98239308475029,-9.538092990265154
0.1927883537937914,88.01938279316656,-8.855454899636303
0.14165175534371363,88.54224654358462,-8.509682625746445
0.16853828004296165,88.28867789201396,-8.677512748089688
0.17064170092021516,88.26740179770796,-8.691587485869743
0.15743960955063646,88.4001909030807,-8.603742192601047
0.18174037141253988,88.14827156858736,-8.770341910471728
0.14590011909604067,88.50515808430694,-8.534243535849612
0.11849843811963416,88.72651225082225,-8.387564057761137
0.11439704810010659,88.75665120791662,-8.367578395092316
0.12698895585464695,88.6634870260215,-8.429342985369566
0.12124748133220085,88.70771150382468,-8.400031926245651
0.15081097635335955,88.46212374877626,-8.562744606798088
0.10725597136101882,88.8062138003176,-8.33471130983325
0.11986215256533776,88.71799985282537,-8.393213420029022
0.14642905567978906,88.50322795818686,-8.53553528022835
0.5004880725983585,81.49853496380966,-13.07896429275064
0.5236458659181378,80.77110902263088,-13.540108176568843
0.4763637346725987,82.22260449130856,-12.61805895224504
0.4998790462261965,81.51583154971779,-13.067918424864956
0.5007218696936144,81.49131272379992,-13.083564122319874
0.5119714468726912,81.14251790421288,-13.304922639691098
0.4886294690471227,81.85803817334407,-12.850373346629242
0.49544632145057926,81.65092385944129,-12.982029994732558
0.5300690045313867,80.56607081981282,-13.669644613676132
0.5144518056330365,81.06453749098479,-13.354260754390793
0.4963675357112009,81.62431858895394,-12.999033314060265
0.564844173505044,79.40767823412435,-14.398852208667213
0.5769722435018765,78.97586952982891,-14.669222613949499
0.5758072808175628,79.0205232029387,-14.641380469650446
0.5791396583107936,78.90451758312126,-14.714062435820331
0.5242421861296311,80.75586712799962,-13.549759293920543
0.5532471361896745,79.79809874441952,-14.153657227979533
0.5421203430291067,80.17156346967214,-13.918662923842286
0.5589633512445719,79.60473062416662,-14.2752716884813
0.5361052091723114,80.37068826293691,-13.79306892522804
0.5415243089208391,80.18708595716846,-13.908738631175963
0.5536107525037799,79.78729136602371,-14.160475830513096
0.5530221286556435,79.80804950578988,-14.147519124092977
0.5299392372379069,80.5695911891665,-13.667330311825923
0.5651267740270834,79.39077190922164,-14.409390396533436
0.5415772527465627,80.18978177219421,-13.907181004778277
0.5300768520232086,80.56650906239032,-13.669387647028987
0.5421974863406094,80.16632550425992,-13.92185934615518
0.5770077511476536,78.97678021868411,-14.668833055316387
0.5535336091922775,79.78976587079617,-14.159014438035076
0.5000802271910503,81.5100098268663,-13.071650437549952
0.5183215941782848,80.93866310835621,-13.433986803846171
0.4707348359179446,82.385833538367,-12.513864124307878
0.5002124153920001,81.50411402506987,-13.07528257755989
0.4822569054913466,82.0496350972852,-12.7282799801902
0.5304422284956828,80.55091391949985,-13.679202666812113
0.470269293839926,82.39627397726643,-12.5072294008462
0.8903077734616381,65.06134236811704,-23.01499936205962
0.913707960896654,63.79868756393111,-23.73639804298704
0.9330563129916093,62.73025732266404,-24.342269010336523
0.9046713434765097,64.28795977324798,-23.45737217797265
0.9030495414388311,64.37721065961459,-23.406486492975684
0.9034981215579067,64.35254785344712,-23.420425941263538
0.904222763357433,64.312926112662,-23.443057077328955
0.9231946463713605,63.27862798303382,-24.03160884133292
0.891785998374977,64.9799138714519,-23.06159453752161
0.9526432238021257,61.63618380631522,-24.957882677862035
0.924154620108289,63.22423440216617,-24.062324270972585
0.9267963856667654,63.07536590604537,-24.146732991874753
0.9487045094251337,61.855941579514386,-24.83490680843426
0.924490234938664,63.2037181423799,-24.07420358883243
0.8995393631312946,64.56239245036234,-23.300642989661814
0.9154192252738943,63.69877645383376,-23.79269583202543
0.9152170348544695,63.71429044064699,-23.784204371248578
0.9538493096223906,61.567622207861,-24.996874394528056
0.911824433520686,63.898279300393504,-23.67955716707077
0.9233310538503098,63.26965294318584,-24.036942560966015
0.9272033609103433,63.05408819733513,-24.15907612488786
0.8791332308307226,65.65470714118061,-22.674042285316904
0.892570874867714,64.93866558948284,-23.084892349273325
0.8462397280538088,67.35253402099973,-21.6899527574442
0.8867941688480719,65.24580594479146,-22.908822364176444
0.8808241676273705,65.56038453406936,-22.72762965967647
0.8744464042985393,65.89744058040044,-22.533588240789005
0.8684764030778367,66.20653725521747,-22.354840692113488
0.8602036312335148,66.64055159140159,-22.10381430128594
0.8387105153031458,67.73488553946203,-21.46724013572056
0.904894635022348,64.27206861255304,-23.466122968084576
0.8790793173977108,65.65544920095472,-22.673388774481406
0.8852660902304681,65.32637719156769,-22.86246011937919
0.8735193829901233,65.9455571787922,-22.50576546016648
0.8536424056899347,66.97535152068858,-21.909547684424883
0.9039346612854268,64.32389115425757,-23.436511582082815
0.31900763989006103,86.0473391125328,-10.150033383809548
0.13271299379485615,88.62004071203422,-8.45814886565954
0.15540956834476083,88.4192187316719,-8.591148171811186
0.17223964779340176,88.24951084231682,-8.703406279138735
0.15846137914091948,88.38971560676433,-8.610671025428772
0.14401564331712585,88.52286160574683,-8.522521211074398
0.14353333430148799,88.52679607061117,-8.519914836729889
0.14328557728565297,88.52752437752456,-8.519423670400112
0.17261259872305557,88.24604897170835,-8.705700855694257
0.14333680427202514,88.52890959919678,-8.51851735084439
0.188094341115679,88.07468640406894,-8.818950408910052
0.17003560141992505,88.27206390197495,-8.68849258989981
0.16371044507015875,88.33715825985726,-8.645443285003823
0.19606581204745066,87.98428680702987,-8.878660625408134
0.16486538371105766,88.32327892555695,-8.654608780656144
0.15426100278844476,88.43015482442146,-8.583906880248984
0.16504568797323163,88.32300246057756,-8.654799844487933
0.1507961085949557,88.46133553061716,-8.563260339723517
0.1786549878373386,88.1827148433122,-8.747580417348088
0.14054769035019826,88.55259477261491,-8.50282328428539
0.16799622928195265,88.29425583049633,-8.673823084636785
0.1653382608686741,88.3206547253732,-8.656359410042043
0.12010372689068254,88.71791247175183,-8.393275401562882
0.15181684857228775,88.4511735665903,-8.569989925436968
0.10343327217469316,88.82794953625667,-8.320281779946423
0.11437080297057982,88.75653705206625,-8.367653313579678
0.13028708564784766,88.63644248737873,-8.447262729168706
0.11850698872197758,88.72605354793686,-8.387863852438665
0.12615089989645,88.66941253681802,-8.425414787432553
0.12399442592346356,88.68715804656492,-8.413654312436412
0.09476377532063733,88.88151334800233,-8.284735834270714
0.1528872308463171,88.44273741504223,-8.575574715025361
0.09494239566857203,88.879230682581,-8.286250718668533
0.1439018099568226,88.52430719626398,-8.521568046649119
0.12471746759476084,88.68171366052303,-8.417265212272094
0.10964375104747659,88.78863605136,-8.346362841245707
0.15922109400847945,88.3816479611785,-8.616007914314018
0.6772199223668851,75.14860719660354,-17.036766336743845
0.6994752534601978,74.21623266849227,-17.605134115557558
0.6697974269885325,75.45363106742283,-16.85026464783623
0.5463204160123417,80.03135806968999,-14.006883614285249
0.57160316925865,79.16839845789096,-14.54881867654317
0.5242981379486501,80.75261322222498,-13.551749599841648
0.5496869513258912,79.91902779307702,-14.077649791139386
0.5465224268921137,80.024644410278,-14.011101242334536
0.5596835730349796,79.57993751286294,-14.290796234004938
0.5365258051830287,80.35620158453993,-13.802182239829053
0.5654613330768593,79.384954534451,-14.413120484387283
0.5950310652014877,78.3330232558459,-15.070889199657698
0.6034072387848177,78.02544320601761,-15.262365883536491
0.5950033887572214,78.33176008782038,-15.071515872303875
0.6129858097713556,77.66890520770013,-15.483965288569465
0.6074707256180638,77.87508923775943,-15.355929693360618
0.6073379680406462,77.88179729287131,-15.35180648237028
0.6318535172587737,76.95506776642245,-15.926266905116178
0.6312176140633394,76.97863115604552,-15.91170077056686
0.6200754681341529,77.40373828585291,-15.64847152515709
0.6192083373557956,77.43640674818784,-15.628200071514375
0.6199380762956039,77.40908592589327,-15.645136742618453
0.619345729194343,77.43058133149238,-15.631796466572048
0.583481221198937,78.74931707105381,-14.811133283013469
0.5607328305438062,79.54581892092993,-14.312293131382173
0.5579806613853286,79.6391242353049,-14.253637926161325
0.5708184065306032,79.19474412269402,-14.532356156885092
0.5715616249752644,79.16923694094328,-14.548380387290022
0.5723193073004798,79.14220274159887,-14.56525173026863
0.5700607242053873,79.22151749363341,-14.515580956729853
0.5972835726644135,78.2523166054967,-15.121246167704744
0.5976075558745566,78.24126374503447,-15.128107158692897
0.59036256964456,78.50075739835562,-14.966190275807026
0.6199785136824907,77.40634107059117,-15.646875281656195
0.60341171349777,78.02589286855114,-15.26211789703126
0.59036704435751,78.50067461090315,-14.966259826599075
0.5726078341200826,79.13558235962387,-14.569514636371183
0.5950129745684641,78.33160995096746,-15.071620444914226
0.5943981130924001,78.35489484040792,-15.057187458259854
0.5942375868913663,78.36133904190797,-15.053184216204215
0.6193426104870604,77.42898485813448,-15.63288712871899
0.5819357277816664,78.80458503743573,-14.776558329629031
0.5698556649616058,79.23190147748211,-14.509126950898459
0.6173920530180571,77.50504073597241,-15.585534265364373
0.6642881073699839,75.67262027831744,-16.715609511886086
0.6322701331131381,76.93749896071277,-15.936844998076465
0.6474312078643712,76.34206123511689,-16.30402030610716
0.6172543318104614,77.51041605037848,-15.582212619153143
0.6651592304734399,75.63879809359247,-16.736435114743408
0.6481646097602312,76.31742829767417,-16.319378454862086
0.632090286785357,76.94727595615407,-15.930872961766132
0.6481224846400443,76.31968656901046,-16.318111635497047
0.6321324119055426,76.9434642650589,-15.933121439935059
0.5684282864121409,79.28068802215667,-14.478551063742513
0.6057828670429829,77.94272911693686,-15.313910416835318
0.5779756573051411,78.94730068603523,-14.687375237322826
0.5887316218511841,78.56465871770476,-14.926383053387017
0.5976581285126755,78.23888867981638,-15.1294006161537
0.6175406646133705,77.50220128833817,-15.587432773593353
0.5976521485219495,78.23975697241274,-15.129008784797017
0.6259812209900092,77.17911076425145,-15.787498351238598
0.6114951498811806,77.72787552056218,-15.44726690349882
0.5705556935424766,79.20618064772916,-14.525193719012947
0.5207298083045742,80.86605640742012,-13.479952677262366
0.5592182333196806,79.596657047085,-14.28027352021822
0.5471045628929908,80.00592789466477,-14.022908588853554
0.5335396115398263,80.45555028245907,-13.739548536966815
0.5456532819665144,80.05335484058068,-13.992974143975092
0.6081776595644378,77.85178058563005,-15.370502724198857
0.6251056990306949,77.2134946452619,-15.76636434988294
0.5773599914747133,78.96542942326965,-14.67586177828191
0.582228626634337,78.79551306410598,-14.782304889384928
0.5961686993074077,78.29334682036169,-15.095682482882362
0.5708911664115403,79.19396194210468,-14.532919176034747
0.5941929942439738,78.36205307881306,-15.052680130763175
0.6202529561763799,77.39972492636511,-15.65111082186708
0.5645144132421593,79.41363433884315,-14.395075375645863
0.6873140042009435,74.72880897506606,-17.293082504886097
0.6748703879373237,75.24355027659516,-16.97858832294025
0.7145697560029152,73.56731034426272,-17.998808397094177
0.6627003115670845,75.73863467690518,-16.675260437259723
0.7042589309181839,74.01127110502917,-17.7297231472837
0.7196837566575062,73.34254837883427,-18.134898964562076
0.6740523388456049,75.27826170596953,-16.957411940462844
0.6917981771234355,74.53844335650571,-17.4090077032909
0.7256605487844147,73.08072784164602,-18.29316540966962
0.7023029564774709,74.09289297261452,-17.680231484876046
0.7032577134194063,74.05376200687061,-17.703971001426396
0.715258521652594,73.53762763844192,-18.016837037770966
0.7139486919237069,73.59238612748011,-17.983703299606283
0.7142050205624793,73.5815107984222,-17.990281928058003
0.715002193013833,73.54749717768081,-18.010922601637
0.7547022536712661,71.78415425847092,-19.07261230219143
0.7830405357258193,70.45691689283382,-19.864133581271894
0.7671060891884189,71.20270992235488,-19.41989277153039
0.7656717821709885,71.27120144059155,-19.379270623375586
0.7543287062106421,71.79538236816053,-19.066040022465124
0.7140738070353364,73.58823754071305,-17.986332389769057
0.7431145444828048,72.30220600690066,-18.7618846071228
0.742849674645565,72.31711953532184,-18.752992294831795
0.7488411767833244,72.04438844423194,-18.91681104795199
0.725975871120343,73.06829730412805,-18.30067289317587
0.7313982691066112,72.82068080235929,-18.449851584404836
0.7429446397458536,72.31232300566414,-18.756014474197535
0.7429147050100364,72.31446968111254,-18.754728276676556
0.7547456756549832,71.77307240326982,-19.07911990830421
0.7080032970206669,73.84173518482743,-17.832322071267146
0.7314857240216611,72.82380695270942,-18.448202773196588
0.7660548024831064,71.25229592550664,-19.390589213534096
0.7315083150712475,72.82317336139326,-18.44857794948488
0.7314133499709636,72.8241588012836,-18.447818901353365
0.6130606998751749,77.66877236327143,-15.48405626570612
0.6192043543811634,77.4386534023082,-15.626941633088938
0.6482005972246623,76.31511534905341,-16.32099954944224
0.6482555591144473,76.3167543967385,-16.320036628325802
0.6539121102947598,76.09024812183672,-16.459503634133938
0.6310747236963096,76.9855256955462,-15.907459905370688
0.636782924453995,76.7579867016804,-16.04789382226796
0.6482522659578236,76.31685832058106,-16.320118220180742
0.6600485253910526,75.84078179542651,-16.612546106168622
0.6482060957531441,76.3173125633942,-16.319808790665768
0.6130306523249337,77.66678878057944,-15.485082060296348
0.6367824923203173,76.76351580293031,-16.04467211579941
0.6368384827921981,76.76323963803532,-16.044853331361587
0.6719000660457534,75.36117575672986,-16.90666126614213
0.6249343623469497,77.21948035203431,-15.76266590646884
0.6368417759488231,76.76003762597975,-16.04669117255512
0.7033835404280617,74.05042211881687,-17.70593717248088
0.7195232878820809,73.33927058490825,-18.136843112220873
0.7197834994094285,73.33565142099688,-18.138889130969222
0.708745863919949,73.81678451313252,-17.84761977317047
0.6743304369108841,75.26662087237922,-16.96448466525338
0.6600815389136768,75.84803450513719,-16.608170645223748
0.667733648260569,75.5380235377936,-16.798484457269822
0.6899673905311287,74.61488161865755,-17.36251249444284
0.6918004660298636,74.53861236546088,-17.40893634912078
0.7020393858743663,74.10494246386995,-17.672904728019034
0.679556402267367,75.05056672959287,-17.096718653596884
0.6899601485667889,74.61524189123972,-17.362244956997706
0.6916356395749401,74.54590669745063,-17.404565765854784
0.6899445084458664,74.61575115786249,-17.361948114906287
0.6601003878393078,75.84660556745172,-16.609090595516847
0.6899372664815303,74.61436245399754,-17.36257164699601
0.6719002597608461,75.36830535955146,-16.902250256487346
0.7196786110249941,73.34371793786693,-18.134203282802787
0.7078807805625401,73.84807817076442,-17.82864726921955
0.7078715120402779,73.85611405814959,-17.823781326674407
0.7196155195085014,73.34128875036953,-18.135626419927902
0.6600554310359847,75.84434595446663,-16.61055454753202
0.5178155300986789,80.95944662873313,-13.420906862383534
0.48385970205144074,81.99960029806465,-12.760178091739824
0.533535966972234,80.45336897866726,-13.740826360789105
0.502171330331442,81.44501207393822,-13.11288349099707
0.5079086006766842,81.2699063612643,-13.224115156128283
0.5206415004528793,80.86649110154052,-13.479625818648206
0.5258890430940402,80.6985852950388,-13.585808100820744
0.9711345686185564,60.5833761225196,-25.546474685813124
0.9785024348769361,60.16659725091445,-25.778307120277105
0.023524602644946033,89.1370511456486,-8.11500643923974
0.8091323427917071,69.20263780731365,-20.606356948564574
0.7993145502426601,69.67870067834305,-20.32525430665179
0.8231435596313107,68.51045517591672,-21.01314625504265
0.8679181414242998,66.23864774305268,-22.336768787820013
0.8677285828096949,66.25072771471606,-22.329726673202334
0.856633898934128,66.82383773757655,-21.997314995080423
0.8565396493613473,66.82833286503019,-21.99468532792318
0.8564532046611413,66.83293970359057,-21.992193726639435
0.8567203436343348,66.82014297668883,-21.99969693760361
0.8297200956514741,68.18533560516079,-21.20382323232424
0.8025773284976117,69.51927721442676,-20.41908941462691
0.8468973198306186,67.32048902758012,-21.708788504121053
0.8270932255315849,68.31607782889944,-21.127219105182615
0.8296316786097365,68.18893704423527,-21.20193887944723
0.8565914801672216,66.82489737339331,-21.99689126609961
0.8096728902684658,69.17470269367479,-20.622611639458523
0.8353779361309188,67.90236372511633,-21.369377757686
0.8060437076982161,69.35247722944283,-20.518048720307
0.8286849364941093,68.23952461022952,-21.172122830456697
0.8278711426551613,68.27385419412504,-21.15194125327773
0.8417796104091394,67.58130988208055,-21.557044822462807
0.8181625836785916,68.758844394341,-20.86754185330068
0.8267649585458513,68.33241548337764,-21.117846036647293
0.699642374693939,74.20848010880876,-17.609788830871892
0.6925528848686779,74.5076649994041,-17.427678230275017
0.7076473874113925,73.86653327123385,-17.81740077197411
0.7200810505802364,73.32531612276658,-18.14514490042673
0.6895158497067077,74.63629869830977,-17.349437183306787
0.7077411465128913,73.85888829079586,-17.822099349840414
0.7093695538442892,73.78904700652937,-17.864337134897994
0.7616817341141571,71.45429479917568,-19.269780835408774
0.7160072937150221,73.5039446686126,-18.037021040248842
0.7327879741047557,72.76592622152239,-18.482772651792374
0.7457964558630923,72.18132474297433,-18.834296124129164
0.8392827109159623,67.70627570425633,-21.483924841868884
0.8073333181540907,69.28087442028024,-20.559963752292933
0.8554491266939258,66.88446401068165,-21.96233252642084
0.8317236968979396,68.08615105396352,-21.26194015530745
0.8331214508613156,68.01967893783176,-21.3012100507791
0.8204042602406963,68.64988056223338,-20.93165467794011
0.8444408875185607,67.44811734027445,-21.634692527839153
0.8088968093121135,69.2117079282791,-20.600770777146096
0.7848760877702841,70.37028641255668,-19.915466766796563
0.7853876813290948,70.34830756159764,-19.928191217303848
0.7840897660663442,70.40741228698829,-19.89354320753919
0.7985363969923897,69.71534081190434,-20.303555753476065
0.7723572870317373,70.9609046154194,-19.564472184839804
0.7723211279301282,70.96184489415526,-19.563901473003938
0.7484687255242665,72.06239255826254,-18.90596802532279
0.7485752744463706,72.0568804085617,-18.909250279927402
0.7603104763318784,71.51907536800853,-19.231254865668426
0.7606899967579448,71.50132499715913,-19.241840052906298
0.7605173849716659,71.50947690945083,-19.236942642805495
0.7604830881181661,71.51094300957746,-19.236080537559825
0.7971138097801848,69.7840155629394,-20.263121495131163
0.8160541905737004,68.86298124979199,-20.806147423548193
0.8270483344163512,68.31725377745425,-21.126590484574287
0.808948511589498,69.21130142936532,-20.601188610676886
0.8087960500153638,69.2193543182973,-20.59651159437882
0.8084656974684812,69.23459405838669,-20.58745996090031
0.8092788641363742,69.19530015376148,-20.610623670984133
0.7842997580109686,70.39704319773648,-19.899742851613336
0.7603437291005498,71.52176885627055,-19.229680161940294
0.8041791869974149,69.44003125210588,-20.466134153536434
0.7846322153661842,70.3807688810199,-19.90927165053485
0.7841069946698682,70.4067801196433,-19.893998902509924
0.7723923885479411,70.95971582568366,-19.565139702885414
0.796590693892207,69.80948109757668,-20.24801006194004
0.7845185481730667,70.3861643295526,-19.906180258018377
0.7842103237385036,70.40031751341017,-19.897744006805205
0.7849987270146704,70.36410889630099,-19.91937977177896
0.7604494733599455,71.51494870030304,-19.2337649217275
0.7974030558973952,69.77159398432246,-20.270499246758707
0.8055109438771673,69.37739210089451,-20.50310819077268
0.8263550670619031,68.35246685050907,-21.105863766561374
0.808482069420628,69.22696591076651,-20.59183944067275
0.85418100137247,66.94908539023791,-21.924757589203644
0.8303747841820243,68.15221424233702,-21.223204980299368
0.8179065962582529,68.77251930326004,-20.859409359954554
0.8293556615574107,68.20554256211925,-21.191759304746096
0.8418238494811869,67.57746124427264,-21.559126023046804
0.7582212645052698,71.61523341247589,-19.173730247073415
0.7832332990669212,70.44742502160854,-19.869815276927273
0.7987340252443654,69.70636336603329,-20.30889447488578
0.8073384435648927,69.28892784252696,-20.555326153585447
0.7948985995695997,69.89049725413999,-20.200130497882526
0.805231927088869,69.39269673299638,-20.49428632114009
0.7636100160218602,71.36543058217197,-19.322862062870538
0.7528737486502971,71.8611977788971,-19.026527328502574
0.770828825986894,71.03186176362286,-19.522226216284295
0.7369227043673958,72.58017920505539,-18.594749247498566
0.7621646924324732,71.43208630959651,-19.283136154257697
0.7158706614782816,73.51010475677698,-18.03338461873376
0.7407935591630523,72.40713643492829,-18.698793314029377
0.7369851156152872,72.57769115828987,-18.596267673073996
0.7276484451679788,72.99256699809288,-18.34616036463484
0.7501302296103649,71.98533510197998,-18.952224705548556
0.8062474498869823,69.34481011411394,-20.522516927429063
0.7844038917423038,70.39124605963602,-19.90318419561559
0.7538308873526836,71.81623690510779,-19.053471098822627
0.7673196899132906,71.19435938928643,-19.425282897667007
0.7960854559191229,69.8339551844677,-20.23362784358131
0.7732216915802048,70.91955239840837,-19.589134361981525
0.7611872287580935,71.4794330142276,-19.255175247903892
0.7995309978723539,69.66875000197713,-20.33109905919613
0.8088919589640583,69.21465143847236,-20.599135104167356
0.9807353569734284,60.02919763632938,-25.85438704258711
0.9511490843692186,61.72029071602709,-24.910619245569045
0.9887324396643827,59.58194010114788,-26.10339064866972
0.9719743072381973,60.536953836721196,-25.572915531062332
0.9795454435148426,60.099653849351036,-25.81540591154189
0.9273744257225865,63.04524339783918,-24.16366773711062
0.938491452849887,62.42685509064251,-24.513679547660214
0.9492701789609167,61.82760058011777,-24.851162510422753
0.9292301657844679,62.94542377506726,-24.220817410537666
0.9530095710027401,61.61523044585663,-24.969902162064773
0.9511242706319195,61.719988308808745,-24.911396895639314
0.971022025985581,60.59117516351275,-25.542943291077364
0.9928426559286846,59.331305223059125,-26.241525214674624
0.9815750955930677,59.98317885243288,-25.88058333385695
0.9696404291856465,60.67081145115737,-25.497940427321247
0.9860143977998784,59.73684236738208,-26.01741830095861
0.9398692363655089,62.35644217432236,-24.552912894743333
0.9757834202056002,60.31632136961639,-25.6948553758803
0.991652742470099,59.395680948869085,-26.20528880214752
0.9565187771790378,61.417860512843205,-25.08040421362144
0.9689016465220665,60.71121809259505,-25.47571086400168
0.988732439664385,59.57017827255596,-26.109416012124672
0.9692492682477336,60.69097590785291,-25.486739440901548
0.9492490782854852,61.827421465410836,-24.850562435810783
0.9033242908879358,64.35659666124482,-23.417691991662046
0.9352769108054885,62.606679033910765,-24.411815435335033
0.9205960906060311,63.414696862112855,-23.953801756540166
0.9497223921537794,61.80475769481939,-24.86345390571917
0.9062081895957681,64.20209873867097,-23.50595315570004
0.9243487105773203,63.21343619741912,-24.06864566766248
0.9239533031821554,63.23454250880206,-24.056590764360102
0.9361456320689457,62.560361054310505,-24.438047829131353
0.9357502246737815,62.58266462106911,-24.425373884702818
0.9720728152077905,60.532676025450186,-25.575033245841105
0.9800500898645693,60.075256715348615,-25.829029466970084
0.9481127089266842,61.89461805653258,-24.813149470890316
0.9712167411135011,60.58663855519369,-25.54529082403979
0.9492833590512402,61.822394527967724,-24.85321065354835
0.9728927457932595,60.488770534897604,-25.599561072649614
0.9686260761342913,60.73034434922795,-25.46475529779653
0.9343098229174721,62.6613587048043,-24.38088813910754
0.9589511632011752,61.28566794249695,-25.154663699211202
0.9901761114597346,59.48109498203378,-26.15894960055621
0.9931717418711926,59.31794688578713,-26.249276248038324
0.9665827237787744,60.83879426942612,-25.404591417183287
0.9444391878397803,62.108209252601775,-24.693368536465687
0.983347853330918,59.880203489130395,-25.938196636557137
0.9808459145258505,60.02596178400966,-25.856683123998575
0.9382439918613404,62.44047929357346,-24.505904044932816
0.8652107817559787,66.37946437685423,-22.254896426919338
0.8752233414321562,65.8564115721406,-22.55744997707127
0.8875350366478029,65.2061128608487,-22.931332144060384
0.8568271936854643,66.80708529276856,-22.00700368389486
0.8560619233518286,66.84771657660399,-21.983739333863163
0.8986632194248119,64.61272778571417,-23.27168203405833
0.8798578142646001,65.61170038523416,-22.69838548518473
0.8789031254406232,65.66528859532553,-22.66767428236014
0.8823351840249334,65.48074446081606,-22.773419311804943
0.8855049219205027,65.31331416350065,-22.869810256395155
0.8736516937804089,65.93914608900467,-22.50938967686397
0.8704819558848446,66.10381922975397,-22.414180100143554
0.8433660074494894,67.50023659178696,-21.604382405608543
0.8935722164827188,64.88114111771385,-23.117753434710217
0.9025880561866221,64.39909853664204,-23.393573466402795
0.8548698638059248,66.9126371353244,-21.946011240682243
0.8748914852439866,65.87280053542787,-22.54774998380366
0.8412967433827733,67.60425684663416,-21.543494319515005
0.8901715589097053,65.06352789424274,-23.013250983433263
0.8921552460190321,64.96288513622575,-23.071209156528795
0.8718241618117529,66.03473559733024,-22.454315900598957
0.9055088547069869,64.2446136993865,-23.48227834623594
0.8764782604474068,65.7922957958141,-22.59431826115546
0.8578459697610191,66.76159094434865,-22.033795609796346
0.8633034124985639,66.4808875086987,-22.196576944838014
0.8421880828982652,67.56098255106795,-21.568781668753385
0.850774927055877,67.12700754156457,-21.821920943814614
0.2971716970205309,86.45735701793997,-9.882089284289886
0.3373984619975097,85.67749468503537,-10.391111446359163
0.43542986517706866,83.35904289469988,-11.89056474213535
0.42313192566791435,83.68457956969465,-11.681247209759604
0.4231905890622885,83.68126424317023,-11.683370741503659
0.42168484603058864,83.72100019540466,-11.657834638864827
0.47585654725522725,82.23466518054161,-12.610404870146567
0.45874722426652037,82.7252133884994,-12.296926017875201
0.45825159891815553,82.7373163811557,-12.289160827658964
0.44111067909695245,83.21070047742403,-11.985848765003004
0.46396956314534976,82.57710225439723,-12.391706140370923
0.4586497632217356,82.7282718870913,-12.295036836960506
0.44629679946242085,83.06549928876068,-12.078911328235845
0.44723895719209567,83.04439106769553,-12.092560146868692
0.4350918956653206,83.3705188695703,-11.883212681683197
0.44733641823688464,83.03905052325682,-12.095910912593332
0.4701385830280335,82.39790427588557,-12.506079647330157
0.4578293074605036,82.75218606915683,-12.279728739719422
0.4230127888732975,83.68563669333365,-11.680500231715516
0.446381229441744,83.06774894618171,-12.077571053226873
0.5096847438145352,81.21274464379496,-13.260262387935166
0.3787903563829231,84.76997764707181,-10.980476975875971
0.3317381121185431,85.79195187585631,-10.31652517300348
0.36001440926059997,85.19421787743566,-10.705352479201958
0.36150416074018016,85.16212958113188,-10.726196454178654
0.34700517877608683,85.47614865203758,-10.52213389628119
0.34551542729650603,85.50796674460489,-10.501444606970871
0.38057500869035743,84.73146507287018,-11.00544661706913
0.4323028658796507,83.44366599060754,-11.836179779384263
0.3932430700774018,84.43129481940879,-11.199656381642999
0.3764119775409523,84.82567216513785,-10.944393360309121
0.39413169743979226,84.4096169464665,-11.213680787254104
0.39740610122680675,84.33177121869295,-11.263989393522385
0.4078108138128298,84.07395115594578,-11.430390545498106
0.42429375250827867,83.65489692327802,-11.700390628299758
0.37246969653318535,84.9168540168624,-10.885349257834031
0.4304060188095177,83.4934434476118,-11.80419742562778
0.4783890406968655,82.15940750114581,-12.658229181243833
0.44919331822879116,82.98823400785328,-12.128405385389328
0.44784940143709995,83.02493474791846,-12.104914162169587
0.46478525784442615,82.55247555478338,-12.407341163711706
0.46344134105273393,82.59014677436913,-12.383233286540918
0.3769644359292264,84.81329530204155,-10.952413415481306
0.3849492008032085,84.62833756506811,-11.07223063382969
0.3955547338190759,84.37547135265234,-11.23576705505729
0.40413994750204063,84.16392718856642,-11.372309512036455
0.42911005020141596,83.52702922698451,-11.782571783269221
0.41240505129098903,83.95654195532391,-11.506069047334815
0.41936937287852843,83.78077757631152,-11.619347963275967
0.436398430726841,83.33608042005466,-11.905328700140346
0.39335433393716857,84.4258590111996,-11.203102965155107
0.4516861334849098,82.92104422025162,-12.171544276850259
0.428041193100767,83.55588263003183,-11.764030379748402
0.47636233469378914,82.21840950717375,-12.620648998648681
0.4534769707772302,82.87118560791204,-12.203480707444855
0.4512747611630519,82.93194967632648,-12.164543425782021
0.43991173716467125,83.24301613279532,-11.965098524406372
0.46483999477561067,82.55150690369172,-12.408034716250352
0.4344217996114317,83.38189664441241,-11.875860171693697
0.40495356393614473,84.14405881110119,-11.385157067134104
0.41136686370750236,83.98298459349422,-11.489028125079491
0.4050687187536217,84.14112323775494,-11.387036168976953
0.38756552060859284,84.56635839729562,-11.11229372849712
0.3920679878602414,84.46050637542159,-11.180806927654281
0.39267603892389824,84.44557499159178,-11.190468547061782
0.36865059492757973,85.00523219621583,-10.828070486704194
0.3687065879612577,85.00401934174015,-10.828859881351066
0.38048472301734215,84.73342378080655,-11.004208078110661
0.3807885556251193,84.72559001207395,-11.009258689437285
0.38108029063320953,84.71820380184951,-11.014019922736983
0.3801929880092527,84.73994106619459,-10.999976588134349
0.4161817461560452,83.86420684023997,-11.565640469361481
0.44059103655646054,83.22379746571164,-11.977443907230338
0.44042046056937073,83.22916235032255,-11.974030937170841
0.42920860396527505,83.5259539386164,-11.783297021059427
0.42805229021995184,83.5566867735106,-11.763545374834099
0.42911125288243707,83.52822313408215,-11.781831869918253
0.42814964130278826,83.55331978625047,-11.765687565683548
0.4052287708725687,84.13984632664838,-11.387957170371813
0.4043356655820383,84.16193531075366,-11.373685302549196
0.4113713416356421,83.98421918161297,-11.48826189942842
0.38052559477856823,84.73332861569757,-11.004261071245258
0.3991023095837736,84.28754948443455,-11.292498602885287
0.3990978316556343,84.28669369554574,-11.293027092656288
0.42871604415605297,83.53642494633706,-11.776579463199003
0.40504242205860475,84.14158258174064,-11.386729819353814
0.4041354991655389,84.16412978985332,-11.372178343509864
0.40331269815180854,84.18544124848843,-11.358452185868993
0.3805815878122464,84.7331919581934,-11.00438393217815
0.4162746489023815,83.86074770205998,-11.567847550143036
0.4285454681689627,83.5427938750662,-11.772504643251352
0.38115811798343635,84.71508979126125,-11.016024735099728
0.3335819546794438,85.75484057349438,-10.340712974377562
0.3488490213369866,85.4377225343655,-10.547143250570148
0.3657157649015925,85.06831245047762,-10.78708472150626
0.2956117074997573,86.48851061577622,-9.861753355168865
0.3212564662098883,86.00207356497475,-10.179534894842634
0.27885754220797176,86.78180724896241,-9.669663285024786
0.28260411881519915,86.716621171501,-9.71236786779675
0.3206782415509225,86.01407184528796,-10.171733352421082
0.34135444462299297,85.59638257285337,-10.443940061005783
0.3099675286146027,86.22178399126729,-10.036144567209183
0.34624839103985533,85.49439103821257,-10.510343089137761
0.3223581753102189,85.98319437130877,-10.191914425234536
0.32239841124242824,85.98213752221359,-10.192597358007186
0.3345044416489025,85.73785719304597,-10.35182649870151
0.33397302028616715,85.74797601073745,-10.345212065129187
0.334204047116364,85.74403540299828,-10.347793929683636
0.33427341481870626,85.7428215175657,-10.348594045121162
0.3744259875975145,84.87532700294841,-10.912248241147013
0.3869315449855805,84.57940027737006,-11.103839916551198
0.3342747410035217,85.74469866242937,-10.347400498231606
0.3632250045202257,85.12526581174853,-10.750157113084434
0.35222016549874274,85.36717353270812,-10.593077307994617
0.36894335051673866,84.99832243370165,-10.832560440279037
0.34612061280966666,85.49767507841,-10.508198189559838
0.35115373802375804,85.38641265042247,-10.580508106865715
0.3637416467634569,85.1148363639545,-10.75694065243072
0.32806409073066717,85.86643427452871,-10.267970884466957
0.3626405139229794,85.14080159731728,-10.740124528855928
0.37511248781900475,84.8558833734977,-10.924840214958774
0.3399818829913142,85.62419308874209,-10.425803456677059
0.3512432642002099,85.38869226227027,-10.579086366648319
0.37525434350646747,84.85477208809579,-10.925610578141717
0.35231615877915357,85.3627986894943,-10.595875131189498
0.3870458335248356,84.57739866680788,-11.10515765499242
0.3636456534830451,85.11740135649815,-10.755316621089934
0.2328385821454564,87.49939975353631,-9.198286597435215
0.23214312196434692,87.5112284782951,-9.190481138306088
0.2394771243701514,87.40644250719016,-9.259482977435722
0.25655781162055724,87.14532840108032,-9.431122944901091
0.2565782387476447,87.14480391259085,-9.431460635804413
0.2735515953852339,86.87275929290837,-9.610046065327314
0.25107091695766953,87.23213046329997,-9.374101551965278
0.2565739942816131,87.14717362433753,-9.429935136980948
0.26212183214266993,87.05867203913682,-9.488035642599325
0.26802476679140447,86.96415398423167,-9.550100178438893
0.23372147289189096,87.48821713481281,-9.20565076810282
0.26800858413034817,86.96354009603256,-9.550479584854518
0.2617564174224415,87.06573536335135,-9.48340854190938
0.2907664429551664,86.57285355251989,-9.8065089143347
0.24498444616012516,87.32319424327181,-9.314207246025184
0.2618610079796147,87.0634219841682,-9.484887980397385
0.2918651308925304,86.55401380804189,-9.818844783631564
0.29866257775107113,86.43172163149657,-9.898895659106293
0.3392787344474788,85.6348308378018,-10.418915919669102
0.32262943807262423,85.97637291320792,-10.196357469010211
0.2797955665474538,86.76695430907102,-9.679388272166728
0.2920560184603335,86.55048364586906,-9.821166180878151
0.2856656294259545,86.66392864619883,-9.746893663384279
0.30958084294957294,86.22954258043454,-10.03107211269071
0.3097990086042068,86.22668691767151,-10.032965375478744
0.3154892129675788,86.11436945276081,-10.106239203617505
0.3156577329779749,86.11070769254316,-10.108629268033614
0.3031902048618975,86.34812119241141,-9.9535463802577
0.3033587248722938,86.34414113621192,-9.956136844221033
0.3090553129220809,86.23872005960521,-10.025062861607443
0.28002636292404404,86.76031805196182,-9.683711583354293
0.3091874117160643,86.23364386009165,-10.028345102932574
0.2912491371084728,86.56477202321834,-9.811805214584222
0.3395152579979713,85.63550077340567,-10.418488768597749
0.32776721231506317,85.8720756668282,-10.264362785732862
0.32757339291141424,85.8789251675118,-10.259881884816606
0.34056811309624574,85.6111329102446,-10.43434519104185
0.27951228001183115,86.77029539283639,-9.677190879154937
0.30623499635180046,86.29023775642828,-9.991366090988036
0.06730427081808626,89.01721276626284,-8.194637597095102
0.12437374581582958,88.68455906104886,-8.415379207614306
0.1082287270396943,88.79995098132338,-8.338864369547634
0.09644890454973555,88.87166615098647,-8.291273456362344
0.09543088901959848,88.87656066033217,-8.288023950152432
0.09402957589843933,88.88380657952465,-8.283212897112572
0.09635400162461721,88.87277462576138,-8.290539597679652
0.07674238068233455,88.97513121955649,-8.222582320585104
0.09645178211405743,88.87253688897552,-8.29069510144179
0.0784303874757547,88.96803315289807,-8.227296078539085
0.07201144415414887,88.99586913202695,-8.208812429102526
0.08296011176063203,88.94597668432941,-8.241945413903043
0.1111518390324897,88.78005461285288,-8.352059604911526
0.0707534010537514,89.00136477794408,-8.205163371940744
0.04824265963524753,89.08372050528925,-8.15045026618215
0.07561231412921506,88.9807469874184,-8.218854578064876
0.0816397264947712,88.95124940640727,-8.238442698462217
0.10969589639946663,88.7899655221701,-8.3454860862191
0.04759424973983471,89.08411368359023,-8.150187761745725
0.0773003209226353,88.97274672280105,-8.224165907928976
0.07703591104791535,88.97443386476964,-8.223047591758563
0.07836158092818855,88.96797713697842,-8.227336675022746
0.05010861796272756,89.07933477888699,-8.153365445084264
0.09683293785991492,88.8701043322692,-8.292312975796932
0.07312622709146362,88.99330940685579,-8.210514576392203
0.07372006333384545,88.99173197268901,-8.211564607946228
0.06188807798047103,89.04048072952766,-8.17918211471161
0.08495821244483812,88.93662699143033,-8.248155581466515
0.049060400624918885,89.07912216477767,-8.153505249262004
0.031125938062276697,89.12499329155193,-8.123019831610847
0.0174485794092885,89.14681201064164,-8.108517364911243
0.0621269071214207,89.03687491623938,-8.181574565079728
0.029805347631856084,89.12531182292481,-8.122807779769913
0.036529780762926393,89.1139699765461,-8.13034670275595
0.017112495077323858,89.14983203356861,-8.106510967744748
0.006249987054616213,89.15801946306337,-8.101067727932797
0.006249987054616214,89.15655653280872,-8.102040520322987
0.03775555122861866,89.11383788375348,-8.13043650106252
0.06368542585072239,89.03302630855507,-8.184133573591161
0.07058241638466899,89.00286171980026,-8.204169286814338
0.06400543779214202,89.03013126513223,-8.186055523400528
0.04953501124636211,89.08165203398619,-8.151825922935066
0.048962244591835326,89.08263282830508,-8.151173427385716
0.0503096864896343,89.07840934248186,-8.153980262695239
0.024826016351524264,89.13729820511107,-8.11484240457127
0.00790666181700144,89.15290775534571,-8.104465224001219
0.0551023570030661,89.06286922607673,-8.164306457513526
0.02814867286947084,89.13030225947372,-8.11949144110795
0.02239788380631666,89.1385215863918,-8.114028564166992
0.01848048992932441,89.14437399246539,-8.110138712836376
0.040379175744179006,89.10489030891206,-8.136381758044601
0.03011767319530422,89.12926523425018,-8.120181476277427
0.010424083098769191,89.15163461141807,-8.105312444283694
0.029603605030479783,89.12875369648907,-8.120521580099451
0.029679248271365803,89.12954499346873,-8.119995680505545
0.016674070153385394,89.14907113220261,-8.107016602264276
0.04260878314846017,89.09958075541437,-8.13991083896951
0.08071693550082906,88.95440077331803,-8.236346455769898
0.05254902900503492,89.07045360191658,-8.159265283693673
0.1011640038292882,88.84206526913754,-8.310913277282438
0.0857121342301134,88.9308402817882,-8.251994160181093
0.07834682097605096,88.96784198307898,-8.227425065587742
0.09450987229879862,88.88367363503603,-8.283305745815339
0.06954908290736572,89.00751237508952,-8.201079845931492
0.02874341022851651,89.13045381870741,-8.119391559902855
0.061113410050249055,89.04466067062596,-8.176406999648776
0.06671663244435051,89.01964711334944,-8.193019157288632
0.031882853273210075,89.12496824112536,-8.123037865882141
0.015791904646903266,89.15036636665332,-8.106155047094791
0.02802240752161147,89.13290599425609,-8.117761422312054
0.05291296971210699,89.06817519395021,-8.160779687295545
0.0063455264221998426,89.15555968604532,-8.102703286694267
0.07898220131589477,88.96418569392507,-8.229854526144496
0.08013815246279198,88.95835401334331,-8.233726471831828
0.052992125379296894,89.06767131166609,-8.161115530153298
0.00987950246781111,89.15382399486019,-8.103856845577166
0.04254464477041365,89.1002198411404,-8.139486608942809
0.016225028890010946,89.14871512483583,-8.107253470965656
0.08170206866023448,88.95242442367052,-8.237665144299557
0.03323312044367469,89.1203249216953,-8.126123384889388
0.020303585566580285,89.14277641357037,-8.111200737084966
0.304150328040123,86.33089191073037,-9.964821917985114
0.286079660058022,86.65608582416023,-9.75200725681759
0.31046901934969623,86.2115469765795,-10.042807756164496
0.32067824155092284,86.01471561268369,-10.171328620925511
0.28144533464560023,86.73695755667315,-9.699042536439569
0.33287188410758944,85.77001023446402,-10.330863472420244
0.262478049071917,87.05289560114058,-9.491828342589347
0.23883803359723021,87.41377578875182,-9.254625691560747
0.2868363860850124,86.64283920114255,-9.76069787436741
0.26330642299396795,87.03897305010584,-9.500962847844598
0.26235375047636206,87.05427129747925,-9.490915295510998
0.25069879096159603,87.23773849384769,-9.37040355593696
0.27496138250873403,86.84770993374448,-9.626462627797316
0.23300983204262815,87.49821414226145,-9.199075947327605
0.21553500304859066,87.73763525928413,-9.04136577903605
0.20099291405433042,87.92325328039914,-8.91893858631554
0.24459479061039657,87.32726004911338,-9.311548600037233
0.20900716683479112,87.82217534940767,-8.985615982697864
0.20645779386501362,87.85317325112499,-8.965149656350539
0.18388730228189198,88.12373230421885,-8.786560147181119
0.20172515079319475,87.91275068245108,-8.92586840358908
0.20266625199828245,87.90271743242641,-8.932499150948573
0.17663473332863866,88.20157794006168,-8.735084775194244
0.17765042172996737,88.19226987706699,-8.741257582790658
0.1828984063487876,88.13556754652652,-8.77873542500848
0.19599893058804,87.9838013419652,-8.878976344407914
0.19623973707828796,87.98049304970196,-8.881160750437903
0.18313921283903586,88.13177745079835,-8.781235944644381
0.22762082577264234,87.57496952748328,-9.148544243399515
0.25057487066675976,87.23945420119861,-9.36929285319751
0.2509704859290282,87.2337819872325,-9.373019451898681
0.23976079929643376,87.39979882173503,-9.263833070848548
0.23948158313700832,87.40480034317082,-9.260546192540305
0.23961340292455605,87.40212094614824,-9.262305898608192
0.23962897950888576,87.40145122476927,-9.26274092511442
0.21524485815455324,87.74285826888638,-9.037928163661082
0.21500934680472794,87.74603697967339,-9.035831447534976
0.22151495424042836,87.65671390436023,-9.09467984585217
0.1943378307354693,88.00104838291931,-8.867566366233568
0.20835426348586641,87.82981955297738,-8.980569021469185
0.22086205089150399,87.66494359603729,-9.089255816940792
0.23869987081577118,87.41599246269048,-9.253193638850728
0.2079890003995559,87.83339227557002,-8.978229127316627
0.21475934311595585,87.7460779018357,-9.035791485290925
0.21577647295198635,87.73369867977073,-9.043953023487859
0.21120592155677126,87.79108745948011,-9.006104641930527
0.18919734218842946,88.0626617442526,-8.826898429322513
0.22685327922603046,87.58343384528818,-9.142965809250358
0.2381947856461741,87.42366735434274,-9.248141692870032
0.19117829944016318,88.03868743433452,-8.842708438300319
0.15066085525671807,88.46428764118671,-8.561311858195175
0.1740827441183237,88.23011076323527,-8.716235948598497
0.1631495878337058,88.34320185266954,-8.64144883938287
0.18856312529916977,88.07042186645108,-8.821764141794798
0.1529297903416785,88.44239092120176,-8.57580526437622
0.17384478652214974,88.23316639514653,-8.714218976972463
0.16542608940661835,88.31999225188598,-8.656797438280618
0.16362498903012251,88.33904597721485,-8.64419886006322
0.17564588689864566,88.21270158145639,-8.727741313754377
0.22847171646133344,87.56245440962113,-9.156779361809937
0.24375224678533602,87.34216329900981,-9.301755144784416
0.224475611361258,87.61783760400583,-9.120304907390832
0.1907816176747646,88.04430629869017,-8.839015191216523
0.21502358929135046,87.7453351443611,-9.036291371223651
0.23520378361734298,87.4685332621232,-9.218627601925432
0.19639956206083287,87.97748088903286,-8.883128658010065
0.20146699519952457,87.91805300028258,-8.922377574292144
0.19032177901619315,88.05010754903076,-8.835186876349729
0.24145538624138058,87.37618256912874,-9.279367296500103
0.28841760230990665,86.61310748476085,-9.78011888415691
0.2602720249600394,87.08690216414112,-9.46947572447612
0.2590600006648304,87.10599266455031,-9.456942687518943
0.2744608732173052,86.8557307776341,-9.621191548135211
0.2732488489220961,86.87529762237035,-9.608341577319171
0.19563190890327478,87.98777614381122,-8.87635883533019
0.18686373184357782,88.0880730394215,-8.810094491794679
0.23883770692121825,87.4122175290941,-9.255649441633484
0.24340825831643365,87.34653382150677,-9.298860090816545
0.23034036533433472,87.53710896003517,-9.173471213487806
0.22124378366687428,87.66277571571374,-9.090687891031848
0.24682141804604407,87.29672906445914,-9.331629685043847
0.21486153003349792,87.74442459397373,-9.03687502656922
0.20015793917551994,87.93210683864017,-8.91308884258913
0.1179885137806564,88.72841526890267,-8.386296236448219
0.13612568332133473,88.59016686496884,-8.477938565198142
0.13337664010876787,88.60987600302319,-8.464876156634773
0.10865557357766036,88.798182142174,-8.34003795796759
0.14559782028980175,88.50804104978474,-8.53233651272013
0.12248990035597643,88.69831005406392,-8.4062577042334
0.12259724542481143,88.6970542607288,-8.407099061890037
0.11276108164308825,88.76651941798113,-8.3610299249098
0.11425285199691494,88.75560901807653,-8.368264462259669
0.12629346115228052,88.66810873692923,-8.426281039255432
0.1208379939438677,88.71138497859836,-8.397600782317038
0.10131437781598256,88.84076596746301,-8.311778536618894
0.14094853281919303,88.54809987536123,-8.505796209658413
0.1512781694157304,88.45543672380737,-8.567160440014723
0.11014381603138998,88.7851530162891,-8.348674529943871
0.12164514937035947,88.70322825400727,-8.402995966903825
0.10009216243638863,88.84794613907026,-8.307014159163172
0.14085787800548044,88.54812227943329,-8.505780812593242
0.14040983420850586,88.55395683811709,-8.501927580779
0.13371252516181956,88.61208935820726,-8.463419972176931
0.15163546325916458,88.45417118388116,-8.5680059536981
0.14006285648792968,88.55655197740097,-8.500210869217865
0.10722342653907681,88.8041852221352,-8.336050812086365
0.09701526444162084,88.8682912973331,-8.293516189752497
0.095491818152368,88.87769951378347,-8.287272568327886
0.49997836246555266,81.51260153539756,-13.069951926772232
0.48173521056147,82.06532678524066,-12.718239228648148
0.5295304238805544,80.57780766699415,-13.662212105977229
0.4998475153691099,81.51447873259742,-13.068655283626168
0.5178244739780192,80.95065259336371,-13.42635662039064
0.4695010070440334,82.42159931368387,-12.490977546775772
0.49329753206194893,81.71582828782738,-12.940744761912619
0.5088533821046411,81.24025570860965,-13.242920478916858
0.4752229174606817,82.25334860594108,-12.59843875786673
0.4825186372562416,82.03918194022407,-12.73491491223251
0.5004880763236484,81.49836397037816,-13.079062916626748
0.5174929983913906,80.96728107442433,-13.415870081318118
0.46950552769146114,82.41846331793629,-12.493005372800551
0.5007218734189038,81.49068559071966,-13.08391179776096
0.9494887073509973,61.814112444073075,-24.858484684880818
0.9931717418711926,59.3207667963514,-26.247802138396118
0.9669500714545325,60.82361982898169,-25.41267601557894
0.010167380931608462,89.1528150902067,-8.104527236999985
0.009879502467811104,89.15555573606444,-8.10270581217139
0.029615109893319235,89.12862105937852,-8.120610276313158
0.03696820568686483,89.1133291090595,-8.130772426320451
0.03193980139860373,89.12382488545137,-8.123796744562522
0.01042408309876919,89.15334751843722,-8.104173816652363
0.07815416004732527,88.97017907251778,-8.225877054044187
0.06451575491801181,89.02781264188913,-8.187597937812166
0.9467925619254329,61.95354144323945,-24.779913652682065
0.9928426559286859,59.338529619287314,-26.23774860828884
