0.006249987054616213,53.351922257918616,-24.968936855893535
0.2622264226998428,52.00313128452377,-25.318686048547004
0.7428272500949898,42.84391975693058,-27.463615452227078
0.6899944958974087,44.23882470866298,-27.163773247569576
0.1664931995095728,52.80636181738905,-25.111413719329153
0.4577448774811744,49.2768578915996,-25.999732725392924
0.5418022602805879,47.66991693631859,-26.384575616623582
0.6367769937918372,45.55708280740389,-26.871368117774487
0.36255098774652483,50.783847046330834,-25.627602070786022
0.9931717418711853,35.06528909270156,-28.94608577582934
0.7847616159144581,41.667375278275024,-27.70866301554821
0.5950083403073327,46.52372470923575,-26.65134653073104
0.30998362429298604,51.468874983955644,-25.45489165322852
0.9697528874560128,35.862547227630756,-28.80950043413043
0.9699446551599618,35.85526711399433,-28.81056019646126
0.9240832596950744,37.380187457659275,-28.539137915889334
0.7851438089249952,41.65635536597833,-27.7108456682971
0.8303105154780053,40.331164961117246,-27.97827444288097
0.40502993861081604,50.151046981336066,-25.78516184547792
0.12778523150610724,53.029928757708795,-25.053190315693286
0.21961342648364046,52.4038935543433,-25.215643364182206
0.4699790809986178,49.057615333260586,-26.05299018736943
0.44680352089939684,49.46582884158479,-25.953665202995378
0.4347908678465905,49.66835656949883,-25.904102200457213
0.5650396618387457,47.182997319222146,-26.498731080505276
0.5529691848299237,47.43920857565293,-26.438796938621707
0.529818359018304,47.914066557843256,-26.326918261355722
0.7553875031011897,42.49748321309445,-27.536550825590517
0.731685563494436,43.143974150313866,-27.39997728855678
0.7198179061906222,43.4577348622018,-27.332959495319972
0.7079429249660896,43.763439337367636,-27.267084484097612
0.6899851440665135,44.231251334223714,-27.16529440766808
0.6719384971837534,44.69987824719001,-27.062472308067534
0.7672625066774672,42.17123207979844,-27.60455721167684
0.7968123527045291,41.31895693279914,-27.779855413836838
0.8018199097657168,41.17354345671579,-27.809279203653873
0.9843383931201246,35.369247091276385,-28.89470112813117
0.9889050722122211,35.21065430852018,-28.92128905942157
0.9817477281409058,35.457415083942664,-28.879405661154575
0.9928426559286894,35.07360241847861,-28.94466062577788
0.8471469835078291,39.82200722125669,-28.07852968476248
0.8309269753646774,40.3110343969704,-27.982214651745583
0.8131044935154655,40.842009391764556,-27.876202075658252
0.903144160900434,38.06259326230336,-28.41370910576349
0.9408095165967599,36.83295662980001,-28.638524538705393
0.9374671741925168,36.94087128559739,-28.618708006667
0.8005956727052107,41.20968574500661,-27.802037939412383
0.7843328338077369,41.6803106120282,-27.705861675814017
0.766314380711105,42.195276194084975,-27.59959127241859
0.19872387377390074,52.57535762510525,-25.17133051617939
0.21525379578512144,52.43988862141496,-25.206347347819474
0.2333360618081925,52.280887534803206,-25.247354988104632
0.14961452589641133,52.911000609349045,-25.084187698337118
0.17137571561612194,52.775097942955895,-25.11954159221269
0.18344139417871239,52.689060442925474,-25.14186513552156
0.12027319241071893,53.06682213930218,-25.04356226391232
0.12110634395750051,53.0642666913841,-25.044233239053632
0.10336352791393952,53.140998377368575,-25.024181787409688
0.23131180962833375,52.302861560116746,-25.241702858876867
0.22114463301818413,52.389875733112646,-25.219270836732242
0.1948839043521145,52.60787708969411,-25.16292121729012
0.5769146505138619,46.92966931875819,-26.557586982134282
0.5949987544960912,46.522666101170365,-26.65149981054162
0.6130264501974756,46.1081991391787,-26.746493455565354
0.48800222993020753,48.72720418063341,-26.132785255044567
0.4790457454689996,48.89236048568706,-26.09292403886449
0.5216631853398952,48.07878220031493,-26.287910190683363
0.3868295353613386,50.43252885888972,-25.71530706626302
0.40494108048835487,50.1505310890057,-25.785257386593837
0.42291586799560243,49.85990379329087,-25.857025738746234
0.5312068290106857,47.88649238071075,-26.33344385361562
0.48939938645675574,48.69981377729242,-26.139324748091237
0.5016744979387935,48.46753808169889,-26.195100767079303
0.37495453551035085,50.60634016071686,-25.67201241542107
0.35182775479745726,50.93125952100595,-25.59062163140408
0.33982043636035897,51.0914699440556,-25.550322025982464
0.6600634861568909,44.992440825400465,-26.9977331108274
0.6482065278868177,45.28364665042362,-26.9327416613269
0.624901453773755,45.83678033043531,-26.80820752750573
0.7160367146078712,43.56275407094665,-27.310401507053566
0.6686288323876136,44.78245639714245,-27.044224723329783
0.6919630035783558,44.190613948424335,-27.17433120241038
0.6130635012934792,46.11011368403183,-26.746087258502985
0.5950264309403558,46.52328007922568,-26.651415226757315
0.5770558371948277,46.92605311422319,-26.5584582124937
0.24384150510903851,52.18803135215325,-25.271235331008437
0.2676081446654179,51.94810709129486,-25.332779338427926
0.2789668981659266,51.82630324647469,-25.3639226385688
0.28962962660511593,51.70793566455402,-25.394122151064188
0.3062349963518006,51.51428108907602,-25.443374964542578
0.3161516636610031,51.3939197919393,-25.473908130941293
0.42318534260550356,49.858706183856626,-25.857333872842773
0.40505623530583224,50.14940831784524,-25.785531127270183
0.3870950706867105,50.42867169584322,-25.716264899076783
0.2919226828699712,51.68314634035134,-25.400421175334547
0.3099823977256425,51.46736180672308,-25.45524851136187
0.3279454327840802,51.241835353374654,-25.51237565296399
0.5123427595501591,48.26189001308282,-26.24429406187712
0.5000328563996141,48.49874176639423,-26.187636236021667
0.050380991055339414,53.3011674073536,-24.982249158645097
0.6451923409321821,45.356057565947694,-26.916569307262034
0.5511421581871312,47.477012833545196,-26.42994906539245
0.6452970418868806,45.353584016802905,-26.917099975454335
0.6563217908975754,45.08632756735227,-26.97690327209898
0.7380864664868908,42.97146594476124,-27.43666471830923
0.9211011125429132,37.48159983234143,-28.5209563201489
0.9316968933870404,37.136267835818956,-28.583971537783388
0.9064225198706948,37.95874808014767,-28.43312262573512
0.48769999017209864,48.73261878492645,-26.131497555205218
0.4518403349551897,49.378590155260845,-25.974965901063115
0.3583246553482303,50.842000632053974,-25.613025561841344
0.3575530727075033,50.852381708206494,-25.610432972707883
0.2746592312849322,51.87350450311901,-25.351874464519092
0.3269463229230513,51.258124643675735,-25.508261013976124
0.1606506024379944,52.84388701613516,-25.101655871047797
0.2619180978033032,52.006021489074044,-25.317956252944075
0.16913561020175383,52.78931986014485,-25.115842339359162
0.10262146134602296,53.143329551635325,-25.023572381099168
0.158848810940981,52.85601755272989,-25.098505358024184
0.5000098933226386,48.49937403448267,-26.187473362824594
0.5708429890819795,47.05728099931455,-26.52805109033112
0.5180082798013468,48.149665097651884,-26.270920995964502
0.5652052566217451,47.17920755508364,-26.49963446170483
0.5181366856690317,48.14789925045054,-26.27140087062668
0.05962938079378835,53.281704880267704,-24.987351804337436
0.8846511379399676,38.65442488667221,-28.30281366742676
0.8923862730871119,38.40859793793908,-28.34940009429887
0.937320003926145,36.94948159486288,-28.617489431678898
0.8804466002468152,38.788158394169756,-28.27773291146742
0.13410782146209868,52.9973865005784,-25.061682994849246
0.14113939614755283,52.960412687897474,-25.07131967243861
0.18410454376991991,52.68603878024557,-25.142658644551084
0.1913838159911364,52.63351372693008,-25.156281084682195
0.11098803606196554,53.11122043310167,-25.031969118502833
0.5499785265095047,47.50060998608935,-26.424410854228245
0.614178830772229,46.08799244260437,-26.751122757930727
0.6249079208777125,45.83369671422139,-26.80889918792291
0.6082450572052712,46.224921670741324,-26.719930447374182
0.582698044368013,46.798642185554684,-26.588023918350306
0.5950230378401982,46.52465304060294,-26.65121318997838
0.5944427057397922,46.5370512069271,-26.64832785382667
0.5943347122921555,46.53982627766351,-26.647635196461497
0.6035129065293621,46.3325431392179,-26.695253629835225
0.6451197275736839,45.35694577161829,-26.916352566707666
0.5834673973145442,46.782934189060434,-26.591625405982736
0.5968623403722173,46.48505932421457,-26.660283332375496
0.5469025520132194,47.56446242541263,-26.409386459219718
0.6134951999748188,46.104453441790156,-26.74739684273001
0.5956764757777503,46.50974405272976,-26.65458596907398
0.7268295327377043,43.27534342330185,-27.372014125545647
0.7604723079554988,42.354474497445075,-27.566535552175257
0.6249709148953554,45.83435501284713,-26.80874611842048
0.665760038461151,44.85128448266125,-27.029113598900338
0.6249066244766888,45.83754712750254,-26.807968628819438
0.6899580612060421,44.23567232505022,-27.164440185945534
0.6719109821896063,44.69377576447829,-27.063774934535896
0.7137512427350627,43.621762524450546,-27.29774369464825
0.9684505157270643,35.906670164614674,-28.801684768723685
0.8403347256982303,40.030318122821654,-28.037656763470473
0.8112798070279044,40.89564484373141,-27.865448248534282
0.8532445471722976,39.63520378738029,-28.11501245436238
0.7911736356623725,41.478404276892526,-27.74733492476434
0.7790091131672376,41.829367479259226,-27.675293860522284
0.8277039797778146,40.40942283533456,-27.96272193577601
0.7548353491460313,42.513723007637076,-27.533140772274724
0.7723782432492594,42.01992235501332,-27.636087050453057
0.7968296356091139,41.318759925166916,-27.780003063631618
0.7652885467908251,42.22038185237685,-27.594367923410196
0.7851922950184735,41.654063413788926,-27.711442267937294
0.7824941264895754,41.73177458095404,-27.695536558615604
0.7813691316030296,41.76374283717672,-27.688836617460616
0.784903255757024,41.662472243194664,-27.70978981531127
0.7844871091084641,41.67427715375587,-27.70728357227801
0.9605669184479209,36.173676633575724,-28.755303485961903
0.9832418675738156,35.402083828501105,-28.888897763953818
0.9736885704545359,35.72989462139686,-28.832455338693187
0.9795767759962793,35.528011686941895,-28.86705477020686
0.967311198083948,35.942557000301385,-28.795368991488644
0.9213422513012945,37.47375403467863,-28.522372085297576
0.9911666512489307,35.13499681262958,-28.93448877060328
0.9931717418711972,35.06154184118834,-28.946871527553572
0.9574270601106757,36.280371965720946,-28.73649777210145
0.8494651366807388,39.75128195689363,-28.092287951256186
0.9029319644650686,38.07034781623299,-28.412478589105646
0.8776511563264352,38.87518830682443,-28.2610409442982
0.42924817014433414,49.762940003162036,-25.880913837717205
0.48205881690501573,48.83575222362818,-26.106609896720833
0.4349410119467796,49.6664323418898,-25.904544668747164
0.3560721282528322,50.87217751080096,-25.60546523101297
0.40869944117522083,50.09334988562763,-25.79943678260951
0.4165070578455918,49.96931503122705,-25.830067957089934
0.4530189827490552,49.3587020114208,-25.979802708211132
0.41078415919556227,50.060899016842065,-25.80748830750671
0.43257276620657875,49.7065212995471,-25.894732154556692
0.45309730750653376,49.35714622308354,-25.980200089000153
0.38582564083884424,50.44551706335344,-25.712084936908777
0.3755823739436998,50.59813690756906,-25.67405039806652
0.39236417120483386,50.347436065388585,-25.73649458138461
0.41734609501265874,49.95672648375654,-25.8332103488371
0.4049797118779495,50.15272494811392,-25.78477730556439
0.4033171464883117,50.178156109304496,-25.77845974618506
0.41343202848448496,50.01811541613463,-25.818028926935618
0.3964994590403043,50.28382004028404,-25.752286635130236
0.32836675643920904,51.2408790726278,-25.512627988144278
0.3458365167449581,51.0125424989236,-25.570204891018616
0.38083083381551563,50.51993683797661,-25.693575238390615
0.24418452258301876,52.18142428631348,-25.272936778384366
0.28545573073164754,51.755710504121964,-25.381953194075415
0.24529908281835314,52.171158326780834,-25.275582060651228
0.31001152949577665,51.46880076479949,-25.45490786881432
0.2801357004528644,51.81404798728507,-25.367059293338478
0.3345346180276959,51.16157539253151,-25.532657660673028
0.057932912769452366,53.28484514189418,-24.98652861746934
0.08742322989473447,53.20175593654388,-25.00828995209475
0.11060871616959951,53.11292062773584,-25.03152516946254
0.035105553344909925,53.32684914196707,-24.975514649593954
0.02171547234160162,53.34081221599522,-24.971852117471183
0.07549634161624182,53.24038927873133,-24.99817565374184
0.012595513476816056,53.350535262549414,-24.969301032242388
0.06465384768755485,53.270667410049846,-24.99024464810264
0.02946926329989141,53.3354662816273,-24.973253897087286
0.025525048353910448,53.34049452220821,-24.971935512918876
0.044113356147918295,53.31524405377804,-24.978558911814623
0.016512907353808306,53.34836361980649,-24.9698709270017
0.05776192810036994,53.2859801279351,-24.986231450423844
0.029154563767105342,53.33609940196259,-24.9730884950541
0.29227443316826346,51.67722292659425,-25.40193575089587
0.2630506829115833,51.99456320178156,-25.320890737686213
0.1969967713063403,52.58817842426969,-25.168009341448446
0.20329831841635562,52.54043687501403,-25.180376290646784
0.2281670067089147,52.32964595242227,-25.234800307072785
0.2158322641085918,52.437250010902034,-25.2070427261326
0.21567428603444494,52.43749298963451,-25.206975239016018
0.22289038951390766,52.37641056912945,-25.22271591544413
0.20671644277793091,52.511523371426996,-25.187833288773962
0.17207765034192465,52.7703619464377,-25.12077063255305
0.21013660502210502,52.484559144947795,-25.194814491651577
0.21091901726943194,52.478343931283206,-25.196423051233065
0.26368518468964997,51.98861348978085,-25.322413057309742
0.20667989128452577,52.51096242888095,-25.18798619798692
0.2257698139391199,52.350077607470645,-25.229523799903724
0.10020080494000781,53.15417177382081,-25.020739969584508
0.12394584298899951,53.05033054221143,-25.04786600607057
0.48195049508781773,48.836678963167984,-26.10633882830217
0.6874799239198796,44.30649415338342,-27.149060050430265
0.5124217080234279,48.26042718819042,-26.244652200311155
0.5370578459476677,47.76718006037082,-26.361668662556777
0.5356397360572608,47.796257986199535,-26.35481058274544
0.5242057825928358,48.02691556418046,-26.300170166255725
0.5246493752578079,48.01814984933192,-26.302261851923486
0.5248898408388314,48.01309231127917,-26.30344659870186
0.5239653170118103,48.03146296052891,-26.299085496529816
0.5001820412226862,48.49615290947,-26.18827033114899
0.4762102134368321,48.946653606255964,-26.079883112022934
0.5253270111059389,48.003435138447635,-26.305747861912
0.500165044600566,48.496480307833636,-26.188173995240817
0.5006788736153374,48.48705855538049,-26.190455120389185
0.4876849122187977,48.73382740220464,-26.131219288748113
0.5131590059971046,48.245702414319034,-26.24814714948747
0.938143570184119,36.92249950792153,-28.62216789195833
0.9356894570142867,37.003566178438994,-28.607563379282723
0.30247335135936704,51.55900136660516,-25.432003831796408
0.32940169901167005,51.22814423384054,-25.515849164526266
0.33734038204466016,51.123948526415106,-25.542124423708447
0.19878379713150435,52.5756457888796,-25.171262683231394
0.19031569612988652,52.639803091114665,-25.154641608516567
0.6991307899742223,44.00645134447622,-27.214432956515996
0.6842510765260089,44.38700369230757,-27.131223977794395
0.6886339266638191,44.275689457816185,-27.15563076025247
0.6651417963514158,44.868417250335696,-27.025258930930296
0.6621390392850566,44.94314334889569,-27.008763263493535
0.6450521562038197,45.35911806006476,-26.915857092054004
0.6202228190378782,45.94826887120952,-26.78287853947824
0.6702272564516721,44.741274345459914,-27.05334854625589
0.6451169405940332,45.358358860499145,-26.91607835256828
0.6450203119598404,45.36034799727439,-26.915589595102315
0.6319155087591708,45.67362910853891,-26.8451203373539
0.6582217437947043,45.03969294641363,-26.987286909468313
0.5754375183371871,46.95914254763591,-26.55074396789109
0.5246311736637173,48.017410599829745,-26.302372345594602
0.5430350095366447,47.643175057516785,-26.390788499995164
0.5614817856845192,47.259142652233706,-26.480946494993574
0.5764849940533596,46.936856541389936,-26.55590074808852
0.5281995033077959,47.9464102338229,-26.319234567392648
0.5625292614006936,47.23614519013571,-26.48628378615456
0.563691466729378,47.21107328974689,-26.492183643008424
0.548813020225581,47.52483469952611,-26.418699847946503
0.5476508148968955,47.548204599555476,-26.413193524675634
0.6200850978302841,45.95138877111524,-26.7821911713927
0.6693561333482245,44.763222058145594,-27.04846219377459
0.6322981156498272,45.66513353589609,-26.847034242650412
0.6452651976429014,45.355020515957854,-26.916794475084348
0.644628424381236,45.36921558372574,-26.913558941211466
0.6575955063743101,45.05570271515126,-26.983682502153176
0.6558929620585185,45.09716310988308,-26.97449719582593
0.6776318470905986,44.55412900598072,-27.0947241069733
0.682125410796621,44.441188436930666,-27.11944637951512
0.6681881009985421,44.79270463077027,-27.04201344871246
0.667715716065318,44.80385901712682,-27.03954647703699
0.6657839189242077,44.85136680721814,-27.0290386164498
0.6701198981396519,44.74418531794777,-27.05275388598409
0.6934228818726421,44.15426610949321,-27.18226501160124
0.6899674130369392,44.23718760648813,-27.16414391659865
0.6935826581861674,44.15000584075591,-27.183214802973545
0.6800631120254005,44.49620337262787,-27.107451373780926
0.6681968019244354,44.79420645773448,-27.041762856534127
0.7149545515131607,43.58979684397505,-27.304596019767295
0.6934521565560582,44.154855580786986,-27.182188416618747
0.4917675685167967,48.65703448197348,-26.149663700014937
0.5097804079161744,48.31007349452815,-26.23273341156893
0.4731733790047568,48.99985806594532,-26.066947508255215
0.48157807786276285,48.84693480130749,-26.103948735773955
0.8087220200055175,40.970285179243284,-27.850492949432628
0.8498777225599035,39.74021759559603,-28.094311111380442
0.8206497813648352,40.62257647082553,-27.920310284528156
0.8323387972488924,40.2758095100902,-27.98895273255395
0.736889400272126,43.003164847122264,-27.42991400991232
0.7605328408253631,42.3521119595733,-27.566928015152836
0.715031981527999,43.58936737836322,-27.30461663713143
0.738289723510389,42.965933596804206,-27.43784729146826
0.7369518115200174,43.00148855232498,-27.430265331688105
0.7484650739079847,42.687215708973454,-27.49672286661685
0.7267764611224307,43.27630853100431,-27.37180267051343
0.7375466719226466,42.986298872693695,-27.43352836612277
0.7600498825070441,42.36561080663205,-27.564083312022074
0.7151686137647405,43.58597156098697,-27.30528128406019
0.7433259243056983,42.82809780228584,-27.466942964402758
0.7428941877776131,42.83976788950043,-27.464457050522757
0.731949294154475,43.13716803418052,-27.401349362397184
0.7315175576263898,43.149160368700194,-27.398796498608142
0.8281008823484451,40.39876735322247,-27.964971641307617
0.8075732687389764,41.0038540646436,-27.8436638660452
0.8511458478813575,39.699840144360365,-28.102202747985757
0.8206827389035495,40.62113730030153,-27.920621636410416
0.8347556738368926,40.19904176705791,-28.004464608923577
0.8336398801090623,40.2336298049545,-27.99772519141501
0.8217985326313687,40.58547661629275,-27.927705407461
0.9175686275991792,37.598260419114595,-28.49964680778989
0.9491888288524722,36.55578934595968,-28.68765006860988
0.9022456548552749,38.093888849966426,-28.40807996633893
0.9266287311751473,37.30210925108818,-28.55385826851602
0.9192597603830742,37.543877778601576,-28.50976662312423
0.9383654032337713,36.91522377271343,-28.623702313303024
0.9149874228324624,37.68280730695607,-28.484253495118526
0.9764066123190431,35.633073564164285,-28.8490870498026
0.9496621427207674,36.54001356742351,-28.69053912686068
0.8993617561474418,38.18624504764973,-28.39084221200776
0.9362009565815866,36.99141843224102,-28.609849954430146
0.9104123913407444,37.83087492410516,-28.457018378861143
0.930005760603151,37.19339957156303,-28.573458920826692
0.9215803858151377,37.46718580358996,-28.523506099712478
0.8723979592763768,39.043389247950046,-28.229100192635602
0.8385694026947018,40.080810903702634,-28.027649981333827
0.8759886117657917,38.927541912207104,-28.251179535757466
0.890360418803582,38.4743638996893,-28.33681398594027
0.888119229861188,38.54601272634351,-28.323525982882238
0.9094289791467153,37.86288047618027,-28.450983901400388
0.8787812339420547,38.84147775429179,-28.267545130026086
0.887301983255238,38.57138336125373,-28.318640295229446
0.8983526184485441,38.21895033908612,-28.38501591540986
0.48824840579761697,48.721963675148515,-26.13404349588206
0.46460759765916276,49.155341907416386,-26.02931422866397
0.46419104112600085,49.162469415547314,-26.027579235796832
0.4758130060622189,48.95182088757236,-26.07859143462613
0.4767260658794361,48.93513639199711,-26.08262826345986
0.4768733320336867,48.932405008904176,-26.083273223907916
0.47566573990796907,48.954711762493936,-26.07789433820838
0.42642828489446843,49.8064581020595,-25.870142665254765
0.4761161551010911,48.94646750949089,-26.07987009577532
0.44237958290555196,49.54101730404136,-25.93527360661124
0.45880362974820776,49.25641110974142,-26.004692475512282
0.45755772472440964,49.27827148027158,-25.99937934599219
0.4436254879293511,49.51886166135595,-25.94066275403558
0.3828612620511283,50.48813951214371,-25.701457235631672
0.3361333538507958,51.14043943632473,-25.53796452634421
0.36741890896928575,50.712620286645844,-25.645415891427415
0.368684017115999,50.694639672288865,-25.64991425399078
0.35436867272274525,50.89563622659268,-25.59955070474292
0.3531035645760325,50.91318301008518,-25.595154640802726
0.3570507401766065,50.85969123948044,-25.60859810222628
0.38049350045061636,50.52352820855067,-25.69264079147408
0.3342895112898958,51.16431154041476,-25.53194341634599
0.35811209765891555,50.84481926228789,-25.61233072555184
0.3566664694703844,50.864909228942146,-25.60728871796373
0.368614052263126,50.69691982129657,-25.649369930104772
0.3461645148661734,51.00803922472435,-25.571329711078214
0.4287931106032188,49.76790253202598,-25.879639497752137
0.4781428611041679,48.9087791697549,-26.08893784324593
0.46319516146003575,49.17947150998443,-26.023419510557314
0.44599031363810154,49.47951450449788,-25.95033015330313
0.2736293952855586,51.8841526285454,-25.349146933225217
0.2972354237024749,51.62150103006489,-25.416137671078936
0.2987089888924886,51.60404316668484,-25.42057703511246
0.28678757417479295,51.73945713128718,-25.386078844522135
0.2853776994974794,51.755154953427486,-25.382073181672336
0.2853312883560612,51.75610584268606,-25.381836430582883
0.28683398531621035,51.73912091381449,-25.386168780007218
0.31130839153070977,51.45341873304707,-25.458825447277206
0.310012756063119,51.46915404071276,-25.454823602059708
0.31130839153071,51.453705328695435,-25.458751901359882
0.31046901934969523,51.46315272613564,-25.45634652731327
0.3339615131686791,51.16830224593277,-25.53096306214675
0.286534234861211,51.74322367261571,-25.38512535416517
0.31812684237956973,51.36877160546259,-25.480268153815604
0.30142568796873115,51.57012941448993,-25.429166719653903
0.0651355043452615,53.26951275919585,-24.99054691160675
0.053708607133635025,53.294648756297704,-24.98395812716801
0.09992289813697991,53.155077742237644,-25.020500982793923
0.08529313220136156,53.208112345945686,-25.006626330111406
0.07028965900721397,53.25448073520307,-24.994485425052222
0.006345526422199843,53.35056469494085,-24.969293383372296
0.01016738093160846,53.3523481652348,-24.968825254400386
0.05595812328383603,53.2910836553807,-24.984893846016668
0.05126819609132764,53.30047731255298,-24.982430666134977
0.09559183216760668,53.17256400355861,-25.015930178402186
0.06898515789721042,53.258717501437985,-24.99337573873442
0.07014110904410763,53.25517573569324,-24.994303254769846
0.16772172920605416,52.79881217904968,-25.113377595237118
0.19017317965279792,52.640759015373696,-25.154391953995923
0.13938282025875318,52.97153778024036,-25.068425869152712
0.16588146443019167,52.81141676325387,-25.11010394390977
0.1671243990472619,52.80230764783698,-25.112467899966582
0.17771131627584696,52.73106459301021,-25.130975842267098
0.15529454720160663,52.877849825185685,-25.0928227500601
0.2385314406931989,52.23482777597951,-25.259198761344717
0.286159693098189,51.74612232491607,-25.384369813509082
0.27099093971037885,51.91308978486624,-25.34175574964926
0.25387814590493085,52.08816710080748,-25.296896092422962
0.23591408804904834,52.25834275125391,-25.253146249915975
0.2845784768732954,51.764715811705244,-25.37964475960868
0.2512607932607805,52.11286803340248,-25.290544712377923
0.2501330968299765,52.1241602679484,-25.287648992932574
0.2656646744105306,51.96663038011395,-25.328031132802895
0.26679237084133445,51.95562288558622,-25.330854860463752
0.1927883537937914,52.620433467794165,-25.159651619630804
0.14165175534371363,52.956902257806654,-25.072236415264857
0.16853828004296165,52.793611001776775,-25.114729475671865
0.17064170092021516,52.779915693101444,-25.118289894636145
0.15743960955063646,52.865392348012186,-25.096067662495656
0.18174037141253988,52.70327591507198,-25.138188117977275
0.14590011909604067,52.93300762786863,-25.078460818174527
0.11849843811963416,53.07569404605336,-25.041246834791508
0.11439704810010659,53.095133582491044,-25.036169894939388
0.12698895585464695,53.03505459420513,-25.05185361070852
0.12124748133220085,53.06356707173886,-25.044414272759184
0.15081097635335955,52.90528019083785,-25.08568483063452
0.10725597136101882,53.12710245036406,-25.02782009450923
0.11986215256533776,53.07019982018598,-25.04268391609546
0.14642905567978906,52.93175308012021,-25.07879410118147
0.5004880725983585,48.49066750904905,-26.189580053102507
0.5236458659181378,48.03677140360012,-26.297858196762775
0.4763637346725987,48.94365647268049,-26.080576106907664
0.4998790462261965,48.50151121064958,-26.186952658183735
0.5007218696936144,48.486147954857806,-26.190668609844685
0.5119714468726912,48.26835681692917,-26.24274512857571
0.4886294690471227,48.71541956906113,-26.13562142557022
0.49544632145057926,48.5859604956514,-26.166683651521637
0.5300690045313867,47.90910525871065,-26.32809142604614
0.5144518056330365,48.21976201908059,-26.254289095183147
0.4963675357112009,48.56927298367488,-26.1707326999355
0.564844173505044,47.189405632808715,-26.497215323638954
0.5769722435018765,46.9219714952725,-26.559333649502804
0.5758072808175628,46.949560580850225,-26.55298348476639
0.5791396583107936,46.877687402036706,-26.569701026303257
0.5242421861296311,48.02726767035018,-26.300119296620117
0.5532471361896745,47.431632501824126,-26.44058146514236
0.5421203430291067,47.66359969558843,-26.386121815380694
0.5589633512445719,47.31156169605207,-26.468741529737684
0.5361052091723114,47.78745823742913,-26.356893174998344
0.5415243089208391,47.673333883689054,-26.383758146766496
0.5536107525037799,47.42491082784445,-26.442167879564973
0.5530221286556435,47.437741309583366,-26.439208451527183
0.5299392372379069,47.91135236375204,-26.32751324207512
0.5651267740270834,47.17896239642382,-26.49961797843584
0.5415772527465627,47.67492688115597,-26.383453056784187
0.5300768520232086,47.90936465201075,-26.328039932282053
0.5421974863406094,47.660404715049175,-26.38682238971453
0.5770077511476536,46.92243275380703,-26.55931717845163
0.5535336091922775,47.42639017760584,-26.441868808124184
0.5000802271910503,48.49785218006788,-26.18784624696498
0.5183215941782848,48.14126203429993,-26.27298006230128
0.4707348359179446,49.04596240401977,-26.055813424411216
0.5002124153920001,48.49423969702342,-26.188655475209718
0.4822569054913466,48.835367914895016,-26.106692670688634
0.5304422284956828,47.899679224714795,-26.330314603821012
0.470269293839926,49.0524884875751,-26.054248285129052
0.8903077734616381,38.47709991482331,-28.336553434763402
0.913707960896654,37.72418555568708,-28.476564323432253
0.9330563129916093,37.088364671134435,-28.592421388407306
0.9046713434765097,38.015787659815565,-28.422606275943885
0.9030495414388311,38.06897686833336,-28.412770860220938
0.9034981215579067,38.054314399865035,-28.41541871092568
0.904222763357433,38.030688212046236,-28.419809031351548
0.9231946463713605,37.41462601386281,-28.533126813938207
0.891785998374977,38.42852348375939,-28.345624077678185
0.9526432238021257,36.43853988458393,-28.708314287428482
0.924154620108289,37.382287766184625,-28.53895211997636
0.9267963856667654,37.29369453100274,-28.555091877109916
0.9487045094251337,36.56890001596181,-28.685423348250403
0.924490234938664,37.37000859749676,-28.541320097362092
0.8995393631312946,38.17940897743721,-28.392212808611752
0.9154192252738943,37.66483728490917,-28.4871905888544
0.9152170348544695,37.67397504348293,-28.485686878641367
0.9538493096223906,36.397719247234804,-28.715812202634034
0.911824433520686,37.78355546513993,-28.465555149565102
0.9233310538503098,37.409215844915934,-28.534242344607797
0.9272033609103433,37.28095533846498,-28.557558000968807
0.8791332308307226,38.83149501483475,-28.26963469353523
0.892570874867714,38.40400137555974,-28.35004563875563
0.8462397280538088,39.848220540247674,-28.07322944855913
0.8867941688480719,38.58732412673194,-28.315648497035568
0.8808241676273705,38.77535037812705,-28.279918034262586
0.8744464042985393,38.976775158762926,-28.241694557866722
0.8684764030778367,39.16174588324187,-28.206175787734526
0.8602036312335148,39.42147673148196,-28.156280596747706
0.8387105153031458,40.077555181321245,-28.028359868032485
0.904894635022348,38.00640793479038,-28.42417828299438
0.8790793173977108,38.83201204648487,-28.26941896871542
0.8852660902304681,38.63547263409304,-28.306521512092736
0.8735193829901233,39.00557560306226,-28.236164220268854
0.8536424056899347,39.62203581563328,-28.11742722539447
0.9039346612854268,38.03731530112744,-28.41842927668768
0.31900763989006103,51.35895295605633,-25.48276325947191
0.13271299379485615,53.00703558374573,-25.05916898180789
0.15540956834476083,52.87764587957147,-25.09287888536076
0.17223964779340176,52.7684133281325,-25.121271879550033
0.15846137914091948,52.85865039914161,-25.09781984796994
0.14401564331712585,52.94441224009103,-25.075490616110265
0.14353333430148799,52.94694774328994,-25.074829752906115
0.14328557728565297,52.94742438912262,-25.07470117797372
0.17261259872305557,52.766181225227555,-25.12185442127422
0.14333680427202514,52.94830788538481,-25.074476329082874
0.188094341115679,52.65596753537944,-25.150452509408666
0.17003560141992505,52.782926146762335,-25.117501620342345
0.16371044507015875,52.82481630881244,-25.106617721422086
0.19606581204745066,52.59785281098838,-25.165515761774127
0.16486538371105766,52.81589547816089,-25.10892900629945
0.15426100278844476,52.88469088286237,-25.09104411679266
0.16504568797323163,52.815710632593536,-25.1089811586725
0.1507961085949557,52.9047776360651,-25.085812686241166
0.1786549878373386,52.725428230616956,-25.132440239993866
0.14054769035019826,52.963574591149104,-25.07049517759032
0.16799622928195265,52.79720155112761,-25.113796032624283
0.1653382608686741,52.814194127930556,-25.109378577403206
0.12010372689068254,53.070140149208946,-25.042701437094028
0.15181684857228775,52.89823090156659,-25.087517922089663
0.10343327217469316,53.141135304430755,-25.02414740780086
0.11437080297057982,53.09506102300778,-25.03618818606539
0.13028708564784766,53.017622671537,-25.05639931877126
0.11850698872197758,53.07540197466625,-25.041320869854502
0.12615089989645,53.038875885491215,-25.050855975512675
0.12399442592346356,53.05031606918806,-25.04787149648602
0.09476377532063733,53.175705698784036,-25.01510611266879
0.1528872308463171,52.89279707059027,-25.088932657454595
0.09494239566857203,53.17423250655899,-25.015491363861507
0.1439018099568226,52.945340259404425,-25.07525085623026
0.12471746759476084,53.04680370631492,-25.04878926708084
0.10964375104747659,53.11576852439018,-25.030777990238793
0.15922109400847945,52.85345755814574,-25.099169685756213
0.6772199223668851,44.56720616545464,-27.09181079465387
0.6994752534601978,43.9977864862401,-27.216329837506574
0.6697974269885325,44.75375601454666,-27.05073016379185
0.5463204160123417,47.5765157007889,-26.406566180828996
0.57160316925865,47.04112889068418,-26.531728574559803
0.5242981379486501,48.02528142784536,-26.300557138542647
0.5496869513258912,47.50669459940196,-26.423000816650635
0.5465224268921137,47.57234943711052,-26.40754079262497
0.5596835730349796,47.296205799268016,-26.47230827295034
0.5365258051830287,47.77846165689512,-26.35900444419882
0.5654613330768593,47.175308096730554,-26.50051028565596
0.5950310652014877,46.52430988977372,-26.651276916968985
0.6034072387848177,46.3344358688495,-26.69482277297805
0.5950033887572214,46.52361924549107,-26.65135474333039
0.6129858097713556,46.11453383954611,-26.745076292731902
0.6074707256180638,46.2416402782942,-26.71608661657554
0.6073379680406462,46.24575374090685,-26.7151691351671
0.6318535172587737,45.67499361824139,-26.84483313242585
0.6312176140633394,45.689483179850065,-26.84156166902156
0.6200754681341529,45.95114920039526,-26.782261348656842
0.6192083373557956,45.97128014857766,-26.777677491066992
0.6199380762956039,45.95445359608335,-26.78150087874745
0.619345729194343,45.96770051216871,-26.778483108543497
0.583481221198937,46.78162687615373,-26.591960863279887
0.5607328305438062,47.2749964034482,-26.477302275783117
0.5579806613853286,47.332919343024116,-26.463730854875934
0.5708184065306032,47.05742585098683,-26.52796020118584
0.5715616249752644,47.04159789874519,-26.531663332536887
0.5723193073004798,47.02488575890508,-26.535517024281166
0.5700607242053873,47.07401421142564,-26.52410147388318
0.5972835726644135,46.47442651380892,-26.66277473707163
0.5976075558745566,46.467614640218656,-26.664326879849824
0.59036256964456,46.62800962155901,-26.627353116449225
0.6199785136824907,45.95274285743941,-26.781908508182063
0.60341171349777,46.334696176405345,-26.694778998531632
0.59036704435751,46.62794868273376,-26.627376136790726
0.5726078341200826,47.02071919171809,-26.536543781180793
0.5950129745684641,46.52352013516962,-26.651383094077335
0.5943981130924001,46.53785950873325,-26.648126071237765
0.5942375868913663,46.54183326343714,-26.64721883757162
0.6193426104870604,45.96666283422275,-26.778770155987754
0.5819357277816664,46.81583938223225,-26.584028944126004
0.5698556649616058,47.08041889710827,-26.522637488219843
0.6173920530180571,46.0136139168846,-26.767999290414203
0.6642881073699839,44.88806543648894,-27.020768065846166
0.6322701331131381,45.664331919215144,-26.847097297716502
0.6474312078643712,45.29861573857118,-26.92920875268307
0.6172543318104614,46.01691953046753,-26.767252809451065
0.6651592304734399,44.86730747456083,-27.025413528903933
0.6481646097602312,45.283400346716796,-26.93271026245035
0.632090286785357,45.67030762508124,-26.84578432245684
0.6481224846400443,45.284723630454074,-26.932476305214227
0.6321324119055426,45.6680186576436,-26.846247176173467
0.5684282864121409,47.110649276555975,-26.51560109981856
0.6057828670429829,46.28334689861938,-26.70656555394631
0.5779756573051411,46.90412669309632,-26.563610220838502
0.5887316218511841,46.667472235449125,-26.618289175251803
0.5976581285126755,46.46624792589761,-26.664547482407713
0.6175406646133705,46.01179153702628,-26.768483034697024
0.5976521485219495,46.466703621453505,-26.66451773310153
0.6259812209900092,45.812917776070975,-26.813555634239492
0.6114951498811806,46.150929123534326,-26.736735603518717
0.5705556935424766,47.06451139468852,-26.52631287196554
0.5207298083045742,48.095995054655944,-26.283747282196867
0.5592182333196806,47.306590418038944,-26.46986954233181
0.5471045628929908,47.56070589244172,-26.410289634875806
0.5335396115398263,47.840242818607315,-26.344438711885438
0.5456532819665144,47.59021780221266,-26.403315112550526
0.6081776595644378,46.22721654483105,-26.719426290877927
0.6251056990306949,45.83399899249767,-26.808857514069988
0.5773599914747133,46.915445045640844,-26.56090052599417
0.582228626634337,46.810184891054966,-26.58537519292926
0.5961686993074077,46.49976640808949,-26.656952595123858
0.5708911664115403,47.05689933193281,-26.528119262364033
0.5941929942439738,46.54230730541304,-26.64708001966266
0.6202529561763799,45.94859736555689,-26.782917242552788
0.5645144132421593,47.193122601748016,-26.49632760846784
0.6873140042009435,44.31063379849468,-27.148125788554246
0.6748703879373237,44.62533091634261,-27.078945975866862
0.7145697560029152,43.602362140321695,-27.301831839353298
0.6627003115670845,44.92842565732462,-27.01188829497632
0.7042589309181839,43.87277863470614,-27.243486135813928
0.7196837566575062,43.46552588387847,-27.331285572761693
0.6740523388456049,44.646538373283065,-27.07430023704001
0.6917981771234355,44.19443095896223,-27.173476010138163
0.7256605487844147,43.30624424744635,-27.365435998853854
0.7023029564774709,43.92250752485849,-27.23274495577433
0.7032577134194063,43.898661362687434,-27.237902096751892
0.715258521652594,43.58426920501183,-27.305754282872638
0.7139486919237069,43.61759737402693,-27.298591689568077
0.7142050205624793,43.61097871975077,-27.300013069573488
0.715002193013833,43.59024947191339,-27.304498766464363
0.7547022536712661,42.51932527931898,-27.531954773297947
0.7830405357258193,41.716441674615425,-27.69859503617121
0.7671060891884189,42.167380605197266,-27.605273049937225
0.7656717821709885,42.20872308628358,-27.596805999242182
0.7543287062106421,42.526071575307164,-27.530617688943668
0.7140738070353364,43.615018167715355,-27.29920614258571
0.7431145444828048,42.833443337163466,-27.46584515356638
0.742849674645565,42.84246722841187,-27.463971708980164
0.7488411767833244,42.67699852028669,-27.498917645118535
0.725975871120343,43.29868199415189,-27.367053890899868
0.7313982691066112,43.14825949416186,-27.399050133527595
0.7429446397458536,42.83949410576638,-27.464672513550244
0.7429147050100364,42.840794082653076,-27.464399742520165
0.7547456756549832,42.51266549632455,-27.533286008043394
0.7080032970206669,43.7695891082768,-27.26566895193648
0.7314857240216611,43.15005875883635,-27.39878678556688
0.7660548024831064,42.19726971968465,-27.5992062223638
0.7315083150712475,43.14967714037116,-27.398864634825095
0.7314133499709636,43.15034677514427,-27.39863794543547
0.6130606998751749,46.114446106507636,-26.74510021564644
0.6192043543811634,45.97259176028184,-26.777447003840535
0.6482005972246623,45.2818814883997,-26.933150027814573
0.6482555591144473,45.282865958019634,-26.932952431131078
0.6539121102947598,45.14385215618932,-26.96405954053985
0.6310747236963096,45.6937109412243,-26.840617820530603
0.636782924453995,45.55389333718394,-26.872072687636482
0.6482522659578236,45.28285404196642,-26.93302915908276
0.6600485253910526,44.99102868439666,-26.997973050530035
0.6482060957531441,45.28314741274135,-26.932948362146565
0.6130306523249337,46.11333510044675,-26.74524933594388
0.6367824923203173,45.55719400326288,-26.8714260131328
0.6368384827921981,45.557018922916406,-26.87147116698808
0.6719000660457534,44.6972779714685,-27.063099924622545
0.6249343623469497,45.837677200556065,-26.808027945291315
0.6368417759488231,45.55512152049436,-26.871828421470706
0.7033835404280617,43.89665400409825,-27.238305569218245
0.7195232878820809,43.46354934021841,-27.33168929388465
0.7197834994094285,43.461409845660675,-27.332074819338057
0.708745863919949,43.75431194616436,-27.26905540752602
0.6743304369108841,44.6394410139477,-27.075840038633203
0.6600815389136768,44.99543355301552,-26.99703233118396
0.667733648260569,44.805457469661505,-27.039253840294332
0.6899673905311287,44.24106553196091,-27.16332889199264
0.6918004660298636,44.1945189727611,-27.173472981493905
0.7020393858743663,43.929855301613856,-27.23114882643649
0.679556402267367,44.50724233892234,-27.105018111835523
0.6899601485667889,44.241308254631775,-27.16325156048393
0.6916356395749401,44.19893861444215,-27.172544718330435
0.6899445084458664,44.24161294624806,-27.163191726585648
0.6601003878393078,44.994536355894006,-26.99725369910555
0.6899372664815303,44.24087041052255,-27.163240687880656
0.6719002597608461,44.7016595677827,-27.062108830818133
0.7196786110249941,43.46622996464864,-27.331139716592393
0.7078807805625401,43.773379319840956,-27.264938326496768
0.7078715120402779,43.778267446817225,-27.26388586414989
0.7196155195085014,43.46477665762536,-27.331427799751477
0.6600554310359847,44.993117915033885,-26.997607354806945
0.5178155300986789,48.15416910951177,-26.269948973647
0.48385970205144074,48.80403521524042,-26.114256502491905
0.533535966972234,47.83894427966558,-26.344696949353803
0.502171330331442,48.4572763297786,-26.197540404201003
0.5079086006766842,48.34787635015025,-26.223749692421773
0.5206415004528793,48.096296129607985,-26.28365055316047
0.5258890430940402,47.991687374426974,-26.308475616771847
0.9711345686185564,35.81417522577552,-28.817673145563827
0.9785024348769361,35.56732371529382,-28.8603040212158
0.023524602644946033,53.34075736900447,-24.971866415385243
0.8091323427917071,40.95996329577625,-27.852631843477113
0.7993145502426601,41.24685379668352,-27.794526753657987
0.8231435596313107,40.54354570834165,-27.935973610290283
0.8679181414242998,39.18079599160054,-28.20277684801084
0.8677285828096949,39.18804719641854,-28.20135443973934
0.856633898934128,39.531318302261916,-28.13492508363156
0.8565396493613473,39.5340190376312,-28.13439094765782
0.8564532046611413,39.536718313630395,-28.133962517954078
0.8567203436343348,39.52902849974162,-28.135492175680234
0.8297200956514741,40.34809138954959,-27.974889213023463
0.8025773284976117,41.15089062046734,-27.813807923331513
0.8468973198306186,39.828952586857106,-28.077087749907506
0.8270932255315849,40.426663154270194,-27.959283995115285
0.8296316786097365,40.35017853081036,-27.97459111036982
0.8565914801672216,39.53188794763545,-28.134913726710618
0.8096728902684658,40.943217470638864,-27.85589800893534
0.8353779361309188,40.1781166473911,-28.008523128276988
0.8060437076982161,41.05020077295176,-27.834442082905266
0.8286849364941093,40.38063824869385,-27.968450879009296
0.8278711426551613,40.40129766252053,-27.96431274728675
0.8417796104091394,39.985327779985546,-28.04658490340002
0.8181625836785916,40.692844298587865,-27.90628449869717
0.8267649585458513,40.43641364911434,-27.957449214307196
0.699642374693939,43.993083940857964,-27.217321914427732
0.6925528848686779,44.17567519413591,-27.177531165865012
0.7076473874113925,43.78464072795833,-27.26247866744947
0.7200810505802364,43.45511799400078,-27.333429458542437
0.6895158497067077,44.25415203061528,-27.160457743500235
0.7077411465128913,43.77995958469398,-27.2635214076435
0.7093695538442892,43.73746431672256,-27.272642181083764
0.7616817341141571,42.31960481391576,-27.573638763786665
0.7160072937150221,43.56385019725059,-27.310043226292684
0.7327879741047557,43.11502820644928,-27.406084525700287
0.7457964558630923,42.760189096561305,-27.481214670477808
0.8392827109159623,40.06038903822556,-28.031728867552694
0.8073333181540907,41.00718782973481,-27.842965166081648
0.8554491266939258,39.5675763394061,-28.128002594075845
0.8317236968979396,40.28847993654829,-27.98673164703364
0.8331214508613156,40.24842315263236,-27.994853884532983
0.8204042602406963,40.627263537239216,-27.91944962443159
0.8444408875185607,39.90541868085534,-28.062253526169666
0.8088968093121135,40.96551182814777,-27.851389981247458
0.7848760877702841,41.664166321716316,-27.709275723052098
0.7853876813290948,41.65101874161593,-27.71180820917351
0.7840897660663442,41.68654057143653,-27.704743430486197
0.7985363969923897,41.26895740790976,-27.790017801694738
0.7723572870317373,42.020958523211014,-27.635854132561516
0.7723211279301282,42.021527228396536,-27.63573205898568
0.7484687255242665,42.68793133145819,-27.49659382917175
0.7485752744463706,42.68459919009441,-27.49728309081837
0.7603104763318784,42.35874689485126,-27.565569620545734
0.7606899967579448,42.34800889718348,-27.56779812144018
0.7605173849716659,42.352954830150615,-27.566753069259363
0.7604830881181661,42.353837248779456,-27.56657616332938
0.7971138097801848,41.31030207444911,-27.781704547397837
0.8160541905737004,40.75556418125379,-27.893630886884207
0.8270483344163512,40.4273483055623,-27.959179134029462
0.808948511589498,40.96520683304622,-27.85154183099498
0.8087960500153638,40.97003155034576,-27.85060482525765
0.8084656974684812,40.97923497588284,-27.848713342099487
0.8092788641363742,40.95556871033165,-27.853486936057458
0.7842997580109686,41.68026267899824,-27.706054248570346
0.7603437291005498,42.36036137511957,-27.565250604023344
0.8041791869974149,41.10304081689753,-27.823629012332415
0.7846322153661842,41.67048625726887,-27.70799293780974
0.7841069946698682,41.686127081013865,-27.70486932946424
0.7723923885479411,42.020254548926204,-27.635978913220764
0.796590693892207,41.32567309060521,-27.77855359252556
0.7845185481730667,41.67370146070444,-27.70739043070577
0.7842103237385036,41.68226143417692,-27.705615520995114
0.7849987270146704,41.6603425177769,-27.710186520657956
0.7604494733599455,42.356229901725406,-27.56611721640985
0.7974030558973952,41.302797274343085,-27.783247174507537
0.8055109438771673,41.06529640949526,-27.831266867089763
0.8263550670619031,40.448543255190316,-27.95491986716403
0.808482069420628,40.9746840860181,-27.849570450641426
0.85418100137247,39.60631766022379,-28.12045583078979
0.8303747841820243,40.32819295437489,-27.978829445479512
0.8179065962582529,40.701104366807186,-27.904581929921648
0.8293556615574107,40.36031528076752,-27.97234545547996
0.8418238494811869,39.98307872516852,-28.04694155677441
0.7582212645052698,42.41698709729195,-27.553390000137675
0.7832332990669212,41.710692824703344,-27.699799074213576
0.7987340252443654,41.26353741885791,-27.79113466613196
0.8073384435648927,41.01199148326907,-27.84205308558495
0.7948985995695997,41.37451214733844,-27.76864033293803
0.805231927088869,41.07444116057073,-27.829525213389974
0.7636100160218602,42.265808844787855,-27.584848540903597
0.7528737486502971,42.56598912547419,-27.5221976552535
0.770828825986894,42.06385384023965,-27.626987351556966
0.7369227043673958,43.00216207607058,-27.430127736109146
0.7621646924324732,42.306125363070535,-27.57649319348163
0.7158706614782816,43.567562178757306,-27.309291289999887
0.7407935591630523,42.89713520077006,-27.452361471428933
0.7369851156152872,43.000642385754205,-27.430461160591136
0.7276484451679788,43.25274073004389,-27.376756308155652
0.7501302296103649,42.64119495799119,-27.506449525559848
0.8062474498869823,41.04560380145012,-27.835341648491234
0.7844038917423038,41.6767633749584,-27.706772060208067
0.7538308873526836,42.53873936935477,-27.527920566149632
0.7673196899132906,42.16216278782327,-27.60656515408769
0.7960854559191229,41.34039791544761,-27.77560610776197
0.7732216915802048,41.99594463860432,-27.64104618346982
0.7611872287580935,42.33465251509468,-27.57071340194299
0.7995309978723539,41.24087448699665,-27.795721492351188
0.8088919589640583,40.967254054578184,-27.85108750633426
0.9807353569734284,35.48596711310677,-28.874154567890162
0.9511490843692186,36.48848455562731,-28.69943897536428
0.9887324396643827,35.22102215896857,-28.920025371166112
0.9719743072381973,35.786534330944356,-28.822772193322383
0.9795454435148426,35.5276542475022,-28.86706851923081
0.9273744257225865,37.275812824603214,-28.558273159491904
0.938491452849887,36.90797620299654,-28.62495450370488
0.9492701789609167,36.551992046908694,-28.688597842470216
0.9292301657844679,37.21626211442939,-28.56940962292481
0.9530095710027401,36.42604008713303,-28.710664493531304
0.9511242706319195,36.48815213349025,-28.699816724513393
0.971022025985581,35.818599068641575,-28.817328066087615
0.9928426559286846,35.07279192070146,-28.944929213786605
0.9815750955930677,35.458569487297204,-28.879199072681843
0.9696404291856465,35.865949396659545,-28.808786725938944
0.9860143977998784,35.31271302542524,-28.904288069355307
0.9398692363655089,36.86626327071476,-28.63219175815059
0.9757834202056002,35.65603313795796,-28.844891935782034
0.991652742470099,35.111001926513374,-28.93810359185552
0.9565187771790378,36.308965284636166,-28.731252202502162
0.9689016465220665,35.889841359527296,-28.804797180016177
0.988732439664385,35.21412182038206,-28.92093130580103
0.9692492682477336,35.87788977872408,-28.806734046351682
0.9492490782854852,36.552068403966175,-28.688215610526193
0.9033242908879358,38.05684851556035,-28.41472769948171
0.9352769108054885,37.01497213998618,-28.60551442839497
0.9205960906060311,37.4957682624694,-28.51800454705599
0.9497223921537794,36.538573672632076,-28.690696293268132
0.9062081895957681,37.96472259459265,-28.431855575954547
0.9243487105773203,37.3758058120738,-28.54023917846421
0.9239533031821554,37.38839052263853,-28.53790001892219
0.9361456320689457,36.98741857306233,-28.610518741108738
0.9357502246737815,37.00069813806953,-28.60808465504648
0.9720728152077905,35.784078015635444,-28.823060002512086
0.9800500898645693,35.513211602372685,-28.869595365837085
0.9481127089266842,36.59188111065493,-28.68132474509042
0.9712167411135011,35.81597485559282,-28.81769567316923
0.9492833590512402,36.54912679103257,-28.688647039680248
0.9728927457932595,35.75803881847703,-28.827611602078616
0.9686260761342913,35.901245943701554,-28.802658222064945
0.9343098229174721,37.047483584336156,-28.599633500887002
0.9589511632011752,36.230488257994566,-28.745186189097417
0.9901761114597346,35.16130832093867,-28.93002123993324
0.9931717418711926,35.06483756400362,-28.946478029517912
0.9665827237787744,35.9654297049349,-28.791655788789743
0.9444391878397803,36.71862477201859,-28.658928019640562
0.983347853330918,35.39747560523248,-28.88991436002923
0.9808459145258505,35.48393755305617,-28.874764119618526
0.9382439918613404,36.91610196056754,-28.623445398493907
0.8652107817559787,39.265212173602336,-28.186336369424428
0.8752233414321562,38.95218300155155,-28.24648692023104
0.8875350366478029,38.56371225155489,-28.319949408287943
0.8568271936854643,39.521296905252036,-28.136849873702847
0.8560619233518286,39.54553552648189,-28.132315994251012
0.8986632194248119,38.209487626203824,-28.38651374122274
0.8798578142646001,38.80592152187258,-28.274272452489637
0.8789031254406232,38.83790518338049,-28.268274466871148
0.8823351840249334,38.727776712735796,-28.288915168155114
0.8855049219205027,38.62771585783191,-28.307905519751024
0.8736516937804089,39.001758838051884,-28.236854896621953
0.8704819558848446,39.10029597245996,-28.21794312533011
0.8433660074494894,39.936666381033184,-28.056164284549162
0.8935722164827188,38.369701887335665,-28.35642007563144
0.9025880561866221,38.08214384482351,-28.410110140385132
0.8548698638059248,39.5844355989765,-28.124749722680644
0.8748914852439866,38.9620593868379,-28.244474307359724
0.8412967433827733,39.99914859162815,-28.04378547398475
0.8901715589097053,38.478549450540115,-28.336024559699794
0.8921552460190321,38.41840692641996,-28.34744553651458
0.8718241618117529,39.058893267621855,-28.22598993362407
0.9055088547069869,37.98989603960734,-28.427493816445406
0.8764782604474068,38.91388387542821,-28.253731153325376
0.8578459697610191,39.49391329309067,-28.142358246352984
0.8633034124985639,39.32579331603354,-28.174877930532794
0.8421880828982652,39.973167921065695,-28.04891041179636
0.850774927055877,39.71276508639519,-28.100044585078
0.2971716970205309,51.62029336861008,-25.416418093033823
0.3373984619975097,51.123676318177395,-25.542192821749715
0.43542986517706866,49.6572931630361,-25.90681513073796
0.42313192566791435,49.8623347780548,-25.85643229103495
0.4231905890622885,49.86025168493271,-25.856940716385683
0.42168484603058864,49.88527054093553,-25.850799608827042
0.47585654725522725,48.95118691055924,-26.078776018640287
0.45874722426652037,49.25887037631423,-26.00412958705409
0.45825159891815553,49.26648055878388,-26.00226866698529
0.44111067909695245,49.5639244841445,-25.929709247038712
0.46396956314534976,49.1658850215574,-26.026754051688883
0.4586497632217356,49.26074458720988,-26.003707554317234
0.44629679946242085,49.472670186732465,-25.951984324879945
0.44723895719209567,49.45932527074858,-25.955300662993153
0.4350918956653206,49.664501882683666,-25.905057384366042
0.44733641823688464,49.456016468308434,-25.956072940488024
0.4701385830280335,49.05357940515759,-26.053930936226873
0.4578293074605036,49.27576090013289,-26.000051715662003
0.4230127888732975,49.863045905467466,-25.85622427471717
0.446381229441744,49.47401727462352,-25.95170538586431
0.5096847438145352,48.31226493542233,-26.23219995731113
0.3787903563829231,50.54796433369537,-25.686542376039803
0.3317381121185431,51.196473426863584,-25.523814531966593
0.36001440926059997,50.81681324685698,-25.619323643910118
0.36150416074018016,50.79645338570395,-25.624431064660868
0.34700517877608683,50.99575500588236,-25.574395729172938
0.34551542729650603,51.01595882979093,-25.56931704968577
0.38057500869035743,50.52356158301847,-25.69264110028919
0.4323028658796507,49.71057471438983,-25.89373651509964
0.3932430700774018,50.333662858787484,-25.739897189222987
0.3764119775409523,50.58323345683865,-25.677741547202146
0.39413169743979226,50.31994888462301,-25.743309449909393
0.39740610122680675,50.27074094428105,-25.75552661225413
0.4078108138128298,50.10792177718951,-25.795842969045747
0.42429375250827867,49.84359902240687,-25.86106503462321
0.37246969653318535,50.64095423211184,-25.663352961279553
0.4304060188095177,49.74191005188946,-25.886048877341306
0.4783890406968655,48.904156917031486,-26.090052320023005
0.44919331822879116,49.424129893506915,-25.963818861066166
0.44784940143709995,49.44717435987034,-25.95820925828951
0.46478525784442615,49.150504112185025,-26.030435033703103
0.46344134105273393,49.174154818962926,-26.024679917124118
0.3769644359292264,50.575393770200314,-25.679698895788498
0.3849492008032085,50.45827594420161,-25.708917209174764
0.3955547338190759,50.29835091881232,-25.748681250266664
0.40413994750204063,50.16474914419869,-25.78176731440896
0.42911005020141596,49.76308514611791,-25.880830602875594
0.41240505129098903,50.03384260112181,-25.81413745780847
0.41936937287852843,49.922955462120306,-25.841514914151222
0.436398430726841,49.64282899952409,-25.910369573602043
0.39335433393716857,50.330271833192356,-25.740706542843302
0.4516861334849098,49.381853842819396,-25.974175342330895
0.428041193100767,49.78125135652507,-25.87637234969471
0.47636233469378914,48.94108387864844,-26.081155356435833
0.4534769707772302,49.35053288453654,-25.981811310417932
0.4512747611630519,49.38871500522103,-25.972494972409315
0.43991173716467125,49.58425892798224,-25.92472723836534
0.46483999477561067,49.14984883772898,-26.030630478229575
0.4344217996114317,49.67169369984465,-25.903272196457205
0.40495356393614473,50.15218538351238,-25.784890071276273
0.41136686370750236,50.0505244496372,-25.810019376490548
0.4050687187536217,50.15034270787751,-25.785338708017647
0.38756552060859284,50.41909183978348,-25.71864984433147
0.3920679878602414,50.352107032852956,-25.735332146475884
0.39267603892389824,50.342659684330414,-25.737683906433702
0.36865059492757973,50.696935180747666,-25.649373986701175
0.3687065879612577,50.696164025479504,-25.649568603668058
0.38048472301734215,50.524780451017655,-25.692351739878973
0.3807885556251193,50.519837191432124,-25.693573131468664
0.38108029063320953,50.51517701545475,-25.69472388783002
0.3801929880092527,50.528913704559216,-25.691316186630747
0.4161817461560452,49.975547946426936,-25.828560266927745
0.44059103655646054,49.57216350237145,-25.927692988274675
0.44042046056937073,49.575517793253205,-25.926886645590077
0.42920860396527505,49.76238540927101,-25.88101929093155
0.42805229021995184,49.78173640836936,-25.87626901234869
0.42911125288243707,49.76381869814773,-25.880664454891594
0.42814964130278826,49.779631474262025,-25.876774805602818
0.4052287708725687,50.149469573647806,-25.785602388365927
0.4043356655820383,50.16343051461355,-25.78213769059584
0.4113713416356421,50.051282951484716,-25.80984658249972
0.38052559477856823,50.52472688272837,-25.692360493895354
0.3991023095837736,50.242837314477505,-25.76241958052872
0.3990978316556343,50.242313520491656,-25.76253747622274
0.42871604415605297,49.768969995386065,-25.879409313084977
0.40504242205860475,50.15063950237483,-25.785260373637186
0.4041354991655389,50.16487743380462,-25.781735365874162
0.40331269815180854,50.178316516337986,-25.778421666154344
0.3805815878122464,50.52461550341824,-25.692405544255518
0.4162746489023815,49.97338025224965,-25.829085017076302
0.4285454681689627,49.77296809881793,-25.878436577244894
0.38115811798343635,50.51321419094743,-25.695207718059
0.3335819546794438,51.17286679583431,-25.52977630669675
0.3488490213369866,50.971338033268594,-25.580544839172095
0.3657157649015925,50.73696565018077,-25.63932769387282
0.2956117074997573,51.64013326405586,-25.41139248712022
0.3212564662098883,51.330160815513175,-25.49003395214052
0.27885754220797176,51.82739844686389,-25.363645527249552
0.28260411881519915,51.785768793150446,-25.37426587054052
0.3206782415509225,51.3377784098787,-25.488119464194384
0.34135444462299297,51.072108652888204,-25.555197567585946
0.3099675286146027,51.470058776177254,-25.45461136692386
0.34624839103985533,51.0072861096243,-25.571532378386454
0.3223581753102189,51.3180966054235,-25.49311684688855
0.32239841124242824,51.31742774629436,-25.493283272348123
0.3345044416489025,51.16203122121613,-25.53253429770595
0.33397302028616715,51.16848180462884,-25.53089611451474
0.334204047116364,51.16596532708043,-25.53153804024172
0.33427341481870626,51.16518637464939,-25.53173923162897
0.3744259875975145,50.61465972716074,-25.66991215543662
0.3869315449855805,50.42735414548438,-25.71658629817113
0.3342747410035217,51.16635870548738,-25.53145746281126
0.3632250045202257,50.773052933730014,-25.630308640197896
0.35222016549874274,50.926497857566865,-25.59184546299998
0.36894335051673866,50.69254992839052,-25.650475106183656
0.34612061280966666,51.00937851090247,-25.571001496773277
0.35115373802375804,50.938757107137675,-25.58873496412466
0.3637416467634569,50.76643023719125,-25.63197372234192
0.32806409073066717,51.243858759199654,-25.511843015713406
0.3626405139229794,50.78286781054203,-25.62787519121446
0.37511248781900475,50.602350176681895,-25.67298192880089
0.3399818829913142,51.08980837854126,-25.550721200711262
0.3512432642002099,50.94016089902623,-25.58841156084554
0.37525434350646747,50.60161140721801,-25.67319046084535
0.35231615877915357,50.92375389933905,-25.592512336234417
0.3870458335248356,50.42607174148485,-25.716916457307043
0.3636456534830451,50.768026445793716,-25.63159430828752
0.2328385821454564,52.286653157405986,-25.245866359504223
0.23214312196434692,52.294251704282665,-25.243900157454153
0.2394771243701514,52.2270564387128,-25.261215392977
0.25655781162055724,52.05985331941049,-25.304153435723133
0.2565782387476447,52.05952335112575,-25.30423457403491
0.2735515953852339,51.88550856583381,-25.34880485861302
0.25107091695766953,52.11540770316708,-25.289904975763164
0.2565739942816131,52.06101541170475,-25.30386721154317
0.26212183214266993,52.004402678675724,-25.31836879041149
0.26802476679140447,51.943930234964576,-25.33386604462833
0.23372147289189096,52.27948244226847,-25.247713863812276
0.26800858413034817,51.94355639266002,-25.333949993567536
0.2617564174224415,52.00891338441535,-25.317218181358985
0.2907664429551664,51.693989812738785,-25.39765806115379
0.24498444616012516,52.17374761175259,-25.274905933244884
0.2618610079796147,52.00746446321576,-25.31757009240371
0.2918651308925304,51.68196254737433,-25.40072300979402
0.29866257775107113,51.60391401498572,-25.420602032512857
0.3392787344474788,51.096541082537264,-25.54904368222411
0.32262943807262423,51.31375900480637,-25.49421121079666
0.2797955665474538,51.81791722899415,-25.366061687600027
0.2920560184603335,51.67970154765642,-25.40130421278344
0.2856656294259545,51.752114540709314,-25.38285368908091
0.30958084294957294,51.47500669071067,-25.453353747264295
0.3097990086042068,51.473165299159746,-25.453834639193083
0.3154892129675788,51.401669737124436,-25.471923922109497
0.3156577329779749,51.39933806594642,-25.472514459069085
0.3031902048618975,51.550613798038675,-25.434142417632657
0.3033587248722938,51.54808501581323,-25.4347792250406
0.3090553129220809,51.480865373182986,-25.45186064853259
0.28002636292404404,51.81369902322962,-25.36712530067676
0.3091874117160643,51.477656415677316,-25.45265812901875
0.2912491371084728,51.688827493401966,-25.398975467936026
0.3395152579979713,51.0969592819544,-25.548943070029292
0.32776721231506317,51.2473964377409,-25.510983623947574
0.32757339291141424,51.25176514362321,-25.50987215781423
0.34056811309624574,51.08147870163865,-25.552839824143675
0.27951228001183115,51.82005784259034,-25.36551159825504
0.30623499635180046,51.51372428817313,-25.443504367644824
0.06730427081808626,53.26332564266568,-24.99216801207965
0.12437374581582958,53.048638414498555,-25.048310433820816
0.1082287270396943,53.12306274674469,-25.028875261801076
0.09644890454973555,53.16934806814073,-25.016770102275423
0.09543088901959848,53.17250821558982,-25.01594291651256
0.09402957589843933,53.17718682465594,-25.014718119988075
0.09635400162461721,53.170061995924215,-25.01658425600439
0.07674238068233455,53.23615011526341,-24.999284549180715
0.09645178211405743,53.16991027664426,-25.016622954117324
0.0784303874757547,53.23156612670991,-25.000485080693487
0.07201144415414887,53.249541128995226,-24.995778486414903
0.08296011176063203,53.217320487277235,-25.004216749346856
0.1111518390324897,53.110228330783215,-25.0322279244365
0.0707534010537514,53.253089755237696,-24.994849414026554
0.04824265963524753,53.30629331074679,-24.980905498552982
0.07561231412921506,53.23977546359156,-24.998335875522375
0.0816397264947712,53.2207266674575,-25.00332408946169
0.10969589639946663,53.11662213536356,-25.030557314170984
0.04759424973983471,53.306548428442014,-24.980837987035862
0.0773003209226353,53.23461017105795,-24.999687864729797
0.07703591104791535,53.23569802238258,-24.999403947890265
0.07836158092818855,53.23152724162349,-25.000496821176412
0.05010861796272756,53.30345874798717,-24.981649147198887
0.09683293785991492,53.16833742245722,-25.01703596605738
0.07312622709146362,53.247886285632966,-24.996212882717916
0.07372006333384545,53.24686539082978,-24.996481527654748
0.06188807798047103,53.27835490752331,-24.988230421274974
0.08495821244483812,53.211281611944806,-25.005798739700673
0.049060400624918885,53.303322480069,-24.981684251495317
0.031125938062276697,53.332965449854605,-24.973909889988573
0.0174485794092885,53.34706685113786,-24.970210620075505
0.0621269071214207,53.276027996815664,-24.988838818038563
0.029805347631856084,53.33317157698977,-24.973855669379383
0.036529780762926393,53.32584118810913,-24.97577877105241
0.017112495077323858,53.34901789514279,-24.96969924761285
0.006249987054616213,53.35431043786409,-24.968310249446628
0.006249987054616214,53.353364611954284,-24.968558563139467
0.03775555122861866,53.32575418379972,-24.97580253056285
0.06368542585072239,53.27353998762503,-24.989491875991245
0.07058241638466899,53.2540565170113,-24.994596202689834
0.06400543779214202,53.271670905906625,-24.989981052229332
0.04953501124636211,53.30495579183255,-24.981256763460042
0.048962244591835326,53.305590162245835,-24.981090066863754
0.0503096864896343,53.30286092170426,-24.981805809479024
0.024826016351524264,53.340916917301676,-24.971824630525276
0.00790666181700144,53.351006889731835,-24.969176801264908
0.0551023570030661,53.292819879192734,-24.984438468591073
0.02814867286947084,53.33639630330531,-24.97301005002226
0.02239788380631666,53.3417081133799,-24.971616776977125
0.01848048992932441,53.345490433130145,-24.970624590207166
0.040379175744179006,53.31997302800836,-24.97731818135808
0.03011767319530422,53.33572549040188,-24.973186355884277
0.010424083098769191,53.35018317062685,-24.969393407804603
0.029603605030479783,53.3353947739634,-24.973273183333465
0.029679248271365803,53.33590613111559,-24.97313907022717
0.016674070153385394,53.34852618878301,-24.969828209158926
0.04260878314846017,53.316541562552125,-24.978218313553644
0.08071693550082906,53.22276462084095,-25.00278875861049
0.05254902900503492,53.297721609070216,-24.98315260886804
0.1011640038292882,53.15024637787129,-25.021764173961994
0.0857121342301134,53.20754809334116,-25.006774455813574
0.07834682097605096,53.23144107309784,-25.000518742103587
0.09450987229879862,53.1770971028033,-25.014743866605546
0.06954908290736572,53.25706073656365,-24.993808960079225
0.02874341022851651,53.336493508649255,-24.97298498362668
0.061113410050249055,53.2810537740513,-24.987523917532943
0.06671663244435051,53.26489912585581,-24.991755151345675
0.031882853273210075,53.33294806687393,-24.973915142053183
0.015791904646903266,53.34936384864914,-24.9696081429817
0.02802240752161147,53.33807855135339,-24.972569052710433
0.05291296971210699,53.29624915151818,-24.983538827162963
0.0063455264221998426,53.35272016744725,-24.968727734235785
0.07898220131589477,53.229078737056454,-25.001138051302
0.08013815246279198,53.22531330660735,-25.002123781638513
0.052992125379296894,53.29592273582941,-24.98362489656792
0.00987950246781111,53.35159843460559,-24.9690219879403
0.04254464477041365,53.31695412787574,-24.97811035890292
0.016225028890010946,53.34829590258834,-24.96988873617716
0.08170206866023448,53.22148306160056,-25.003127424086
0.03323312044367469,53.329947796982204,-24.974701806291904
0.020303585566580285,53.34445776931378,-24.97089558382604
0.304150328040123,51.53961903314636,-25.436941818327305
0.286079660058022,51.74712335919839,-25.38411570526827
0.31046901934969623,51.463554533490154,-25.456249225173362
0.32067824155092284,51.33817732835207,-25.48802582301119
0.28144533464560023,51.79875831654649,-25.370950736071094
0.33287188410758944,51.182488140035055,-25.52736505497199
0.262478049071917,52.00070701206187,-25.319315768102577
0.23883803359723021,52.2317805536201,-25.259984733618985
0.2868363860850124,51.73865475701941,-25.386282039363646
0.26330642299396795,51.99180519908651,-25.32159346161083
0.26235375047636206,52.001594721582386,-25.319083547373495
0.25069879096159603,52.119007671302306,-25.288974957223395
0.27496138250873403,51.86950646734669,-25.352890182977802
0.23300983204262815,52.28588604182528,-25.246068181629248
0.21553500304859066,52.439458195968705,-25.206470047081822
0.20099291405433042,52.558644508860155,-25.17566189401521
0.24459479061039657,52.17634013871181,-25.27424701754439
0.20900716683479112,52.4937336322297,-25.192445489728485
0.20645779386501362,52.51365547149717,-25.18728497411545
0.18388730228189198,52.6874936405966,-25.14228301324846
0.20172515079319475,52.55189849229821,-25.177406960878425
0.20266625199828245,52.54544542665937,-25.17908144971592
0.17663473332863866,52.73758405977805,-25.12927179200222
0.17765042172996737,52.73157982378419,-25.130840368142675
0.1828984063487876,52.69510758508163,-25.140306180395818
0.19599893058804,52.597544099452456,-25.165593832170593
0.19623973707828796,52.595417825148076,-25.16614466728042
0.18313921283903586,52.692673112271386,-25.14093601166848
0.22762082577264234,52.33509690951783,-25.233392978042616
0.25057487066675976,52.12009332643444,-25.288704301603754
0.2509704859290282,52.116462763422035,-25.28963559405318
0.23976079929643376,52.22281553278793,-25.262296259509853
0.23948158313700832,52.226017434707515,-25.261474472963954
0.23961340292455605,52.224302873782676,-25.261914125911897
0.23962897950888576,52.22387842204147,-25.26202033535331
0.21524485815455324,52.44280541531531,-25.205608737647843
0.21500934680472794,52.44484667414792,-25.20508101721756
0.22151495424042836,52.387544352220736,-25.219861024065224
0.1943378307354693,52.60864683088857,-25.16270682839356
0.20835426348586641,52.49864632401205,-25.19117304061871
0.22086205089150399,52.39282565073453,-25.218497755765984
0.23869987081577118,52.23318074787988,-25.25963710825468
0.2079890003995559,52.50092731466591,-25.19059128712265
0.21475934311595585,52.44488346477767,-25.205065117645397
0.21577647295198635,52.43693713171899,-25.20711763554521
0.21120592155677126,52.473783793447375,-25.197595044487148
0.18919734218842946,52.64823256929809,-25.152460167036004
0.22685327922603046,52.340528545885284,-25.231991100691396
0.2381947856461741,52.238100769068666,-25.258370266510518
0.19117829944016318,52.632840085506636,-25.156438035904312
0.15066085525671807,52.90667413030814,-25.085321850726125
0.1740827441183237,52.75592835650234,-25.12451603053747
0.1631495878337058,52.828703287705146,-25.105609161449333
0.18856312529916977,52.653227980628714,-25.151161314592677
0.1529297903416785,52.892572761917236,-25.088991741008517
0.17384478652214974,52.75789173673161,-25.124007684175233
0.16542608940661835,52.813767694940935,-25.109489409684077
0.16362498903012251,52.82602742075539,-25.106305251344033
0.17564588689864566,52.74473134264063,-25.127421474963487
0.22847171646133344,52.32707602262404,-25.235457156063216
0.24375224678533602,52.18588024277601,-25.27179905323141
0.224475611361258,52.36259451744523,-25.226302411204358
0.1907816176747646,52.63643787079845,-25.155514175251845
0.21502358929135046,52.444398257313765,-25.205195555817625
0.23520378361734298,52.26684717319373,-25.250977706265495
0.19639956206083287,52.59349836750953,-25.166631960895543
0.20146699519952457,52.55529752489453,-25.17653178186513
0.19032177901619315,52.64016471149,-25.15454971401229
0.24145538624138058,52.20768403805242,-25.266187556518812
0.28841760230990665,51.71971034677795,-25.391087462586608
0.2602720249600394,52.022481553736895,-25.313724888170572
0.2590600006648304,52.03469369227893,-25.310596469976556
0.2744608732173052,51.87464059180107,-25.351572913611903
0.2732488489220961,51.88716071795847,-25.348363499672306
0.19563190890327478,52.60009246817067,-25.164937377643742
0.18686373184357782,52.66458427314727,-25.14821228604242
0.23883770692121825,52.230783223720444,-25.260240570844168
0.24340825831643365,52.18869621491592,-25.271065111288596
0.23034036533433472,52.31082154097206,-25.239646513948575
0.22124378366687428,52.39143154030327,-25.218859415693544
0.24682141804604407,52.156779624691694,-25.27927649895446
0.21486153003349792,52.44382734684568,-25.205334775341907
0.20015793917551994,52.564336766810065,-25.174185908690383
0.1179885137806564,53.076926390524775,-25.04092212204066
0.13612568332133473,52.987783648586785,-25.064187169581505
0.13337664010876787,53.00049021609116,-25.060872040222733
0.10865557357766036,53.1219215559262,-25.029173422629366
0.14559782028980175,52.934863233233024,-25.077978523753632
0.12248990035597643,53.057510196450735,-25.04599200159274
0.12259724542481143,53.05669302463557,-25.04620964990603
0.11276108164308825,53.101502536645405,-25.034504228651116
0.11425285199691494,53.094465520328235,-25.036341970484784
0.12629346115228052,53.038033470785905,-25.05107686974567
0.1208379939438677,53.06593243284433,-25.04379889760788
0.10131437781598256,53.14940524201519,-25.021985669762334
0.14094853281919303,52.96068201131808,-25.071246692863372
0.1512781694157304,52.90098205459678,-25.086798623949267
0.11014381603138998,53.11352009194894,-25.0313663281746
0.12164514937035947,53.06068271280207,-25.04516328650772
0.10009216243638863,53.15403916146272,-25.020773827990432
0.14085787800548044,52.960696480269796,-25.071242973430124
0.14040983420850586,52.96444688419056,-25.070271022956682
0.13371252516181956,53.001908180939466,-25.060507386472455
0.15163546325916458,52.90016060488957,-25.087016141649546
0.14006285648792968,52.96611760318951,-25.069836495837226
0.10722342653907681,53.1257986423426,-25.028157923363054
0.09701526444162084,53.16716726458707,-25.01734200200545
0.095491818152368,53.173239608230034,-25.01575373730001
0.49997836246555266,48.4995047184438,-26.187424190901805
0.48173521056147,48.84521874168007,-26.104296122578297
0.5295304238805544,47.91642469565035,-26.32634898338669
0.4998475153691099,48.50074332624745,-26.187075542390264
0.5178244739780192,48.148761647130534,-26.27117623814031
0.4695010070440334,49.068415315217834,-26.05035084313688
0.49329753206194893,48.62654702566473,-26.156931786772507
0.5088533821046411,48.32936981488696,-26.228168869475766
0.4752229174606817,48.9629215886854,-26.07591600531644
0.4825186372562416,48.828841367261255,-26.108253417211973
0.5004880763236484,48.49056713694683,-26.189599039629346
0.5174929983913906,48.15910212965886,-26.26873707942509
0.46950552769146114,49.06643283664149,-26.050843431319283
0.5007218734189038,48.48578796475997,-26.190729703323033
0.9494887073509973,36.54404612325838,-28.6898754876376
0.9931717418711926,35.06649440121427,-28.946243996847237
0.9669500714545325,35.95654830643864,-28.793007277522012
0.010167380931608462,53.35094657160534,-24.969192881476555
0.009879502467811104,53.352717645599476,-24.968728386283445
0.029615109893319235,53.335308593919486,-24.973296055915284
0.03696820568686483,53.32542723133192,-24.975887226565234
0.03193980139860373,53.33221001986329,-24.97410823739176
0.01042408309876919,53.35129029488509,-24.96910292936543
0.07815416004732527,53.23294694231412,-25.000126367314436
0.06451575491801181,53.27017133828412,-24.990375044080594
0.9467925619254329,36.626876519026204,-28.675039003757853
0.9928426559286859,35.07704481634651,-28.94433025715447
