0.006249987054616213,89.15056170186267,-8.10467105416304
0.2622264226998428,87.05407177049332,-9.48997698479506
0.7428272500949898,72.3204658135019,-18.751834497736212
0.6899944958974087,74.61193376079608,-17.365008871061764
0.1664931995095728,88.30522112486048,-8.66534604824926
0.4577448774811744,82.75305596021171,-12.278668604491873
0.5418022602805879,80.18154959968872,-13.912324219423054
0.6367769937918372,76.76373593521284,-16.04494115087872
0.36255098774652483,85.14059775704577,-10.739400911386092
0.9931717418711853,59.317894077464274,-26.251376793439654
0.7847616159144581,70.37658994975047,-19.913081214439334
0.5950083403073327,78.33228308697291,-15.071521821015306
0.30998362429298604,86.21770105774779,-10.03786819765698
0.9697528874560128,60.6652211939739,-25.50356183952872
0.9699446551599618,60.652279055655015,-25.510749789982604
0.9240832596950744,63.22057687132085,-24.066331975904102
0.7851438089249952,70.35823055234786,-19.923848003095248
0.8303105154780053,68.1579905351613,-21.221460107590797
0.40502993861081604,84.14094944824089,-11.386600744284495
0.12778523150610724,88.65207679569583,-8.435654500313802
0.21961342648364046,87.6792644951283,-9.078602743797202
0.4699790809986178,82.40379348025468,-12.50192378936679
0.44680352089939684,83.05374485544287,-12.086136170619408
0.4347908678465905,83.37559997177996,-11.879696009086311
0.5650396618387457,79.39759929949777,-14.405141162182218
0.5529691848299237,79.81036101807175,-14.145922001579374
0.529818359018304,80.57382434386248,-13.664956112569753
0.7553875031011897,71.74927389787238,-19.09440609630942
0.731685563494436,72.814503549185,-18.45466478989686
0.7198179061906222,73.33043248632885,-18.143441281455626
0.7079429249660896,73.83265377700745,-17.838824302838976
0.6899851440665135,74.59931825486616,-17.372452295436766
0.6719384971837534,75.36601926989967,-16.904373565792813
0.7672625066774672,71.21004097626064,-19.416971966468886
0.7968123527045291,69.7991452043288,-20.25537581855597
0.8018199097657168,69.5579433978412,-20.397634575747432
0.9843383931201246,59.831875578443515,-25.96756870825335
0.9889050722122211,59.56321153373408,-26.115774930505886
0.9817477281409058,59.98049354785509,-25.884908560270905
0.9928426559286894,59.33176412189303,-26.243867445616445
0.8471469835078291,67.30986404200706,-21.716680381401183
0.8309269753646774,68.12444991823186,-21.24098940755583
0.8131044935154655,69.0072656175588,-20.722696317130538
0.903144160900434,64.36618961182148,-23.414755821530427
0.9408095165967599,62.30069181236802,-24.587370052688755
0.9374671741925168,62.48171356074381,-24.484573539465448
0.8005956727052107,69.61799854934301,-20.36233384955407
0.7843328338077369,70.39780957743935,-19.900219566374613
0.766314380711105,71.24982186965002,-19.39328452258118
0.19872387377390074,87.94619681956175,-8.902643028086814
0.21525379578512144,87.73532582817236,-9.041707387821805
0.2333360618081925,87.48759553535339,-9.20492386136414
0.14961452589641133,88.46763398950658,-8.557859557801882
0.17137571561612194,88.25667944796899,-8.697462844910362
0.18344139417871239,88.12297192786752,-8.785815925593466
0.12027319241071893,88.70925494028783,-8.397721270729381
0.12110634395750051,88.7053044555652,-8.40034616364231
0.10336352791393952,88.82416610122708,-8.321482840126322
0.23131180962833375,87.52185526431971,-9.182291422015554
0.22114463301818413,87.65746780789405,-9.093061461851638
0.1948839043521145,87.9967996647542,-8.869222195557418
0.5769146505138619,78.9885601893214,-14.661620921595436
0.5949987544960912,78.33041147956204,-15.072507009045733
0.6130264501974756,77.65904939838559,-15.490362750027327
0.48800222993020753,81.87634745208643,-12.838584984032524
0.4790457454689996,82.14001588288127,-12.670440753638372
0.5216631853398952,80.83837146989435,-13.497529493265471
0.3868295353613386,84.58614012253045,-11.098930444958228
0.40494108048835487,84.14005870178703,-11.38714389815657
0.42291586799560243,83.67960457653885,-11.683953627829217
0.5312068290106857,80.52959147530763,-13.692715655359455
0.48939938645675574,81.83246845524188,-12.86642567835437
0.5016744979387935,81.46107548727667,-13.102601133503768
0.37495453551035085,84.86068241827849,-10.92096647909601
0.35182775479745726,85.37282209832738,-10.588615852641993
0.33982043636035897,85.6249578143927,-10.424666937744554
0.6600634861568909,75.8440352929052,-16.61109701725274
0.6482065278868177,76.31866016464826,-16.31926614172237
0.624901453773755,77.21836482477018,-15.763999368265777
0.7160367146078712,73.50308094373985,-18.038829897314038
0.6686288323876136,75.50099247354811,-16.821574001111443
0.6919630035783558,74.53295268578931,-17.413285089644493
0.6130635012934792,77.66218829315795,-15.488510332879663
0.5950264309403558,78.3314759799897,-15.072016052177071
0.5770558371948277,78.98275923852808,-14.665356953365292
0.24384150510903851,87.34275634560154,-9.300267047446217
0.2676081446654179,86.96809198128102,-9.546416151322177
0.2789668981659266,86.77762536721848,-9.67128820141035
0.28962962660511593,86.59239088373592,-9.792812766557589
0.3062349963518006,86.2889320676725,-9.99134987884026
0.3161516636610031,86.1001298590886,-10.114676284368628
0.42318534260550356,83.67773832829369,-11.68513764846276
0.40505623530583224,84.13827472653078,-11.388249082575523
0.3870950706867105,84.58004200687118,-11.102868621300548
0.2919226828699712,86.55353375110207,-9.818235901683586
0.3099823977256425,86.21526240167918,-10.039403306598858
0.3279454327840802,85.86129448921687,-10.27048318014828
0.5123427595501591,81.13187064347187,-13.311582172655443
0.5000328563996141,81.51103029764917,-13.070872134938787
0.050380991055339414,89.07207232275903,-8.15684992068427
0.6451923409321821,76.43659144800039,-16.246827562096698
0.5511421581871312,79.87121254518381,-14.107791032481341
0.6452970418868806,76.4325492436003,-16.249231951243658
0.6563217908975754,75.99713377927327,-16.517397042881914
0.7380864664868908,72.53054804351794,-18.625726155478883
0.9211011125429132,63.39123309985958,-23.970149396470408
0.9316968933870404,62.810898200576155,-24.29950799052587
0.9064225198706948,64.19234468160792,-23.514078417902017
0.48769999017209864,81.88504168774912,-12.833038125884768
0.4518403349551897,82.915002583725,-12.17499926294147
0.3583246553482303,85.23223501407566,-10.680038270859075
0.3575530727075033,85.24861626761938,-10.669313412572727
0.2746592312849322,86.85149703725214,-9.623000629575253
0.3269463229230513,85.88689046416698,-10.253860498447642
0.1606506024379944,88.36347285377278,-8.626775272193399
0.2619180978033032,87.05861444112597,-9.487023638203945
0.16913561020175383,88.27875488823199,-8.682850701589375
0.10262146134602296,88.8277771208605,-8.31908796288777
0.158848810940981,88.38232099029653,-8.614335513758897
0.5000098933226386,81.51202030581715,-13.070217983654222
0.5708429890819795,79.1947967862634,-14.53256648376848
0.5180082798013468,80.95175088864897,-13.425591664724864
0.5652052566217451,79.39150352243571,-14.40905068104292
0.5181366856690317,80.94902409477578,-13.427479321926034
0.05962938079378835,89.04196683907479,-8.176853766137699
0.8846511379399676,65.35846748052685,-22.84570286475968
0.8923862730871119,64.94681523936325,-23.082788997342533
0.937320003926145,62.49652925730197,-24.47681387658192
0.8804466002468152,65.58243437457108,-22.717443461161643
0.13410782146209868,88.60163436427516,-8.469089411474663
0.14113939614755283,88.54429367152039,-8.50708652016884
0.18410454376991991,88.11830723239028,-8.788945412101981
0.1913838159911364,88.03666816617421,-8.842892199041643
0.11098803606196554,88.77805559094813,-8.352093458263656
0.5499785265095047,79.9092135170705,-14.083841321409931
0.614178830772229,77.62624626392737,-15.510901080794849
0.6249079208777125,77.21344014079237,-15.766843691436376
0.6082450572052712,77.84843310927312,-15.3728988182484
0.582698044368013,78.77705355035037,-14.794053361143895
0.5950230378401982,78.33390176757456,-15.07072400604788
0.5944427057397922,78.35392426607439,-15.058133559651557
0.5943347122921555,78.35831250898579,-15.05530416027666
0.6035129065293621,78.02279043700462,-15.264272336080023
0.6451197275736839,76.43805305096771,-16.245810655417337
0.5834673973145442,78.75159158622897,-14.80995330345441
0.5968623403722173,78.26980852946029,-15.110511731102244
0.5469025520132194,80.01190860273695,-14.019186169954187
0.6134951999748188,77.65301272216233,-15.494284077630743
0.5956764757777503,78.30970665227368,-15.085613103280725
0.7268295327377043,73.03070403183979,-18.324360336359124
0.7604723079554988,71.51309939919201,-19.236063561319202
0.6249709148953554,77.21448315054383,-15.766222028346498
0.665760038461151,75.61360809694806,-16.752786351839138
0.6249066244766888,77.21956796134293,-15.76298363387884
0.6899580612060421,74.60673115863766,-17.368150972003733
0.6719109821896063,75.35606755676311,-16.910226073852478
0.7137512427350627,73.60010179186958,-17.980110175328786
0.9684505157270643,60.73915283595092,-25.462344448509775
0.8403347256982303,67.65681839767889,-21.514568723117076
0.8112798070279044,69.09656186127287,-20.669995176401954
0.8532445471722976,66.99805785320045,-21.89845395661379
0.7911736356623725,70.06348165735123,-20.098789508976
0.7790091131672376,70.64460332223389,-19.753817761323155
0.8277039797778146,68.288334439826,-21.14492757140129
0.7548353491460313,71.77586513138799,-19.078702083207514
0.7723782432492594,70.96010920195599,-19.566233666704562
0.7968296356091139,69.79902159049341,-20.255579055359906
0.7652885467908251,71.29141442782395,-19.36831645652728
0.7851922950184735,70.35458003840105,-19.92626018385479
0.7824941264895754,70.48325921556405,-19.85002537152393
0.7813691316030296,70.53608996862086,-19.818311095193557
0.784903255757024,70.36863301300455,-19.918021801140064
0.7844871091084641,70.38804218751622,-19.906371380548254
0.9605669184479209,61.189893087815506,-25.210945949833224
0.9832418675738156,59.887124587999516,-25.93668852487936
0.9736885704545359,60.44092478222513,-25.628700674679433
0.9795767759962793,60.09978650181701,-25.818062523822146
0.967311198083948,60.799806427996195,-25.42824587337516
0.9213422513012945,63.37816945104368,-23.977415269364123
0.9911666512489307,59.436022500705754,-26.186457088030878
0.9931717418711972,59.31201826057296,-26.25474240851143
0.9574270601106757,61.3700096584997,-25.109812232800053
0.8494651366807388,67.19142933186156,-21.78593640728668
0.9029319644650686,64.37965004142903,-23.407244608232336
0.8776511563264352,65.72801433759234,-22.633182928515673
0.42924817014433414,83.52584219909171,-11.783042576625748
0.48205881690501573,82.04972769618831,-12.727916234029237
0.4349410119467796,83.3724915896283,-11.881513757534538
0.3560721282528322,85.27979789617811,-10.649014970068013
0.40869944117522083,84.04959924668559,-11.445510423160924
0.4165070578455918,83.8530831097853,-11.572218258688931
0.4530189827490552,82.88331142002198,-12.19539598110648
0.41078415919556227,83.99826821364026,-11.478699653587316
0.43257276620657875,83.43620665387458,-11.840536383809974
0.45309730750653376,82.8808846106304,-12.196927976374118
0.38582564083884424,84.60669045995989,-11.08551399871015
0.3755823739436998,84.84770737935753,-10.929498877177759
0.39236417120483386,84.45171791196071,-11.185902228745816
0.41734609501265874,83.83321296793012,-11.585136544007895
0.4049797118779495,84.14367167969392,-11.384938999797564
0.4033171464883117,84.18388330529633,-11.35889196304955
0.41343202848448496,83.93042766332191,-11.522403941740906
0.3964994590403043,84.35111275403719,-11.250943138027514
0.32836675643920904,85.85982207323784,-10.271576642626096
0.3458365167449581,85.50081040046476,-10.50538698681133
0.38083083381551563,84.72429663602078,-11.00947123550984
0.24418452258301876,87.33244862705601,-9.307009695157507
0.28545573073164754,86.66720290373354,-9.743768397409422
0.24529908281835314,87.31646743943932,-9.31765283196669
0.31001152949577665,86.21757843050969,-10.037935782554307
0.2801357004528644,86.75847260936686,-9.683868884754117
0.3345346180276959,85.73521260875482,-10.352832850019597
0.057932912769452366,89.04682540877117,-8.173628449475988
0.08742322989473447,88.91824607418066,-8.259039618063133
0.11060871616959951,88.78069007636232,-8.350345935109797
0.035105553344909925,89.11179328053257,-8.13045339607425
0.02171547234160162,89.1333832765511,-8.11609187944503
0.07549634161624182,88.97804140930612,-8.219328689095327
0.012595513476816056,89.14841677871699,-8.106094819959273
0.06465384768755485,89.02489360632234,-8.188204705404518
0.02946926329989141,89.12511535514288,-8.121587347031408
0.025525048353910448,89.13289131534819,-8.116415949971168
0.044113356147918295,89.09384900244422,-8.14238777527831
0.016512907353808306,89.14506011655413,-8.108328983844673
0.05776192810036994,89.04857970422852,-8.1724552586583
0.029154563767105342,89.12609754729264,-8.120941028990948
0.29227443316826346,86.54426596184118,-9.824282609477969
0.2630506829115833,87.04071234278226,-9.49879627728219
0.1969967713063403,87.96612386095553,-8.889435790818533
0.20329831841635562,87.89188615192444,-8.938488644533416
0.2281670067089147,87.56361425774163,-9.154877047974868
0.2158322641085918,87.73125225178902,-9.044420598140139
0.21567428603444494,87.7316211816913,-9.044183481678404
0.22289038951390766,87.63641920982538,-9.106883715555375
0.20671644277793091,87.84684267775027,-8.968193380631808
0.17207765034192465,88.24933325056021,-8.702379308508288
0.21013660502210502,87.80489574815198,-8.995860955173944
0.21091901726943194,87.79523137936339,-9.002263684182502
0.26368518468964997,87.0314126818478,-9.504913093578722
0.20667989128452577,87.84598653639904,-8.968757858464693
0.2257698139391199,87.59543990018751,-9.13395504685581
0.10020080494000781,88.84456957419378,-8.307928467101846
0.12394584298899951,88.68370249554727,-8.414697544663458
0.48195049508781773,82.05110013400711,-12.72698331055137
0.6874799239198796,74.72280294490322,-17.297656108867507
0.5124217080234279,81.12955212729997,-13.313045630373011
0.5370578459476677,80.33797097629304,-13.813714613838988
0.5356397360572608,80.3847157407671,-13.784224843265257
0.5242057825928358,80.75502071541918,-13.55023840110517
0.5246493752578079,80.74098016797191,-13.55913072260632
0.5248898408388314,80.73282903146436,-13.564274216758136
0.5239653170118103,80.76231220831554,-13.545595615769129
0.5001820412226862,81.50692181951813,-13.073488847910623
0.4762102134368321,82.22684833590546,-12.615114702883846
0.5253270111059389,80.71734650692656,-13.574110133340104
0.500165044600566,81.5074029558489,-13.073173816482546
0.5006788736153374,81.49236833038036,-13.082794784115343
0.4876849122187977,81.88702081881107,-12.831713170696764
0.5131590059971046,81.10587995564369,-13.328176045678296
0.938143570184119,62.45108465486031,-24.502050783043124
0.9356894570142867,62.587466497221435,-24.425017998870523
0.30247335135936704,86.35901485004341,-9.945492494689535
0.32940169901167005,85.83982134143022,-10.284546382564919
0.33734038204466016,85.67599899920181,-10.39125405891489
0.19878379713150435,87.94664967164329,-8.90229339704693
0.19031569612988652,88.04642481870678,-8.836442320284634
0.6991307899742223,74.23110146283555,-17.597099128037453
0.6842510765260089,74.85432251459977,-17.216917788556085
0.6886339266638191,74.672103876587,-17.328232273990402
0.6651417963514158,75.6414154986385,-16.735719042741493
0.6621390392850566,75.76349627187734,-16.661029108656113
0.6450521562038197,76.44157380514179,-16.24363526568692
0.6202228190378782,77.39943192767345,-15.651571110758335
0.6702272564516721,75.43363702829105,-16.863060825176106
0.6451169405940332,76.44040664356025,-16.244479722468792
0.6450203119598404,76.44357798844872,-16.242434203363796
0.6319155087591708,76.95334205911362,-15.92780244906197
0.6582217437947043,75.92105401288784,-16.56417506889528
0.5754375183371871,79.03612181585136,-14.631874052644273
0.5246311736637173,80.7396897911621,-13.559745857337658
0.5430350095366447,80.13838559222074,-13.939322073122463
0.5614817856845192,79.52024137313052,-14.32835818084675
0.5764849940533596,79.00008594823994,-14.654452770142749
0.5281995033077959,80.62575074495935,-13.631941844590981
0.5625292614006936,79.4830923652115,-14.351647483865476
0.563691466729378,79.44274360583357,-14.377112432731927
0.548813020225581,79.94812991327353,-14.059369629118553
0.5476508148968955,79.98572084762958,-14.035642593682692
0.6200850978302841,77.40456465616421,-15.648371214439862
0.6693561333482245,75.46950907603689,-16.840911616552763
0.6322981156498272,76.93956688499286,-15.93623854796821
0.6452651976429014,76.43490228563012,-16.247835236360583
0.644628424381236,76.4579812790432,-16.233425199039534
0.6575955063743101,75.94706685061387,-16.548176457015074
0.6558929620585185,76.0147715504005,-16.506649435892342
0.6776318470905986,75.12800997083002,-17.050178061198768
0.682125410796621,74.94306206265338,-17.163087122057444
0.6681881009985421,75.5177849475722,-16.811460148237863
0.667715716065318,75.53601826525266,-16.80026995629911
0.6657839189242077,75.61365186734017,-16.752644794196563
0.6701198981396519,75.43850419589916,-16.86012397338121
0.6934228818726421,74.47349009012154,-17.44941266504188
0.6899674130369392,74.60926212587756,-17.366675948687966
0.6935826581861674,74.4665408387595,-17.45368663770635
0.6800631120254005,75.03329285544196,-17.108000025584957
0.6681968019244354,75.52040329702902,-16.809968295022742
0.7149545515131607,73.54752467756452,-18.0119452110452
0.6934521565560582,74.47450938699365,-17.448928711260926
0.4917675685167967,81.7642242015563,-12.909886877059426
0.5097804079161744,81.2089154426041,-13.262652581515395
0.4731733790047568,82.31156483545894,-12.561004483801014
0.48157807786276285,82.06762234938455,-12.716736473201795
0.8087220200055175,69.22057687263508,-20.597094913352162
0.8498777225599035,67.1733391708624,-21.79569451764737
0.8206497813648352,68.64279649984968,-20.937210795570827
0.8323387972488924,68.06558801116182,-21.27492719792702
0.736889400272126,72.58270818379542,-18.594287624559115
0.7605328408253631,71.50899817270232,-19.238386362778886
0.715031981527999,73.54670981594903,-18.01230130706405
0.738289723510389,72.52143661647548,-18.63124319112331
0.7369518115200174,72.57992491936562,-18.595974634747936
0.7484650739079847,72.06213030609965,-18.907136688259328
0.7267764611224307,73.0322230012631,-18.32351097114432
0.7375466719226466,72.55503900995745,-18.610943981442567
0.7600498825070441,71.53120521271153,-19.225116402652926
0.7151686137647405,73.54103246120923,-18.015619759627512
0.7433259243056983,72.29418541855364,-18.767804737109312
0.7428941877776131,72.31339948195522,-18.756209373350224
0.731949294154475,72.8031306452523,-18.461438975450264
0.7315175576263898,72.82292195771323,-18.44944438674882
0.8281008823484451,68.27088116300797,-21.155279605470376
0.8075732687389764,69.27619512276006,-20.56424551629897
0.8511458478813575,67.1057581877586,-21.83528048515908
0.8206827389035495,68.64058101672619,-20.938399204667455
0.8347556738368926,67.93808759384045,-21.35020360915603
0.8336398801090623,67.99584409375238,-21.316553585753013
0.8217985326313687,68.58110359730816,-20.97339790823674
0.9175686275991792,63.587350226314896,-23.85874641315959
0.9491888288524722,61.833822786132046,-24.849444964663746
0.9022456548552749,64.41911449937058,-23.384639175793613
0.9266287311751473,63.08968667047398,-24.14160648535762
0.9192597603830742,63.49614357507266,-23.910870370911315
0.9383654032337713,62.439105315892576,-24.509187718781384
0.9149874228324624,63.729227787729386,-23.77848082654353
0.9764066123190431,60.277737612837626,-25.719086537794404
0.9496621427207674,61.80721164109626,-24.864644998825952
0.8993617561474418,64.5741151618997,-23.295807438691995
0.9362009565815866,62.567131367734376,-24.436691098251806
0.9104123913407444,63.978132106465935,-23.63659001990765
0.930005760603151,62.90700753456323,-24.24466090817061
0.9215803858151377,63.36695292970003,-23.983776194593876
0.8723979592763768,66.00961116631136,-22.470870837222833
0.8385694026947018,67.74101023405701,-21.46513196128542
0.8759886117657917,65.81572604375944,-22.58278745936235
0.890360418803582,65.05667146111843,-23.01940843305764
0.888119229861188,65.17692239915264,-22.950736771568213
0.9094289791467153,64.03139221426956,-23.606284227050413
0.8787812339420547,65.67158747456794,-22.665975308884924
0.887301983255238,65.21941073238847,-22.92604066926725
0.8983526184485441,64.62915922052233,-23.264891102977426
0.48824840579761697,81.86796688378358,-12.843913013509653
0.46460759765916276,82.55957020571114,-12.402651239246326
0.46419104112600085,82.57092503320564,-12.395349314814334
0.4758130060622189,82.23499789765312,-12.609848745709499
0.4767260658794361,82.20837243358532,-12.626887425065458
0.4768733320336867,82.20398495409042,-12.629646739961956
0.47566573990796907,82.2396134154472,-12.606910577426122
0.42642828489446843,83.59474846717757,-11.738451461647244
0.4761161551010911,82.22639528424598,-12.615433009951817
0.44237958290555196,83.17326245948294,-12.009368957303547
0.45880362974820776,82.72043495430766,-12.29963158607508
0.45755772472440964,82.75525641999596,-12.277344557430679
0.4436254879293511,83.13797314315619,-12.031992953190478
0.3828612620511283,84.6739806248037,-11.042037923817274
0.3361333538507958,85.7019260780059,-10.374439899632476
0.36741890896928575,85.02825754524895,-10.812360637927146
0.368684017115999,84.99990108289782,-10.830798819390433
0.35436867272274525,85.31668320772494,-10.625084749020557
0.3531035645760325,85.34434044969005,-10.607103599304446
0.3570507401766065,85.26012906955839,-10.661888345140683
0.38049350045061636,84.72987626101605,-11.005783297361784
0.3342895112898958,85.73945434999096,-10.349967629639847
0.35811209765891555,85.23670401404,-10.677067902322117
0.3566664694703844,85.26834823972256,-10.656529339144637
0.368614052263126,85.00356209937027,-10.828382991142107
0.3461645148661734,85.49370452741711,-10.510027001165048
0.4287931106032188,83.53360224399287,-11.777869898921931
0.4781428611041679,82.16616396701914,-12.653799849724946
0.46319516146003575,82.59793098433379,-12.378098844019355
0.44599031363810154,83.0755193438171,-12.07219081378345
0.2736293952855586,86.86813174191906,-9.612053955635002
0.2972354237024749,86.45702371802575,-9.881420447563587
0.2987089888924886,86.42966910592536,-9.89936208500161
0.28678757417479295,86.64171678705031,-9.760461961548302
0.2853776994974794,86.66627759880153,-9.744318350458197
0.2853312883560612,86.66778117568892,-9.743353012639709
0.28683398531621035,86.64120073389087,-9.760813157891011
0.31130839153070977,86.19348674035797,-10.053713369136565
0.310012756063119,86.21814484425641,-10.037584138870988
0.31130839153071,86.19393657419752,-10.053448946628574
0.31046901934969523,86.2087322019913,-10.043724629868887
0.3339615131686791,85.7457920204132,-10.345904762309031
0.286534234861211,86.64762999806574,-9.756588869062737
0.31812684237956973,86.06063445871114,-10.140404242203424
0.30142568796873115,86.37643921986502,-9.934106836059872
0.0651355043452615,89.02310341990984,-8.189382310184937
0.053708607133635025,89.06199137600427,-8.163557669184733
0.09992289813697991,88.84597491598039,-8.307021443297925
0.08529313220136156,88.92808181558925,-8.252495266898553
0.07028965900721397,88.999845190998,-8.204832992475025
0.006345526422199843,89.14846263722993,-8.106064618742835
0.01016738093160846,89.15122166416212,-8.104235550894103
0.05595812328383603,89.05647598496203,-8.167212368141636
0.05126819609132764,89.0710055329613,-8.157557862211615
0.09559183216760668,88.87305342466415,-8.289033256915385
0.06898515789721042,89.00640353032927,-8.200484213649798
0.07014110904410763,89.00092189383356,-8.204123527604954
0.16772172920605416,88.29350169247694,-8.673101884501364
0.19017317965279792,88.04790258178494,-8.835448656260718
0.13938282025875318,88.56155674958107,-8.495637336403599
0.16588146443019167,88.313081999891,-8.66015833554316
0.1671243990472619,88.29892486911899,-8.669505340076633
0.17771131627584696,88.18827029125245,-8.742674178333399
0.15529454720160663,88.41620410001296,-8.591914730421365
0.2385314406931989,87.41574284283382,-9.252200695596201
0.286159693098189,86.65213292844179,-9.75367293002305
0.27099093971037885,86.91339969800893,-9.582382619219569
0.25387814590493085,87.1869226119348,-9.402756520698395
0.23591408804904834,87.45240848961616,-9.228050106942332
0.2845784768732954,86.68127526523355,-9.734581656174912
0.2512607932607805,87.2254540090439,-9.37739412954082
0.2501330968299765,87.24309023597779,-9.3658085401325
0.2656646744105306,86.99703034528156,-9.527453302997746
0.26679237084133445,86.97984197147531,-9.538747318792248
0.1927883537937914,88.01628795142844,-8.856355982432206
0.14165175534371363,88.538851736825,-8.51068710529463
0.16853828004296165,88.28542365670104,-8.67844050745192
0.17064170092021516,88.26415929069637,-8.69251011299555
0.15743960955063646,88.3968687861982,-8.604680382847576
0.18174037141253988,88.14510517971634,-8.771270507120743
0.14590011909604067,88.50178475817201,-8.535239033711303
0.11849843811963416,88.72300538233955,-8.388600368528495
0.11439704810010659,88.75313319551964,-8.36864303635856
0.12698895585464695,88.66003050374822,-8.430406112691404
0.12124748133220085,88.70421830430084,-8.401071854769842
0.15081097635335955,88.45877969226916,-8.563745291290822
0.10725597136101882,88.80265453240014,-8.33575113837802
0.11986215256533776,88.71449959843851,-8.3942531328131
0.14642905567978906,88.49985353009065,-8.536523091449254
0.5004880725983585,81.49812529683203,-13.079104864000692
0.5236458659181378,80.77089196283698,-13.540248634466753
0.4763637346725987,82.22198937741851,-12.618200234206489
0.4998790462261965,81.5154239229366,-13.068033615668442
0.5007218696936144,81.490911930558,-13.08367419255295
0.5119714468726912,81.14219474055281,-13.305105227928362
0.4886294690471227,81.85754992439854,-12.850423248103217
0.49544632145057926,81.65047125283168,-12.982170983185203
0.5300690045313867,80.56591826370355,-13.669724004037574
0.5144518056330365,81.06426436979129,-13.354312381436458
0.4963675357112009,81.62387175553694,-12.999191720246504
0.564844173505044,79.40781755583745,-14.398865505394763
0.5769722435018765,78.97610641338467,-14.669211336438497
0.5758072808175628,79.02075724480666,-14.64134338102322
0.5791396583107936,78.90474960508219,-14.71410493784269
0.5242421861296311,80.75565101146613,-13.549912274121201
0.5532471361896745,79.7981500412866,-14.153678494566607
0.5421203430291067,80.1715156306716,-13.918732132378649
0.5589633512445719,79.60486085597486,-14.275182273645564
0.5361052091723114,80.3705490203682,-13.793286182478374
0.5415243089208391,80.18700893903785,-13.908902965594875
0.5536107525037799,79.78736224104435,-14.160455921868005
0.5530221286556435,79.80807932887998,-14.147602498555642
0.5299392372379069,80.56941684718899,-13.667491831659587
0.5651267740270834,79.39091834161083,-14.409385676162257
0.5415772527465627,80.18974036268874,-13.907210558827922
0.5300768520232086,80.5662936373786,-13.669717893039902
0.5421974863406094,80.16625142205224,-13.922030249413872
0.5770077511476536,78.97702336576438,-14.668800864191281
0.5535336091922775,79.78980423504647,-14.15908607352232
0.5000802271910503,81.50960220448736,-13.071772088017335
0.5183215941782848,80.93842286852357,-13.434057781295826
0.4707348359179446,82.38517383621894,-12.513984899027502
0.5002124153920001,81.50370645881202,-13.0754115520901
0.4822569054913466,82.04906542124445,-12.728448088267994
0.5304422284956828,80.55075163988376,-13.679347137618354
0.470269293839926,82.39564919827629,-12.507168606845012
0.8903077734616381,65.06166192134184,-23.016904960247267
0.913707960896654,63.79879827735578,-23.73860457120189
0.9330563129916093,62.730045738386245,-24.34490958089461
0.9046713434765097,64.28803477664243,-23.45963001863761
0.9030495414388311,64.37732474988054,-23.408686332946587
0.9034981215579067,64.35260733143177,-23.42270389588919
0.904222763357433,64.3130135892378,-23.445297587817315
0.9231946463713605,63.27895159084221,-24.0335104384917
0.891785998374977,64.98012635641899,-23.063657055695593
0.9526432238021257,61.636006743268545,-24.960439759350134
0.924154620108289,63.224556949838714,-24.06422689350678
0.9267963856667654,63.07554922793194,-24.148829355448495
0.9487045094251337,61.855714755281184,-24.83754371546542
0.924490234938664,63.20352376293457,-24.07682242650465
0.8995393631312946,64.56258957571978,-23.302728543133064
0.9154192252738943,63.6991369458465,-23.794549186876164
0.9152170348544695,63.71447769859865,-23.786302881655992
0.9538493096223906,61.56742162244681,-24.999469807965784
0.911824433520686,63.89841253016048,-23.681734475702523
0.9233310538503098,63.26996568515515,-24.03886517646806
0.9272033609103433,63.054063661172094,-24.16146193042989
0.8791332308307226,65.655036234057,-22.675926893241453
0.892570874867714,64.93878849437652,-23.08708072110104
0.8462397280538088,67.35315969614514,-21.691350465719403
0.8867941688480719,65.24600229215146,-22.910904542089938
0.8808241676273705,65.5608694695419,-22.729281528367913
0.8744464042985393,65.89790400451804,-22.535267633333568
0.8684764030778367,66.2073275425822,-22.356029035072194
0.8602036312335148,66.6411375279268,-22.105297134651053
0.8387105153031458,67.73570317551608,-21.468328737897338
0.904894635022348,64.27237299435292,-23.468052729376947
0.8790793173977108,65.65587649897233,-22.675131911902334
0.8852660902304681,65.32688404887767,-22.864088217977603
0.8735193829901233,65.94633441031077,-22.50698487662541
0.8536424056899347,66.97608518387823,-21.91079982375837
0.9039346612854268,64.32424613368288,-23.438367486454815
0.31900763989006103,86.04524736347447,-10.150550437425872
0.13271299379485615,88.61659898428694,-8.459167072431176
0.15540956834476083,88.41589040867875,-8.592104738337262
0.17223964779340176,88.24628054567141,-8.704328727289791
0.15846137914091948,88.38640711358404,-8.611630982603296
0.14401564331712585,88.51947871486762,-8.523523347076155
0.14353333430148799,88.52341307025426,-8.520924335579316
0.14328557728565297,88.52413826364929,-8.520424887398399
0.17261259872305557,88.2428278542569,-8.706647463797113
0.14333680427202514,88.52552259847509,-8.51951720647146
0.188094341115679,88.07154875649417,-8.819802901079578
0.17003560141992505,88.26882466549863,-8.689431130041791
0.16371044507015875,88.33388005739194,-8.64639175634635
0.19606581204745066,87.98120398396006,-8.879512522729494
0.16486538371105766,88.32000494415442,-8.655541430619676
0.15426100278844476,88.42682563992683,-8.584885090866663
0.16504568797323163,88.31973251365417,-8.655748812297725
0.1507961085949557,88.45798580766501,-8.564237417102339
0.1786549878373386,88.17952174530802,-8.74848181848539
0.14054769035019826,88.54919582321995,-8.50383544787781
0.16799622928195265,88.2910020904463,-8.674760751611611
0.1653382608686741,88.31738740814203,-8.657310343669259
0.12010372689068254,88.71440974049867,-8.394305985056958
0.15181684857228775,88.44781869490807,-8.57092663128975
0.10343327217469316,88.82437628854022,-8.321324430767229
0.11437080297057982,88.75300645499,-8.368678554474883
0.13028708564784766,88.6330000189774,-8.44831321518143
0.11850698872197758,88.72254774232518,-8.388902772185538
0.12615089989645,88.66594323057924,-8.426449746464264
0.12399442592346356,88.68367865106163,-8.414694283419093
0.09476377532063733,88.87791758091328,-8.285820580288425
0.1528872308463171,88.43940358229833,-8.576565201676427
0.09494239566857203,88.87563282160107,-8.287324327756544
0.1439018099568226,88.52091984058941,-8.52255592674316
0.12471746759476084,88.6782405610817,-8.418312574435683
0.10964375104747659,88.78509266163887,-8.347415196638796
0.15922109400847945,88.3783430352198,-8.616963477453035
0.6772199223668851,75.149308992175,-17.037117265198205
0.6994752534601978,74.2170283592118,-17.605519494945582
0.6697974269885325,75.4543430392707,-16.850523135434383
0.5463204160123417,80.03134213784715,-14.006937933501455
0.57160316925865,79.16856960493608,-14.548874040319232
0.5242981379486501,80.75240936591051,-13.551847919158313
0.5496869513258912,79.91902799205857,-14.077738041485969
0.5465224268921137,80.0246332713394,-14.011142670110193
0.5596835730349796,79.58005427568288,-14.290755117791246
0.5365258051830287,80.3560772615094,-13.802349587842853
0.5654613330768593,79.38508694225769,-14.413166589296408
0.5950310652014877,78.33332433624535,-15.071047129074756
0.6034072387848177,78.02576843397738,-15.26260022079622
0.5950033887572214,78.33208407148011,-15.07161742692396
0.6129858097713556,77.66931232904004,-15.484151858414355
0.6074707256180638,77.87545452731618,-15.356139770571204
0.6073379680406462,77.88218783243676,-15.351946298391356
0.6318535172587737,76.95557444132211,-15.926504944679696
0.6312176140633394,76.97916208363796,-15.91187002916561
0.6200754681341529,77.40417792050297,-15.648685792873364
0.6192083373557956,77.43682978269847,-15.628445491325184
0.6199380762956039,77.40948376340152,-15.645454014896156
0.619345729194343,77.43103732207794,-15.631962458099641
0.583481221198937,78.74955594348393,-14.811242612299507
0.5607328305438062,79.54591910700705,-14.312334305296929
0.5579806613853286,79.6392150515559,-14.253641059972862
0.5708184065306032,79.19493199997494,-14.532347470984675
0.5715616249752644,79.1694177874401,-14.548405930140069
0.5723193073004798,79.14240325624128,-14.565235117672437
0.5700607242053873,79.22169098173278,-14.515599086345217
0.5972835726644135,78.25268442246846,-15.121263236552997
0.5976075558745566,78.24162849096375,-15.128140609261576
0.59036256964456,78.50105637832252,-14.966259149711933
0.6199785136824907,77.4067386950933,-15.647200646973328
0.60341171349777,78.02622707941663,-15.262326199037672
0.59036704435751,78.50097219145694,-14.96632764781083
0.5726078341200826,79.13579027349118,-14.569492829668702
0.5950129745684641,78.33192705215247,-15.071732345639798
0.5943981130924001,78.35520810738184,-15.057293581766174
0.5942375868913663,78.36166104446494,-15.053263019750288
0.6193426104870604,77.42941798116925,-15.633117984747056
0.5819357277816664,78.80485882674077,-14.776542235221891
0.5698556649616058,79.23210107250075,-14.509069649747836
0.6173920530180571,77.50548180969749,-15.585702760445571
0.6642881073699839,75.67341911850342,-16.715608508197352
0.6322701331131381,76.9379565864816,-15.937197505070644
0.6474312078643712,76.34270103114436,-16.304158638095867
0.6172543318104614,77.5109079198769,-15.582248891785387
0.6651592304734399,75.6395209070756,-16.736602478992374
0.6481646097602312,76.318048904192,-16.319560287699364
0.632090286785357,76.94782718552824,-15.93098864977843
0.6481224846400443,76.32032168714555,-16.318256173839135
0.6321324119055426,76.94394989372014,-15.93339719191345
0.5684282864121409,79.28079984405593,-14.478720845335989
0.6057828670429829,77.94313684096042,-15.313977070670164
0.5779756573051411,78.94747653978186,-14.68755887664251
0.5887316218511841,78.5649509863726,-14.926452063459807
0.5976581285126755,78.23921886743605,-15.129526713107898
0.6175406646133705,77.50269876218302,-15.587463735885514
0.5976521485219495,78.24011844663094,-15.129052549939779
0.6259812209900092,77.17963703035345,-15.787589782745748
0.6114951498811806,77.7283244769481,-15.447317510229224
0.5705556935424766,79.20636383167151,-14.525193331505688
0.5207298083045742,80.86585545450889,-13.479935003423329
0.5592182333196806,79.5967066153501,-14.280431518310204
0.5471045628929908,80.00590573760725,-14.022997121254935
0.5335396115398263,80.455451752583,-13.73953851153665
0.5456532819665144,80.05330475099764,-13.99311516559743
0.6081776595644378,77.85214205970948,-15.37072830575411
0.6251056990306949,77.21400774738059,-15.7664793946686
0.5773599914747133,78.9656375468967,-14.675928204247475
0.582228626634337,78.79579700660747,-14.78226298627287
0.5961686993074077,78.29367218504728,-15.095788253747651
0.5708911664115403,79.19412628602215,-14.532986963975798
0.5941929942439738,78.3623798840736,-15.052744639243256
0.6202529561763799,77.40019435063208,-15.65126107773631
0.5645144132421593,79.41374949967194,-14.395145842231912
0.6873140042009435,74.72961599805541,-17.293327833735336
0.6748703879373237,75.24419373108145,-16.9790419379496
0.7145697560029152,73.56809563771617,-17.999348647220636
0.6627003115670845,75.73926015785766,-16.675614974900395
0.7042589309181839,74.01196021262774,-17.7303604743882
0.7196837566575062,73.34340009727786,-18.135349655815492
0.6740523388456049,75.27893097536153,-16.95779835249935
0.6917981771234355,74.53919443909243,-17.409406953424227
0.7256605487844147,73.08159195622125,-18.293645274898658
0.7023029564774709,74.0937190829551,-17.680586359369183
0.7032577134194063,74.05460755568375,-17.704291280594603
0.715258521652594,73.53842421187325,-18.017356412199817
0.7139486919237069,73.59318808114038,-17.984201818909927
0.7142050205624793,73.58230512184885,-17.99079832076223
0.715002193013833,73.54829274488938,-18.01144095466921
0.7547022536712661,71.78511592970526,-19.073118664878365
0.7830405357258193,70.45785168530615,-19.86483294210577
0.7671060891884189,71.20370553836288,-19.420412495112434
0.7656717821709885,71.27217078978232,-19.379819938167135
0.7543287062106421,71.79652276531841,-19.066235017911044
0.7140738070353364,73.58903528447041,-17.986847667128774
0.7431145444828048,72.30315044134488,-18.76234925531057
0.742849674645565,72.31811991236214,-18.753361656716027
0.7488411767833244,72.04542989750416,-18.91713970650696
0.725975871120343,73.06906124582297,-18.30134856245984
0.7313982691066112,72.82150108430037,-18.45047212400437
0.7429446397458536,72.31322726686521,-18.756551224288746
0.7429147050100364,72.31535563953511,-18.755297719207064
0.7547456756549832,71.77405920790373,-19.079579708581292
0.7080032970206669,73.84250993860104,-17.832831129865504
0.7314857240216611,72.82472503690346,-18.44863220693533
0.7660548024831064,71.25335000543825,-19.391001148755237
0.7315083150712475,72.82407024173087,-18.44904742874809
0.7314133499709636,72.82498477432691,-18.448427784256218
0.6130606998751749,77.66912242792162,-15.484394223548474
0.6192043543811634,77.43907665567025,-15.62719426267085
0.6482005972246623,76.31575749010403,-16.321152130254415
0.6482555591144473,76.31742465806519,-16.32013659555441
0.6539121102947598,76.09097775422944,-16.459534624918035
0.6310747236963096,76.98597603522157,-15.907825974975621
0.636782924453995,76.75850464412726,-16.048191288879888
0.6482522659578236,76.31746489572794,-16.32035343551954
0.6600485253910526,75.84149613017004,-16.612682670238122
0.6482060957531441,76.31791733996691,-16.320044316570637
0.6130306523249337,77.66717975024497,-15.485315967080181
0.6367824923203173,76.76409967386937,-16.04480261774679
0.6368384827921981,76.76379522267025,-16.045053358939814
0.6719000660457534,75.36198067649767,-16.90674493413423
0.6249343623469497,77.21985318968811,-15.763138797922878
0.6368417759488231,76.76054781509879,-16.04700777939376
0.7033835404280617,74.05118041047575,-17.706432656072877
0.7195232878820809,73.34010788590511,-18.137331653356398
0.7197834994094285,73.33645176023298,-18.139443151218586
0.708745863919949,73.81756054076291,-17.84812493119255
0.6743304369108841,75.26732502410947,-16.964800820582774
0.6600815389136768,75.84873042112982,-16.608348347657678
0.667733648260569,75.53870593961312,-16.798780227267066
0.6899673905311287,74.61565559450815,-17.362848647712934
0.6918004660298636,74.53936602282778,-17.409328734424253
0.7020393858743663,74.10568191080736,-17.67342740370463
0.679556402267367,75.05137148329864,-17.096887314318174
0.6899601485667889,74.61601496945953,-17.36258380686162
0.6916356395749401,74.54668964442334,-17.404898270744273
0.6899445084458664,74.61652574440411,-17.362286502445226
0.6601003878393078,75.84728197712859,-16.609312295904125
0.6899372664815303,74.61513710341826,-17.36291074693353
0.6719002597608461,75.36899034462671,-16.902589041001722
0.7196786110249941,73.34438844126849,-18.135015503999217
0.7078807805625401,73.84893521596051,-17.82899583050872
0.7078715120402779,73.85683386717358,-17.824394110143444
0.7196155195085014,73.34212190783079,-18.136120646513618
0.6600554310359847,75.84516958413566,-16.61046455609486
0.5178155300986789,80.95917551358407,-13.421065630608059
0.48385970205144074,81.99905113653976,-12.760307838898365
0.533535966972234,80.45325122691418,-13.74089045543326
0.502171330331442,81.44459678829527,-13.113104837739947
0.5079086006766842,81.26957548211402,-13.224185424653548
0.5206415004528793,80.86622986340892,-13.479839713871666
0.5258890430940402,80.69836635634242,-13.585998496513174
0.9711345686185564,60.58304241601901,-25.549212152420974
0.9785024348769361,60.166404895506275,-25.780847049854295
0.023524602644946033,89.13330051472079,-8.116153847310628
0.8091323427917071,69.20362281911098,-20.607096118905005
0.7993145502426601,69.67947429078515,-20.326302638771686
0.8231435596313107,68.5114041205415,-21.013979955271523
0.8679181414242998,66.23904170424287,-22.338551094971294
0.8677285828096949,66.25112780547215,-22.33149314862891
0.856633898934128,66.82443129612457,-21.998776838336795
0.8565396493613473,66.82890045898377,-21.99618560104342
0.8564532046611413,66.83348783124127,-21.99372642387478
0.8567203436343348,66.82070864907658,-22.001199009485674
0.8297200956514741,68.18619843382177,-21.204819076312855
0.8025773284976117,69.52010783349533,-20.420051173900493
0.8468973198306186,67.32118534521553,-21.710077623240906
0.8270932255315849,68.3170484255547,-21.12803853790013
0.8296316786097365,68.18988047115795,-21.202811812319524
0.8565914801672216,66.82558866244302,-21.998206626776224
0.8096728902684658,69.17550084214244,-20.623659483747854
0.8353779361309188,67.90315460651973,-21.370489808364326
0.8060437076982161,69.35340254268993,-20.518873858141
0.8286849364941093,68.24038553937552,-21.17311438017777
0.8278711426551613,68.2749081973167,-21.152640381298976
0.8417796104091394,67.5820821993707,-21.55821191157759
0.8181625836785916,68.7597683537877,-20.868410447439025
0.8267649585458513,68.3334170495536,-21.118618189309554
0.699642374693939,74.2092621713297,-17.61020001143758
0.6925528848686779,74.50840846776389,-17.4281034476688
0.7076473874113925,73.86727695520045,-17.81796139766381
0.7200810505802364,73.32615779040647,-18.14561996333658
0.6895158497067077,74.63699524089058,-17.349916078076618
0.7077411465128913,73.85969098657662,-17.822543522841425
0.7093695538442892,73.78978178577171,-17.864917104013035
0.7616817341141571,71.45513173219486,-19.270541352227955
0.7160072937150221,73.50460698062095,-18.03780745704255
0.7327879741047557,72.76668615443077,-18.48349936832489
0.7457964558630923,72.18217477445114,-18.834940952768754
0.8392827109159623,67.70691224042733,-21.48528816114368
0.8073333181540907,69.28174812422508,-20.560867713958086
0.8554491266939258,66.88503713953934,-21.963821111568482
0.8317236968979396,68.08691795167647,-21.263084468247776
0.8331214508613156,68.02051015103545,-21.302259413316794
0.8204042602406963,68.65072927146437,-20.932641871693377
0.8444408875185607,67.44883702733172,-21.635940561660377
0.8088968093121135,69.21267534732684,-20.60153477358161
0.7848760877702841,70.37121487276974,-19.91619073022903
0.7853876813290948,70.3492245243438,-19.92893949453286
0.7840897660663442,70.40832633975427,-19.894289351609057
0.7985363969923897,69.71619973285902,-20.30444850635115
0.7723572870317373,70.96195621571475,-19.564922383464552
0.7723211279301282,70.9627679548212,-19.564573844218344
0.7484687255242665,72.06331954176515,-18.906494919648726
0.7485752744463706,72.05779528553187,-18.909799364184632
0.7603104763318784,71.52002527848242,-19.231808904173356
0.7606899967579448,71.50230351040929,-19.242347607353008
0.7605173849716659,71.51043785797046,-19.237479582096892
0.7604830881181661,71.51192090879304,-19.236587178959297
0.7971138097801848,69.78493918873806,-20.263903849734888
0.8160541905737004,68.86396649688123,-20.806905434334347
0.8270483344163512,68.31805481183878,-21.127671073809175
0.808948511589498,69.21219311549989,-20.6020700342316
0.8087960500153638,69.22024290781187,-20.597394347680247
0.8084656974684812,69.23549384372241,-20.588326046089644
0.8092788641363742,69.19618759862486,-20.6115108901501
0.7842997580109686,70.39793023019168,-19.900528566083988
0.7603437291005498,71.5227519077929,-19.230180538361324
0.8041791869974149,69.44093202213244,-20.4669863610263
0.7846322153661842,70.38171056799573,-19.90997105337297
0.7841069946698682,70.40770463538597,-19.89472125505765
0.7723923885479411,70.96075388364397,-19.565615049089335
0.796590693892207,69.8103109372277,-20.248950149286184
0.7845185481730667,70.38709781867145,-19.906892135029278
0.7842103237385036,70.40125353780596,-19.898444090189276
0.7849987270146704,70.365049138366,-19.920077728227596
0.7604494733599455,71.5159261736732,-19.234274939864534
0.7974030558973952,69.7724419872069,-20.271411043208065
0.8055109438771673,69.37829502534387,-20.503959265975315
0.8263550670619031,68.3534538728221,-21.10664825776751
0.808482069420628,69.227882492077,-20.59267406906532
0.85418100137247,66.9499473418424,-21.925812608860593
0.8303747841820243,68.15304087928568,-21.224255596516265
0.8179065962582529,68.77339050407717,-20.860357730975768
0.8293556615574107,68.20642719303245,-21.19271930927371
0.8418238494811869,67.57832154478301,-21.56015836172543
0.7582212645052698,71.61609038633893,-19.174437533757008
0.7832332990669212,70.4483186684954,-19.870585822686753
0.7987340252443654,69.70722169042386,-20.309787270092183
0.8073384435648927,69.28989228211739,-20.55608206318049
0.7948985995695997,69.89130295396315,-20.201101479365967
0.805231927088869,69.393552506446,-20.495213282674413
0.7636100160218602,71.36633461963646,-19.32351105132458
0.7528737486502971,71.86207919025101,-19.027158199443825
0.770828825986894,71.032793056254,-19.522875400452865
0.7369227043673958,72.5810582137561,-18.595279435222782
0.7621646924324732,71.43296017277149,-19.283832639172246
0.7158706614782816,73.51080089152057,-18.03410204898275
0.7407935591630523,72.40802347423741,-18.69933686003771
0.7369851156152872,72.5785487072182,-18.596837678248846
0.7276484451679788,72.99337181028861,-18.34676362150066
0.7501302296103649,71.98619768553614,-18.95287380894966
0.8062474498869823,69.3457096487935,-20.523371371176093
0.7844038917423038,70.39217133902712,-19.90390417590357
0.7538308873526836,71.81713069209044,-19.054084722272247
0.7673196899132906,71.19528549953945,-19.425914234924036
0.7960854559191229,69.83481336554561,-20.23451302715911
0.7732216915802048,70.92051173579061,-19.589746135170298
0.7611872287580935,71.48033974090322,-19.255811464509478
0.7995309978723539,69.6696371745498,-20.331944003478153
0.8088919589640583,69.21562493278007,-20.5998796143522
0.9807353569734284,60.02868790670155,-25.857329499697276
0.9511490843692186,61.72018522686392,-24.913081408438973
0.9887324396643827,59.581905117580945,-26.105712658341986
0.9719743072381973,60.536601453260594,-25.57568013171343
0.9795454435148426,60.09903540054726,-25.81849138933085
0.9273744257225865,63.045282903959915,-24.1659608145993
0.938491452849887,62.42670071506453,-24.51623686283657
0.9492701789609167,61.8275678219943,-24.853543342536344
0.9292301657844679,62.94556942918035,-24.22296646138977
0.9530095710027401,61.614919135206414,-24.97264798091007
0.9511242706319195,61.72002895542249,-24.91367557073572
0.971022025985581,60.59123563084585,-25.545168407176075
0.9928426559286846,59.330714567804286,-26.244553716851325
0.9815750955930677,59.98276649919476,-25.883405697387264
0.9696404291856465,60.670652441197944,-25.50045029479679
0.9860143977998784,59.73612872713178,-26.020627377853494
0.9398692363655089,62.356122070563316,-24.55569153021236
0.9757834202056002,60.31595059573491,-25.697625546260365
0.991652742470099,59.394849600810836,-26.208621621134995
0.9565187771790378,61.41784571304857,-25.082753657658255
0.9689016465220665,60.71092893599599,-25.478398860668076
0.988732439664385,59.56993716966207,-26.112000892443184
0.9692492682477336,60.69086099498552,-25.489195050360518
0.9492490782854852,61.82752466610224,-24.8527579923941
0.9033242908879358,64.35672192855932,-23.419871995265158
0.9352769108054885,62.60681238028858,-24.413987164249317
0.9205960906060311,63.41464664658404,-23.956229257370747
0.9497223921537794,61.80469939413068,-24.86586486165
0.9062081895957681,64.20200764011082,-23.50844078793748
0.9243487105773203,63.21338201217891,-24.071075741406144
0.9239533031821554,63.23453579250515,-24.05895689477532
0.9361456320689457,62.560299491825994,-24.44047934164033
0.9357502246737815,62.582732806996134,-24.42763050038184
0.9720728152077905,60.53242095133505,-25.577667865400954
0.9800500898645693,60.07469936177165,-25.832037263683695
0.9481127089266842,61.89453179935252,-24.815601712743415
0.9712167411135011,60.58641602904249,-25.547884829362747
0.9492833590512402,61.82226936241311,-24.855708749197774
0.9728927457932595,60.48846197617925,-25.60226501280511
0.9686260761342913,60.730277561610485,-25.46714809181386
0.9343098229174721,62.66117775664537,-24.383479411138705
0.9589511632011752,61.28564373460951,-25.15701721709202
0.9901761114597346,59.480936387196195,-26.16142637704419
0.9931717418711926,59.317676519337084,-26.251897499950488
0.9665827237787744,60.838800110268046,-25.4068939150786
0.9444391878397803,62.1082859589803,-24.69560869845984
0.983347853330918,59.8799485929948,-25.94081307769366
0.9808459145258505,60.025725180002745,-25.859277003018814
0.9382439918613404,62.44072665841688,-24.507913595370926
0.8652107817559787,66.38020204684692,-22.256152843514354
0.8752233414321562,65.85693505024494,-22.559038021865806
0.8875350366478029,65.20645936892613,-22.93318469187102
0.8568271936854643,66.80780858821477,-22.008263072403427
0.8560619233518286,66.84852699651687,-21.984870782973374
0.8986632194248119,64.61287436419714,-23.273832984358247
0.8798578142646001,65.61205520679277,-22.70023109280788
0.8789031254406232,65.66560334532016,-22.66957683619815
0.8823351840249334,65.48117602821355,-22.77514915182327
0.8855049219205027,65.31353498960596,-22.87185106160237
0.8736516937804089,65.93960577999837,-22.511072813242148
0.8704819558848446,66.10446147930769,-22.415591298490376
0.8433660074494894,67.50123011722212,-21.60521802968695
0.8935722164827188,64.88131585388501,-23.119861261167664
0.9025880561866221,64.39924282744906,-23.395720631942694
0.8548698638059248,66.91327938401774,-21.94740297822477
0.8748914852439866,65.87352347227417,-22.549050578803396
0.8412967433827733,67.6049771316544,-21.544735541015392
0.8901715589097053,65.06389039590503,-23.015083778245778
0.8921552460190321,64.96309616538701,-23.07326374194158
0.8718241618117529,66.0351409267444,-22.456071827114616
0.9055088547069869,64.24463049709884,-23.484617164488785
0.8764782604474068,65.79282194734849,-22.59590475786897
0.8578459697610191,66.76215428542426,-22.03529800269342
0.8633034124985639,66.4814635324395,-22.19807063409733
0.8421880828982652,67.5616695300853,-21.57006741250429
0.850774927055877,67.12778362361055,-21.82309100865376
0.2971716970205309,86.45506751766851,-9.882662674539086
0.3373984619975097,85.67557128982548,-10.391596344306954
0.43542986517706866,83.35804750253627,-11.890805015044428
0.42313192566791435,83.683457252127,-11.681587822305884
0.4231905890622885,83.68015012362412,-11.683636901794063
0.42168484603058864,83.7198725556188,-11.658089661893941
0.47585654725522725,82.23405575607873,-12.610501923211196
0.45874722426652037,82.72445584557761,-12.297021746628355
0.45825159891815553,82.73654219807949,-12.289311699479633
0.44111067909695245,83.20974421132004,-11.986174669207315
0.46396956314534976,82.57639640512025,-12.391760428346108
0.4586497632217356,82.7274954748718,-12.295219009977739
0.44629679946242085,83.0646012647189,-12.079192080721333
0.44723895719209567,83.04351064951308,-12.092752026566975
0.4350918956653206,83.36950295331239,-11.883594254588886
0.44733641823688464,83.03816413294273,-12.09617048761655
0.4701385830280335,82.39724377581486,-12.506178679317049
0.4578293074605036,82.75139687609875,-12.279938955328113
0.4230127888732975,83.6845156541507,-11.680830496613314
0.446381229441744,83.06686209756931,-12.077754161137404
0.5096847438145352,81.21243878798673,-13.260297032263317
0.3787903563829231,84.7684480462143,-10.980743515816643
0.3317381121185431,85.78997406879817,-10.316935910455692
0.36001440926059997,85.1925070241749,-10.705709795375576
0.36150416074018016,85.16043325290224,-10.726566893593802
0.34700517877608683,85.47431474063268,-10.52256289532943
0.34551542729650603,85.50611825795237,-10.501839362760144
0.38057500869035743,84.72994914928823,-11.00572450669156
0.4323028658796507,83.44264548424047,-11.836361604397572
0.3932430700774018,84.429902948664,-11.19989368778318
0.3764119775409523,84.82411753047485,-10.944693087081793
0.39413169743979226,84.40823117519922,-11.213958571063403
0.39740610122680675,84.33041390833635,-11.264280855899923
0.4078108138128298,84.07269727687793,-11.430614348060628
0.42429375250827867,83.65379910654634,-11.70059754918583
0.37246969653318535,84.9152612005282,-10.885678110764024
0.4304060188095177,83.49239889382558,-11.804426743071234
0.4783890406968655,82.15878538812265,-12.658480035596389
0.44919331822879116,82.98735750807708,-12.128638702179872
0.44784940143709995,83.02404980369371,-12.10513445849616
0.46478525784442615,82.55173876197739,-12.40757055590661
0.46344134105273393,82.58940086321759,-12.383448999190632
0.3769644359292264,84.8117433308991,-10.952784813455263
0.3849492008032085,84.62686163115157,-11.072573899053808
0.3955547338190759,84.37410001233782,-11.23604130710842
0.40413994750204063,84.16263424024507,-11.37258939457171
0.42911005020141596,83.5259613152067,-11.782870334762901
0.41240505129098903,83.9553226188456,-11.506364388789653
0.41936937287852843,83.77962979059585,-11.61959460659073
0.436398430726841,83.33509526296994,-11.905524025398336
0.39335433393716857,84.42445874698704,-11.2034511958483
0.4516861334849098,82.92019771852463,-12.171753096817234
0.428041193100767,83.55481800119573,-11.76424256507575
0.47636233469378914,82.21778377997316,-12.620832396309176
0.4534769707772302,82.87036024794989,-12.203660018795683
0.4512747611630519,82.93109682155443,-12.164766903775584
0.43991173716467125,83.24204967742554,-11.965403015816005
0.46483999477561067,82.55079745707518,-12.408136904279882
0.4344217996114317,83.38088997631196,-11.876130945459733
0.40495356393614473,84.1427733796257,-11.38547057037373
0.41136686370750236,83.98175570297965,-11.489335968697628
0.4050687187536217,84.13984023517197,-11.387320199116827
0.38756552060859284,84.56490963170096,-11.112582630969802
0.3920679878602414,84.45910146763269,-11.181087588448497
0.39267603892389824,84.4441725114639,-11.190790267880647
0.36865059492757973,85.00360463610463,-10.828382259769004
0.3687065879612577,85.00239207159068,-10.829203442261743
0.38048472301734215,84.73190736060702,-11.004500596763828
0.3807885556251193,84.72407683441558,-11.00954659398071
0.38108029063320953,84.71669472544856,-11.014270159887497
0.3801929880092527,84.73842111994077,-11.000298906265115
0.4161817461560452,83.86303824947645,-11.565806358601908
0.44059103655646054,83.22284993945419,-11.977672186810052
0.44042046056937073,83.22821780512743,-11.974221842621455
0.42920860396527505,83.52489133872537,-11.783591034463617
0.42805229021995184,83.55561925954093,-11.763783941810217
0.42911125288243707,83.52715523163769,-11.782157373611609
0.42814964130278826,83.55225648679951,-11.765909521918028
0.4052287708725687,84.13857205904486,-11.388150097866003
0.4043356655820383,84.16065407566879,-11.373853992357422
0.4113713416356421,83.98299050413645,-11.48856037804543
0.38052559477856823,84.73181607757506,-11.00450059551503
0.3991023095837736,84.28621059894883,-11.29274081412819
0.3990978316556343,84.28535617191794,-11.29326744167182
0.42871604415605297,83.53535680033538,-11.776904671933492
0.40504242205860475,84.14029743204452,-11.387020380108261
0.4041354991655389,84.16283388671569,-11.37249375742483
0.40331269815180854,84.18413814883363,-11.358760360953884
0.3805815878122464,84.7316788426453,-11.004663900746653
0.4162746489023815,83.85956722048391,-11.568153396421812
0.4285454681689627,83.54173187752907,-11.772762175071641
0.38115811798343635,84.7135797067651,-11.016342229993565
0.3335819546794438,85.75288100288164,-10.341144834170185
0.3488490213369866,85.43590683147697,-10.54758758151408
0.3657157649015925,85.0666566391003,-10.787423323774979
0.2956117074997573,86.48620778605684,-9.862335462913608
0.3212564662098883,85.99999940850208,-10.180014081288311
0.27885754220797176,86.7793606658253,-9.670310636347644
0.28260411881519915,86.71420579370296,-9.712995816279841
0.3206782415509225,86.01199476821695,-10.172251515524342
0.34135444462299297,85.59449585377847,-10.44441128061864
0.3099675286146027,86.21961198431687,-10.036731460273586
0.34624839103985533,85.49255177871753,-10.51080982536108
0.3223581753102189,85.9811299462482,-10.192399442872219
0.32239841124242824,85.98007529576356,-10.193107570507546
0.3345044416489025,85.7359061969136,-10.35230896730265
0.33397302028616715,85.74602143048824,-10.345736619669765
0.334204047116364,85.74208190156969,-10.348297254042622
0.33427341481870626,85.74086857837123,-10.349085619479874
0.3744259875975145,84.87375330771333,-10.91254954529328
0.3869315449855805,84.5779470312386,-11.10412705443645
0.3342747410035217,85.74274593018048,-10.347892613812093
0.3632250045202257,85.12358693791877,-10.750506403357312
0.35222016549874274,85.36539108725907,-10.593497245267233
0.36894335051673866,84.99669991649726,-10.832834371987724
0.34612061280966666,85.49583433688686,-10.508703119177948
0.35115373802375804,85.3846226188333,-10.580950964516186
0.3637416467634569,85.1131657182353,-10.757273028283581
0.32806409073066717,85.8644249165267,-10.268481506803578
0.3626405139229794,85.13911595115901,-10.740497171478768
0.37511248781900475,84.85431674729736,-10.925148854354038
0.3399818829913142,85.62229330975426,-10.426286357754186
0.3512432642002099,85.38689961473739,-10.579461759519575
0.37525434350646747,84.85321434428226,-10.9258226098135
0.35231615877915357,85.36101958436622,-10.596345633628504
0.3870458335248356,84.57594962125151,-11.105398675688155
0.3636456534830451,85.1157263567589,-10.755704976179079
0.2328385821454564,87.49657609974072,-9.199021684237648
0.23214312196434692,87.5083943700141,-9.191196211967718
0.2394771243701514,87.40367196647087,-9.26021426370276
0.25655781162055724,87.14270055305681,-9.431827294694038
0.2565782387476447,87.14216806979232,-9.432126613379864
0.2735515953852339,86.87025584377658,-9.610602822741468
0.25107091695766953,87.2294574728869,-9.374833831180482
0.2565739942816131,87.14453906246095,-9.43060881460419
0.26212183214266993,87.05607870132377,-9.488675011005832
0.26802476679140447,86.9616133943837,-9.550743702192896
0.23372147289189096,87.48540925438037,-9.206432273045312
0.26800858413034817,86.96099544948326,-9.551077468424655
0.2617564174224415,87.06313834251934,-9.484043421913148
0.2907664429551664,86.57050205438382,-9.807034203984966
0.24498444616012516,87.32046551983328,-9.314917016168447
0.2618610079796147,87.06082566667968,-9.48551338486223
0.2918651308925304,86.55167563007419,-9.819414107126136
0.29866257775107113,86.42944024442134,-9.899398582366677
0.3392787344474788,85.63292793867556,-10.419366912944563
0.32262943807262423,85.974314332564,-10.196889724678794
0.2797955665474538,86.76451047826762,-9.67997971749022
0.2920560184603335,86.54814276054299,-9.82167829703295
0.2856656294259545,86.66153155386075,-9.747433010798783
0.30958084294957294,86.22736106651178,-10.031589572386844
0.3097990086042068,86.22451216359742,-10.033544517914974
0.3154892129675788,86.11224423351659,-10.106793722000367
0.3156577329779749,86.1085851301614,-10.109186916097453
0.3031902048618975,86.34588167957617,-9.954080385245394
0.3033587248722938,86.34190313589566,-9.956664628363296
0.3090553129220809,86.23653523927929,-10.025584349802923
0.28002636292404404,86.75787476923446,-9.684288646861221
0.3091874117160643,86.23146124894626,-10.028858540319636
0.2912491371084728,86.56243036298766,-9.812383551430532
0.3395152579979713,85.63360119242358,-10.41906698268271
0.32776721231506317,85.87006350156598,-10.264820022586402
0.32757339291141424,85.87691176729973,-10.260424533579302
0.34056811309624574,85.60924143648454,-10.43483269105952
0.27951228001183115,86.76784501563026,-9.677750376585417
0.30623499635180046,86.28802996789501,-9.991920172419618
0.06730427081808626,89.01353096981855,-8.195743461298532
0.12437374581582958,88.6810819984803,-8.41642023482112
0.1082287270396943,88.79639959689769,-8.339915227318537
0.09644890454973555,88.86807000313388,-8.292336430339196
0.09543088901959848,88.87296242964587,-8.289090824877263
0.09402957589843933,88.88020531844,-8.284285597731934
0.09635400162461721,88.8691790516998,-8.291606819463006
0.07674238068233455,88.97147887972022,-8.22368989315923
0.09645178211405743,88.86894755314056,-8.29178061010723
0.0784303874757547,88.96438580117871,-8.22840367558792
0.07201144415414887,88.99220288832964,-8.20992042578444
0.08296011176063203,88.94234152251896,-8.243043433027687
0.1111518390324897,88.77651734551405,-8.353112530655407
0.0707534010537514,88.99769616482305,-8.206275418518617
0.04824265963524753,89.08000022087268,-8.151578491973448
0.07561231412921506,88.97708995643316,-8.219959453874491
0.0816397264947712,88.94761266846038,-8.239546888847467
0.10969589639946663,88.7864211746013,-8.346537776494221
0.04759424973983471,89.08039267926091,-8.151314572036773
0.0773003209226353,88.96909469568291,-8.22526964139144
0.07703591104791535,88.97078257168732,-8.224156110376498
0.07836158092818855,88.9643268261557,-8.228434932438274
0.05010861796272756,89.07561703197945,-8.154491899679927
0.09683293785991492,88.86650972267879,-8.293377549765202
0.07312622709146362,88.98964128729467,-8.211612310559595
0.07372006333384545,88.98806656959249,-8.212666395720229
0.06188807798047103,89.03678739744217,-8.180300865051702
0.08495821244483812,88.93299174750612,-8.249234693867049
0.049060400624918885,89.07540577944629,-8.154635096783052
0.031125938062276697,89.12124741167864,-8.12415854081668
0.0174485794092885,89.14305405724407,-8.109664472560057
0.0621269071214207,89.03318315210541,-8.182691269792578
0.029805347631856084,89.12156723960148,-8.123952482787864
0.036529780762926393,89.1102350587864,-8.131492767343756
0.017112495077323858,89.14606867079617,-8.10764787831574
0.006249987054616213,89.15425333304381,-8.102214248575113
0.006249987054616214,89.15279035297124,-8.103183333635533
0.03775555122861866,89.11009763690073,-8.13156780055588
0.06368542585072239,89.02933454122872,-8.185242403958409
0.07058241638466899,88.99919245598677,-8.205282551829935
0.06400543779214202,89.02644158818171,-8.187164747118276
0.04953501124636211,89.07793309422303,-8.15295379159045
0.048962244591835326,89.07891295952376,-8.152300898764706
0.0503096864896343,89.07469228595244,-8.15510691951348
0.024826016351524264,89.13354575831909,-8.115985762676607
0.00790666181700144,89.14914572575773,-8.105612977341316
0.0551023570030661,89.05916100763345,-8.165427856150199
0.02814867286947084,89.12655525260415,-8.120636330667246
0.02239788380631666,89.13477053799254,-8.115178298634142
0.01848048992932441,89.14061737781002,-8.111284829530776
0.040379175744179006,89.10115851327832,-8.137520128626326
0.03011767319530422,89.12551591835776,-8.12131802052743
0.010424083098769191,89.14787461538019,-8.106462365112288
0.029603605030479783,89.12500755834735,-8.121665413786754
0.029679248271365803,89.1257981103746,-8.12113903438168
0.016674070153385394,89.14531082767314,-8.108160782465315
0.04260878314846017,89.09585284951227,-8.14104839048379
0.08071693550082906,88.95076500784249,-8.237460148637519
0.05254902900503492,89.06674375659752,-8.160396576431861
0.1011640038292882,88.83849260662674,-8.311986932992436
0.0857121342301134,88.9272135914765,-8.253087065340427
0.07834682097605096,88.9641934279753,-8.228528498757465
0.09450987229879862,88.88007751717898,-8.284393192683947
0.06954908290736572,89.00383793876436,-8.202187551932987
0.02874341022851651,89.12670797522256,-8.120539628936513
0.061113410050249055,89.04096474996437,-8.177526578184777
0.06671663244435051,89.01596974411333,-8.194142305429521
0.031882853273210075,89.1212262879086,-8.124185801870635
0.015791904646903266,89.14660588656866,-8.107299644157855
0.02802240752161147,89.12915761204162,-8.118907110694007
0.05291296971210699,89.06446651445427,-8.161910096310205
0.0063455264221998426,89.1517955890567,-8.10384988079921
0.07898220131589477,88.96053708480734,-8.230950355142442
0.08013815246279198,88.95470873667725,-8.234820423009461
0.052992125379296894,89.06396148031364,-8.162241311373297
0.00987950246781111,89.15006375793759,-8.105010274980428
0.04254464477041365,89.09649201562863,-8.1406254509972
0.016225028890010946,89.14495615068394,-8.10840049111326
0.08170206866023448,88.94878546568609,-8.23876498037872
0.03323312044367469,89.11658676982341,-8.127272773730743
0.020303585566580285,89.1390230561648,-8.112351698819243
0.304150328040123,86.32866658781442,-9.965399106221781
0.286079660058022,86.65369556373854,-9.752587771698892
0.31046901934969623,86.20937641521361,-10.043348588349614
0.32067824155092284,86.01263732425343,-10.17180658374242
0.28144533464560023,86.73453168991145,-9.69967116697366
0.33287188410758944,85.76804399444246,-10.331360225418488
0.262478049071917,87.05030649443076,-9.492479397653913
0.23883803359723021,87.41100228101857,-9.255368812223173
0.2868363860850124,86.64045768240095,-9.76129256149525
0.26330642299396795,87.0363920735361,-9.501614854187455
0.26235375047636206,87.05168273310854,-9.491575314534797
0.25069879096159603,87.2350621706516,-9.371139237417509
0.27496138250873403,86.84522070017087,-9.62703514233866
0.23300983204262815,87.49540042393613,-9.199855545580638
0.21553500304859066,87.73468693017085,-9.042162353031511
0.20099291405433042,87.9202021363557,-8.919771190860265
0.24459479061039657,87.32453389663439,-9.312275504280167
0.20900716683479112,87.81917718280803,-8.986418908934683
0.20645779386501362,87.85015911546589,-8.965958693020783
0.18388730228189198,88.1205706767075,-8.787441301526787
0.20172515079319475,87.90970000989026,-8.926675783606832
0.20266625199828245,87.89967992811563,-8.933336682706623
0.17663473332863866,88.19838115490819,-8.736021781945134
0.17765042172996737,88.18907886651021,-8.742192715351534
0.1828984063487876,88.13239718514372,-8.779612485981342
0.19599893058804,87.98071630980974,-8.879821862497481
0.19623973707828796,87.97741239051587,-8.882017287961846
0.18313921283903586,88.12861137359717,-8.782121814965155
0.22762082577264234,87.57210816123984,-9.149305030743886
0.25057487066675976,87.23677303574097,-9.369996713452629
0.2509704859290282,87.23109566027055,-9.37367635930907
0.23976079929643376,87.39703154118446,-9.264566872698532
0.23948158313700832,87.40203064175897,-9.261282153861982
0.23961340292455605,87.3993580314436,-9.263070607140115
0.23962897950888576,87.39867838897977,-9.263448780182511
0.21524485815455324,87.73991150671104,-9.038750514550003
0.21500934680472794,87.74308973839078,-9.036658410736992
0.22151495424042836,87.6538136702897,-9.095487628097908
0.1943378307354693,87.99795180094078,-8.868406984185352
0.20835426348586641,87.82681641671797,-8.981368519416762
0.22086205089150399,87.66203904879436,-9.090063105146042
0.23869987081577118,87.41322404294245,-9.253963998273674
0.2079890003995559,87.83038817055639,-8.97903046582898
0.21475934311595585,87.7431227903262,-9.036583715736949
0.21577647295198635,87.73074967241448,-9.044739202548026
0.21120592155677126,87.78811309962659,-9.006931510655921
0.18919734218842946,88.05953077289348,-8.82775224632813
0.22685327922603046,87.58056495443915,-9.143713296209642
0.2381947856461741,87.42088379005142,-9.24885682135198
0.19117829944016318,88.03558323162972,-8.84361809962588
0.15066085525671807,88.46093717734453,-8.562295490723894
0.1740827441183237,88.22689119785902,-8.717156572702361
0.1631495878337058,88.33991096770305,-8.642367039176412
0.18856312529916977,88.06729276989702,-8.8226483111703
0.1529297903416785,88.43904862618484,-8.576767367081892
0.17384478652214974,88.22994706951556,-8.715145086701089
0.16542608940661835,88.31672404292908,-8.657745588890736
0.16362498903012251,88.33576343290459,-8.6451379272127
0.17564588689864566,88.20949510705668,-8.728667595199111
0.22847171646133344,87.55960015968965,-9.15754213476553
0.24375224678533602,87.33942394709563,-9.302456510832375
0.224475611361258,87.61495774293535,-9.12109385002139
0.1907816176747646,88.0411924394228,-8.83989551730893
0.21502358929135046,87.74238767419196,-9.0371153947974
0.23520378361734298,87.46572853007184,-9.219361920178441
0.19639956206083287,87.97440195523909,-8.883987128014427
0.20146699519952457,87.91500718972225,-8.923219490007465
0.19032177901619315,88.04699688246417,-8.836094828223777
0.24145538624138058,87.37342890598197,-9.28009988324579
0.28841760230990665,86.61074512657534,-9.780756106652442
0.2602720249600394,87.08429701074652,-9.470150465559382
0.2590600006648304,87.10337670390152,-9.457609273677157
0.2744608732173052,86.85324622719418,-9.621844177188192
0.2732488489220961,86.872801271554,-9.608984101718235
0.19563190890327478,87.9846972429003,-8.877243221469131
0.18686373184357782,88.0849314301599,-8.810974827982857
0.23883770692121825,87.40944596788557,-9.256405498393539
0.24340825831643365,87.34379280870853,-9.299577642523586
0.23034036533433472,87.5342684334728,-9.174228138867118
0.22124378366687428,87.65987094423544,-9.091488411012948
0.24682141804604407,87.29401154278156,-9.332319130450474
0.21486153003349792,87.74147041117497,-9.037667476675084
0.20015793917551994,87.9290653059343,-8.91399151939048
0.1179885137806564,88.7249104242843,-8.38734364810289
0.13612568332133473,88.58674711178482,-8.478964699170174
0.13337664010876787,88.6064392041042,-8.46588916401377
0.10865557357766036,88.79463219935626,-8.341089808482282
0.14559782028980175,88.50466633001828,-8.533332220571612
0.12248990035597643,88.6948267455255,-8.40730902406473
0.12259724542481143,88.69356555075497,-8.408130085600845
0.11276108164308825,88.76298646939418,-8.362068850256172
0.11425285199691494,88.75208557261786,-8.369310029157493
0.12629346115228052,88.6646407893945,-8.427317741492068
0.1208379939438677,88.70788638699615,-8.398631360767927
0.10131437781598256,88.837192779207,-8.312846931535114
0.14094853281919303,88.5447038723596,-8.506808292101184
0.1512781694157304,88.45208788025025,-8.568127768679481
0.11014381603138998,88.78161923510207,-8.349748190552106
0.12164514937035947,88.69974301508569,-8.404050776388722
0.10009216243638863,88.84436770599798,-8.308082046531894
0.14085787800548044,88.5447200684585,-8.506771148335462
0.14040983420850586,88.55055467528537,-8.502932649113134
0.13371252516181956,88.60865723073617,-8.46445226587235
0.15163546325916458,88.45082419919775,-8.568979257758182
0.14006285648792968,88.55314543028558,-8.501209496122982
0.10722342653907681,88.80063151515436,-8.337103506097119
0.09701526444162084,88.86469902693464,-8.294584271111733
0.095491818152368,88.87410594192485,-8.288355806908353
0.49997836246555266,81.51219679191112,-13.070066398800195
0.48173521056147,82.06475415078503,-12.718404230658882
0.5295304238805544,80.5776454372845,-13.66233174172382
0.4998475153691099,81.51407409187209,-13.06876437934379
0.5178244739780192,80.95041048354595,-13.426423795449177
0.4695010070440334,82.42092670079415,-12.491108060500661
0.49329753206194893,81.71536293744192,-12.940874001248654
0.5088533821046411,81.23992676379693,-13.24302419179501
0.4752229174606817,82.25269888151995,-12.598692992646589
0.4825186372562416,82.03861334810506,-12.73507902462952
0.5004880763236484,81.49795018556733,-13.079223326598433
0.5174929983913906,80.96701490803929,-13.415998239572291
0.46950552769146114,82.4177705798932,-12.493220413696996
0.5007218734189038,81.49028115504512,-13.084039158326044
0.9494887073509973,61.81385766874067,-24.86116582819568
0.9931717418711926,59.32042141888252,-26.250519896051603
0.9669500714545325,60.82341014224853,-25.415257800449243
0.010167380931608462,89.14905478725703,-8.105678808682965
0.009879502467811104,89.1517936487571,-8.103857502255957
0.029615109893319235,89.12487540086207,-8.12175490085904
0.03696820568686483,89.10959135415379,-8.131909737233707
0.03193980139860373,89.12008281932765,-8.12494231415293
0.01042408309876919,89.14958582045871,-8.105322328288402
0.07815416004732527,88.9665319110728,-8.226988676067617
0.06451575491801181,89.02412588236785,-8.188710535080853
0.9467925619254329,61.95359025198039,-24.78218467714398
0.9928426559286859,59.33802422179562,-26.240669110184704
