0.006249987054616213,66.62313384887942,-20.36549639365021
0.2622264226998428,64.94002162749679,-21.07631273924138
0.7428272500949898,53.506065595858274,-25.615100308392133
0.6899944958974087,55.24770684244974,-24.957589990097187
0.1664931995095728,65.9423578153567,-20.654287466268045
0.4577448774811744,61.53736872778332,-22.480708787654972
0.5418022602805879,59.53135690538123,-23.28780529595082
0.6367769937918372,56.893585224799615,-24.324824923328432
0.36255098774652483,63.4183558488286,-21.70979515618264
0.9931717418711853,43.79109331827648,-29.045157934142996
0.7847616159144581,52.036804089723574,-26.160021797047868
0.5950083403073327,58.10046884174052,-23.853709082112946
0.30998362429298604,64.27325311806202,-21.354989239424224
0.9697528874560128,44.787164919998794,-28.712592917824317
0.9699446551599618,44.77773074091104,-28.715750119585355
0.9240832596950744,46.68241821877945,-28.06737105326707
0.7851438089249952,52.02302592903375,-26.165002164401223
0.8303105154780053,50.36810150005241,-26.767959460059966
0.40502993861081604,62.62846291981296,-22.03522043282133
0.12778523150610724,66.2213181134978,-20.536171035873988
0.21961342648364046,65.4401980176524,-20.866140755544105
0.4699790809986178,61.26380779491812,-22.59163405789388
0.44680352089939684,61.77315242310394,-22.384897546189844
0.4347908678465905,62.02582358959231,-22.282002307657272
0.5650396618387457,58.92371566376395,-23.529009656610512
0.5529691848299237,59.243459265364976,-23.40224860600611
0.529818359018304,59.8359792101883,-23.166398087686918
0.7553875031011897,53.073597070836676,-25.776364883495372
0.731685563494436,53.88059098341263,-25.47488122691973
0.7198179061906222,54.272188583046315,-25.3277000758855
0.7079429249660896,54.65418321135065,-25.183061366101843
0.6899851440665135,55.238234640456014,-24.961042851034296
0.6719384971837534,55.82329777030414,-24.73756094416593
0.7672625066774672,52.6658917230199,-25.927855168195485
0.7968123527045291,51.6016714564501,-26.31968667935062
0.8018199097657168,51.42020541753278,-26.385807159354794
0.9843383931201246,44.17071027069074,-28.919381663782872
0.9889050722122211,43.972389822576865,-28.98499097250958
0.9817477281409058,44.280688535803975,-28.882548568673233
0.9928426559286894,43.80131772713794,-29.04185899030038
0.8471469835078291,49.73235055050718,-26.99636876711363
0.8309269753646774,50.342975143756455,-26.77695068505202
0.8131044935154655,51.00595099058211,-26.536927611629782
0.903144160900434,47.534485821488225,-27.772527505324483
0.9408095165967599,45.999004512783,-28.30244188411587
0.9374671741925168,46.1336330502794,-28.25596377241632
0.8005956727052107,51.465327357728114,-26.369443398424046
0.7843328338077369,52.0529362360559,-26.153919077970308
0.766314380711105,52.6959225721236,-25.916767067760265
0.19872387377390074,65.65407127878537,-20.776075881155283
0.21525379578512144,65.48505806630068,-20.84728628450693
0.2333360618081925,65.28665650075389,-20.930783390540984
0.14961452589641133,66.07291271583476,-20.59904813501835
0.17137571561612194,65.90334644799444,-20.67078838774877
0.18344139417871239,65.79600374419866,-20.716123211079726
0.12027319241071893,66.26737503796136,-20.516627408589425
0.12110634395750051,66.26418851419945,-20.517982046471182
0.10336352791393952,66.3599394156355,-20.47734662733851
0.23131180962833375,65.31415097930866,-20.919175275755535
0.22114463301818413,65.422646927252,-20.87358725030818
0.1948839043521145,65.69467781450899,-20.75893677834343
0.5769146505138619,58.60722017583636,-23.654228801762443
0.5949987544960912,58.09914806182919,-23.85411270711912
0.6130264501974756,57.581752259329846,-24.05685489322846
0.48800222993020753,60.85115025528383,-22.758652540189008
0.4790457454689996,61.057331860430665,-22.67529748247308
0.5216631853398952,60.041814771071216,-23.083983062214298
0.3868295353613386,62.97975346486201,-21.8908399059601
0.40494108048835487,62.627790674717744,-22.035476541345545
0.42291586799560243,62.26508044551088,-22.184101128744814
0.5312068290106857,59.80171123400864,-23.179971732174586
0.48939938645675574,60.81695259512628,-22.772389454584886
0.5016744979387935,60.527051366223134,-22.889173983778285
0.37495453551035085,63.19686398810558,-21.801258398648837
0.35182775479745726,63.60225417140071,-21.63376029883115
0.33982043636035897,63.8021277222958,-21.550974601955613
0.6600634861568909,56.18885811780024,-24.597002769597335
0.6482065278868177,56.55232389847077,-24.45684395233345
0.624901453773755,57.24263507201323,-24.189328655006285
0.7160367146078712,54.40344633999053,-25.27806913753551
0.6686288323876136,55.92651361912223,-24.69788129108224
0.6919630035783558,55.18743316735613,-24.980649866622148
0.6130635012934792,57.58411152637041,-24.055994486349125
0.5950264309403558,58.0998640375874,-23.853940787615503
0.5770558371948277,58.602671421653355,-23.656090713231794
0.24384150510903851,65.1707428946526,-20.979514093937784
0.2676081446654179,64.87136605388025,-21.105078495103566
0.2789668981659266,64.71942192461177,-21.168645875649133
0.28962962660511593,64.57158502029655,-21.23054574240114
0.3062349963518006,64.32990441383289,-21.33140035310357
0.3161516636610031,64.17972157611904,-21.39395107228108
0.42318534260550356,62.26362265049448,-22.184686736249137
0.40505623530583224,62.62642061182044,-22.03601013259524
0.3870950706867105,62.97494267002114,-21.892815748815952
0.2919226828699712,64.54063733977074,-21.243460975621808
0.3099823977256425,64.27136665298414,-21.355739261480124
0.3279454327840802,63.98992852635875,-21.472875023672017
0.5123427595501591,60.270369555069045,-22.992346671954426
0.5000328563996141,60.56601264098181,-22.873502689870577
0.050380991055339414,66.55979944296986,-20.392437030421526
0.6451923409321821,56.64261927067321,-24.422071062731938
0.5511421581871312,59.29055806872079,-23.383629600765794
0.6452970418868806,56.63956481766739,-24.42319739486621
0.6563217908975754,56.30587886424269,-24.552154552368332
0.7380864664868908,53.6652132751818,-25.555683225953167
0.9211011125429132,46.80904619396542,-28.024129228417415
0.9316968933870404,46.377707380570726,-28.172919571591617
0.9064225198706948,47.40498330390456,-27.81763218266484
0.48769999017209864,60.85794448935133,-22.75590432187287
0.4518403349551897,61.66433797892736,-22.42913069402432
0.3583246553482303,63.49080921449694,-21.679923927099868
0.3575530727075033,63.50385269100359,-21.674476319541316
0.2746592312849322,64.7782200034081,-21.144135409046182
0.3269463229230513,64.01020409020694,-21.464489931651144
0.1606506024379944,65.9892025440564,-20.634455166493495
0.2619180978033032,64.94362229509113,-21.07482167387725
0.16913561020175383,65.92109460108847,-20.663277463830184
0.10262146134602296,66.36284715650825,-20.476113229238372
0.158848810940981,66.00431943052506,-20.62807990737599
0.5000098933226386,60.566803616808485,-22.873168639267618
0.5708429890819795,58.766620974830786,-23.59132846138423
0.5180082798013468,60.13020070186118,-23.048479007056688
0.5652052566217451,58.91894587628205,-23.530951832284362
0.5181366856690317,60.12796282038689,-23.04947673848483
0.05962938079378835,66.53551715495225,-20.40275996001872
0.8846511379399676,48.27401185130943,-27.51355439040044
0.8923862730871119,47.966838909510514,-27.621783461072912
0.937320003926145,46.14441512746415,-28.252667818147383
0.8804466002468152,48.44092027306284,-27.4552237432441
0.13410782146209868,66.18071741568251,-20.553381247758857
0.14113939614755283,66.13457482152766,-20.572934377888583
0.18410454376991991,65.79221182186303,-20.717753510936973
0.1913838159911364,65.72667022965874,-20.745434291892032
0.11098803606196554,66.32277665741931,-20.493128294996527
0.5499785265095047,59.32004718701297,-23.371885436603787
0.614178830772229,57.55641954801483,-24.06685847175967
0.6249079208777125,57.23894855413337,-24.190633671293618
0.6082450572052712,57.727436093376674,-24.000027419277536
0.582698044368013,58.443673197768724,-23.718816254731344
0.5950230378401982,58.10158446676478,-23.853404722425044
0.5944427057397922,58.117096308298244,-23.84724506271077
0.5943347122921555,58.12054775301668,-23.845830322022113
0.6035129065293621,57.86185755484271,-23.947286895321625
0.6451197275736839,56.64379739085553,-24.42154164644464
0.5834673973145442,58.42402205610165,-23.726549708036497
0.5968623403722173,58.05223917170079,-23.87267509878648
0.5469025520132194,59.39972002723004,-23.340197523016908
0.6134951999748188,57.57701234898089,-24.058816137282356
0.5956764757777503,58.083042004355306,-23.8605630781392
0.7268295327377043,54.04461571381505,-25.41330636999463
0.7604723079554988,52.89485198413745,-25.843025343750774
0.6249709148953554,57.239743002482584,-24.19033972215903
0.665760038461151,56.01245773900778,-24.665030137571023
0.6249066244766888,57.243711910855005,-24.18873789679542
0.6899580612060421,55.243758634857386,-24.959076221118067
0.6719109821896063,55.8158089407402,-24.74027918757325
0.7137512427350627,54.477169448509585,-25.250236056265436
0.9684505157270643,44.841999457521375,-28.694169691400027
0.8403347256982303,49.99228139254525,-26.903290975359873
0.8112798070279044,51.07308518403349,-26.512443582604188
0.8532445471722976,49.49884070264764,-27.08007510966209
0.7911736356623725,51.80081129382354,-26.24668387921755
0.7790091131672376,52.23899488018231,-26.08557750203908
0.8277039797778146,50.465945886428884,-26.73253041248798
0.7548353491460313,53.093671109377,-25.769036414147376
0.7723782432492594,52.47700200056278,-25.997882398679444
0.7968296356091139,51.60149621294002,-26.319834981344243
0.7652885467908251,52.72738917038325,-25.905018854407025
0.7851922950184735,52.020164383142095,-26.16621296334635
0.7824941264895754,52.1171327630397,-26.13065956381151
0.7813691316030296,52.15711762034121,-26.115730823686015
0.784903255757024,52.0306983739961,-26.162407118733313
0.7844871091084641,52.045406863263395,-26.15691621071958
0.9605669184479209,45.175587707418266,-28.581992918983655
0.9832418675738156,44.21163100539033,-28.90557182620395
0.9736885704545359,44.621238720120424,-28.768421473956224
0.9795767759962793,44.36902587896442,-28.8526375587883
0.967311198083948,44.886938375784254,-28.67888227926368
0.9213422513012945,46.799351063273825,-28.02737648134274
0.9911666512489307,43.878207923411765,-29.016490407948655
0.9931717418711972,43.78659838070871,-29.046709868561937
0.9574270601106757,45.309033466912936,-28.53667042005126
0.8494651366807388,49.643659630136455,-27.028299979619717
0.9029319644650686,47.544374367575266,-27.769199911617488
0.8776511563264352,48.5496957196645,-27.416626773335057
0.42924817014433414,62.143992750451936,-22.233701478278487
0.48205881690501573,60.986787451296614,-22.703753424076435
0.4349410119467796,62.02352101355449,-22.282830322738246
0.3560721282528322,63.528588307088114,-21.664216953425548
0.40869944117522083,62.55648073843954,-22.064731622717048
0.4165070578455918,62.401657269595574,-22.128192818759974
0.4530189827490552,61.63941575396984,-22.439323115310994
0.41078415919556227,62.515961862129004,-22.081397588955202
0.43257276620657875,62.07362407267618,-22.26235830734571
0.45309730750653376,61.63752382256719,-22.44007831042409
0.38582564083884424,62.99607874681747,-21.884045019488457
0.3755823739436998,63.186507076927974,-21.805607055443748
0.39236417120483386,62.87358426239259,-21.93454495135415
0.41734609501265874,62.38591247132433,-22.134712801373922
0.4049797118779495,62.63053051116248,-22.034431048098487
0.4033171464883117,62.662310542561706,-22.02133015424956
0.41343202848448496,62.46254663558462,-22.103268946699583
0.3964994590403043,62.79417208819192,-21.9672035798336
0.32836675643920904,63.988643390299906,-21.47349142385716
0.3458365167449581,63.703714941536845,-21.591732779038967
0.38083083381551563,63.088925328166134,-21.84585466727256
0.24418452258301876,65.16253404109501,-20.982938994650425
0.28545573073164754,64.6312580492869,-21.20558298228231
0.24529908281835314,65.14962684055142,-20.988440868107705
0.31001152949577665,64.27316641095615,-21.355017638125158
0.2801357004528644,64.70411987190576,-21.17506237806039
0.3345346180276959,63.889655426693274,-21.514633656761244
0.057932912769452366,66.53943280834855,-20.401097162459813
0.08742322989473447,66.4357496573635,-20.445160176599234
0.11060871616959951,66.32489848636247,-20.492228079892467
0.035105553344909925,66.59184087146522,-20.37881334417597
0.02171547234160162,66.609271427716,-20.371393561629386
0.07549634161624182,66.48395754493752,-20.424678528679266
0.012595513476816056,66.62140529945944,-20.36623035809785
0.06465384768755485,66.52173957195025,-20.40862106572365
0.02946926329989141,66.60260097175276,-20.374230392364296
0.025525048353910448,66.60887757630783,-20.37155927580129
0.044113356147918295,66.57735580364718,-20.384978064082716
0.016512907353808306,66.6186939387658,-20.367385332352228
0.05776192810036994,66.54085563452715,-20.40048769176199
0.029154563767105342,66.6033864532227,-20.37390032344381
0.29227443316826346,64.5332723866966,-21.246524097374213
0.2630506829115833,64.92930736797857,-21.080832517460465
0.1969967713063403,65.67010820891292,-20.769278659086385
0.20329831841635562,65.61051265273396,-20.794446258380585
0.2281670067089147,65.34750110963687,-20.90520027100654
0.2158322641085918,65.48176691584081,-20.84868936887996
0.21567428603444494,65.48205697202216,-20.84857094451077
0.22289038951390766,65.40583528579997,-20.88063443619497
0.20671644277793091,65.57441148133992,-20.809656548754212
0.17207765034192465,65.8973872986417,-20.673343206796094
0.21013660502210502,65.54078610440641,-20.823826756721207
0.21091901726943194,65.53301136646422,-20.82712046124965
0.26368518468964997,64.92187085368583,-21.083955866792824
0.20667989128452577,65.57372521141275,-20.809945620347882
0.2257698139391199,65.3729458788527,-20.894520214446256
0.10020080494000781,66.3763929001527,-20.47035366416134
0.12394584298899951,66.24676741006239,-20.525386773363074
0.48195049508781773,60.987911925980356,-22.70326261340655
0.6874799239198796,55.332131078372555,-24.92555508073526
0.5124217080234279,60.26856481863975,-22.993066891471063
0.5370578459476677,59.65279204085112,-23.239426143031004
0.5356397360572608,59.68909766323031,-23.224948698429614
0.5242057825928358,59.976995909823955,-23.10990956808753
0.5246493752578079,59.96606348359656,-23.114290865487234
0.5248898408388314,59.95973410382341,-23.116815520270965
0.5239653170118103,59.98268898413329,-23.107612438998647
0.5001820412226862,60.56279940785805,-22.874799703114224
0.4762102134368321,61.12517909287137,-22.647898405707014
0.5253270111059389,59.947659157725695,-23.121673683729778
0.500165044600566,60.563185414510194,-22.874638465066102
0.5006788736153374,60.55140744135584,-22.879420816417728
0.4876849122187977,60.85952913112917,-22.75522451533222
0.5131590059971046,60.25005229318697,-23.00057239727477
0.938143570184119,46.11078752067891,-28.263903590152978
0.9356894570142867,46.21203873045866,-28.229218450476793
0.30247335135936704,64.38572478253023,-21.30810257811311
0.32940169901167005,63.97281558635191,-21.480025221491157
0.33734038204466016,63.84278441908587,-21.533996572999566
0.19878379713150435,65.65448384433464,-20.77587079793008
0.19031569612988652,65.73450614789617,-20.742123207560603
0.6991307899742223,54.95739482380974,-25.068219561981405
0.6842510765260089,55.43273358774166,-24.886843346625675
0.6886339266638191,55.29367382779376,-24.94000468414953
0.6651417963514158,56.03376178293435,-24.656834305053017
0.6621390392850566,56.12702060816417,-24.62110999346093
0.6450521562038197,56.646499654638006,-24.420492822522835
0.6202228190378782,57.381964347078835,-24.134902510448097
0.6702272564516721,55.87493578870697,-24.71781612088198
0.6451169405940332,56.64553188324125,-24.420946770256734
0.6450203119598404,56.64801987922602,-24.419926470873968
0.6319155087591708,57.039123733328644,-24.268348296042806
0.6582217437947043,56.2476312927469,-24.574615213413143
0.5754375183371871,58.64398577089084,-23.63973041484173
0.5246311736637173,59.96519950119184,-23.114510290910932
0.5430350095366447,59.49800340575773,-23.300958990493353
0.5614817856845192,59.01858785157655,-23.491547581116393
0.5764849940533596,58.61612120443225,-23.65074411117434
0.5281995033077959,59.87648330252289,-23.150085811323663
0.5625292614006936,58.9898497207095,-23.50291490503106
0.563691466729378,58.958514080222585,-23.51541682924158
0.548813020225581,59.35023014756294,-23.359899327265456
0.5476508148968955,59.379428811057785,-23.348248321298847
0.6200850978302841,57.38591091049065,-24.133352840190206
0.6693561333482245,55.9024304341952,-24.707154814101393
0.6322981156498272,57.02857952224929,-24.27239297669851
0.6452651976429014,56.6413405371941,-24.422544525847385
0.644628424381236,56.65913147619848,-24.415544247003403
0.6575955063743101,56.26756418828967,-24.56692588504289
0.6558929620585185,56.31934066653675,-24.547025250021637
0.6776318470905986,55.64137238483108,-24.80737079603087
0.682125410796621,55.50027367987973,-24.86126507722672
0.6681881009985421,55.93925368038819,-24.693102899367773
0.667715716065318,55.9531966837357,-24.687739550911502
0.6657839189242077,56.012561875317516,-24.664916977220322
0.6701198981396519,55.87861527701786,-24.716432920380832
0.6934228818726421,55.142134845718616,-24.99784119330089
0.6899674130369392,55.24565136545912,-24.958398154779392
0.6935826581861674,55.136814657031934,-24.9998934623473
0.6800631120254005,55.56908798406516,-24.834979597158984
0.6681968019244354,55.941171857535416,-24.692438516285282
0.7149545515131607,54.43721288961161,-25.265329919911498
0.6934521565560582,55.14284138078736,-24.997659711029748
0.4917675685167967,60.76362045481307,-22.793913822914405
0.5097804079161744,60.33046877150512,-22.96817655942297
0.4731733790047568,61.19151024372343,-22.62102825993563
0.48157807786276285,61.00061788638286,-22.698306913487208
0.8087220200055175,51.16627091546137,-26.478647027544035
0.8498777225599035,49.63029115069688,-27.032579473499954
0.8206497813648352,50.73200161982012,-26.636457262640754
0.8323387972488924,50.299033209799724,-26.79245751465188
0.736889400272126,53.70478741075148,-25.540826147312643
0.7605328408253631,52.89184161903044,-25.8440597771886
0.715031981527999,54.43667243749008,-25.26544607068879
0.738289723510389,53.65829195878346,-25.558297883118442
0.7369518115200174,53.70267666953574,-25.54162461557664
0.7484650739079847,53.3103258390022,-25.68832589380356
0.7267764611224307,54.04575303109938,-25.412921764819025
0.7375466719226466,53.683788005562384,-25.5486966061261
0.7600498825070441,52.90864545341436,-25.837824988105126
0.7151686137647405,54.43242270860437,-25.266975017958043
0.7433259243056983,53.486125228028406,-25.622670087120756
0.7428941877776131,53.500706120032206,-25.617186818748237
0.731949294154475,53.87203088120013,-25.478043059987655
0.7315175576263898,53.887061616300706,-25.472358034570654
0.8281008823484451,50.452758602109874,-26.73737316087975
0.8075732687389764,51.20814109635641,-26.463360741782747
0.8511458478813575,49.57966023490596,-27.050851864918048
0.8206827389035495,50.73034383009255,-26.636984948064487
0.8347556738368926,50.203124414204055,-26.827454374824228
0.8336398801090623,50.24636861454051,-26.81196598446982
0.8217985326313687,50.68568561457369,-26.653204720493196
0.9175686275991792,46.95481788556454,-27.97377816013064
0.9491888288524722,45.652901480097206,-28.419932960095856
0.9022456548552749,47.573787403589876,-27.75891717842204
0.9266287311751473,46.58482175616836,-28.101685633091883
0.9192597603830742,46.8869036787154,-27.997442739455856
0.9383654032337713,46.101756288259566,-28.267240110808874
0.9149874228324624,47.06025144020045,-27.937576751039256
0.9764066123190431,44.50053234968308,-28.808591281079224
0.9496621427207674,45.63312385309865,-28.4268205345201
0.8993617561474418,47.68925686452002,-27.71851896690011
0.9362009565815866,46.19687327267276,-28.234534893399353
0.9104123913407444,47.24539024846371,-27.873298926146347
0.930005760603151,46.4491910360936,-28.14806189747956
0.9215803858151377,46.791043469065976,-28.03023794848992
0.8723979592763768,48.75987462848116,-27.342487671067172
0.8385694026947018,50.05546267501313,-26.88041136277221
0.8759886117657917,48.61510900478595,-27.39365822816953
0.890360418803582,48.04890138586135,-27.592798284365234
0.888119229861188,48.138409182939974,-27.56164316250585
0.9094289791467153,47.28510195972163,-27.859549698948683
0.8787812339420547,48.50750978885793,-27.431682398282845
0.887301983255238,48.1701794446113,-27.550301506306976
0.8983526184485441,47.730063645143986,-27.704654086111073
0.48824840579761697,60.84461037819642,-22.761286250117916
0.46460759765916276,61.385600761943714,-22.54243770474105
0.46419104112600085,61.39452464434641,-22.53879193284087
0.4758130060622189,61.13161153514568,-22.645254721386337
0.4767260658794361,61.1107497677703,-22.653725781133865
0.4768733320336867,61.10734794591059,-22.655076905892603
0.47566573990796907,61.1352172318764,-22.643800259914173
0.42642828489446843,62.19840726130541,-22.211296461286828
0.4761161551010911,61.12482321373432,-22.648060387143843
0.44237958290555196,61.86706108770285,-22.346588048280946
0.45880362974820776,61.511750745075986,-22.491165680055563
0.45755772472440964,61.53904596971496,-22.480080057306502
0.4436254879293511,61.83937303704214,-22.357856597447032
0.3828612620511283,63.04918205635873,-21.862222507301155
0.3361333538507958,63.863300989041676,-21.52552640130394
0.36741890896928575,63.329393363804485,-21.74658765668413
0.368684017115999,63.3069196946718,-21.755895756334144
0.35436867272274525,63.557786465162124,-21.652156751452388
0.3531035645760325,63.579705240780584,-21.64307993081996
0.3570507401766065,63.51292780869505,-21.67075520756631
0.38049350045061636,63.09340230443382,-21.843963317833218
0.3342895112898958,63.8931130122774,-21.513135326391335
0.35811209765891555,63.49440314971473,-21.678395566141813
0.3566664694703844,63.51945503135439,-21.668042702052958
0.368614052263126,63.309843579221095,-21.754663000272235
0.3461645148661734,63.69806713371323,-21.594084066462848
0.4287931106032188,62.15024472468028,-22.231033661674534
0.4781428611041679,61.07776064811146,-22.667059685014273
0.46319516146003575,61.41567817970742,-22.530221975657653
0.44599031363810154,61.79023291498619,-22.377954918895302
0.2736293952855586,64.79152798790433,-21.138542789793657
0.2972354237024749,64.46373348959922,-21.275579957483927
0.2987089888924886,64.44190784237463,-21.284715597563743
0.28678757417479295,64.61094407498867,-21.214072008820537
0.2853776994974794,64.6305739102627,-21.205834298806014
0.2853312883560612,64.63175421533437,-21.2053530760515
0.28683398531621035,64.61052083833323,-21.214256987202784
0.31130839153070977,64.25396597472921,-21.36303972327102
0.310012756063119,64.2736011995813,-21.354847852081967
0.31130839153071,64.25429795602115,-21.362919580508716
0.31046901934969523,64.26612039384398,-21.357958728777145
0.3339615131686791,63.898083684500165,-21.511112517586636
0.286534234861211,64.6156559804488,-21.21210302147119
0.31812684237956973,64.14836741398622,-21.406966453895272
0.30142568796873115,64.39958917389423,-21.302325627690102
0.0651355043452615,66.52030811042314,-20.409222346313662
0.053708607133635025,66.55165849244955,-20.395903654339197
0.09992289813697991,66.37749889516307,-20.469899810429638
0.08529313220136156,66.44369226112686,-20.441778168124333
0.07028965900721397,66.50155212146963,-20.417193822442712
0.006345526422199843,66.62144204030216,-20.366214901361843
0.01016738093160846,66.62366294757007,-20.365273302037767
0.05595812328383603,66.54722051209683,-20.39778420175754
0.05126819609132764,66.5589398085947,-20.39280194101392
0.09559183216760668,66.39933501459976,-20.460619467355357
0.06898515789721042,66.50683260736932,-20.414954443859568
0.07014110904410763,66.5024144669893,-20.41683085565647
0.16772172920605416,65.93293773192819,-20.65827308510594
0.19017317965279792,65.73570997381242,-20.74160426886932
0.13938282025875318,66.14847650932067,-20.56703753689137
0.16588146443019167,65.94866207385095,-20.65162904586795
0.1671243990472619,65.93730463350188,-20.656420851013884
0.17771131627584696,65.84841935590286,-20.693990428156084
0.15529454720160663,66.03155264835966,-20.616559293697062
0.2385314406931989,65.22917432410928,-20.954935954701426
0.286159693098189,64.61921755548374,-21.21063525080452
0.27099093971037885,64.82763302676138,-21.123442098466043
0.25387814590493085,65.0461185622612,-21.031850914054996
0.23591408804904834,65.25853181615992,-20.942584870547638
0.2845784768732954,64.64244936441088,-21.200925112419842
0.2512607932607805,65.07695353835028,-21.018888731909993
0.2501330968299765,65.09104456464159,-21.012979399273988
0.2656646744105306,64.89444456605587,-21.095429161625116
0.26679237084133445,64.88070845343914,-21.10119127685775
0.1927883537937914,65.71031379188835,-20.75234015833143
0.14165175534371363,66.13020142881355,-20.574784233957246
0.16853828004296165,65.92645206789643,-20.661012652376776
0.17064170092021516,65.90936247267379,-20.66824139860098
0.15743960955063646,66.01604095578209,-20.623103721092676
0.18174037141253988,65.8136934669,-20.70870121597048
0.14590011909604067,66.10038433612678,-20.58741281932035
0.11849843811963416,66.27844907418854,-20.511929179314425
0.11439704810010659,66.30268595140856,-20.501662986649624
0.12698895585464695,66.22769569445974,-20.53348206771819
0.12124748133220085,66.26330826470715,-20.518358694052136
0.15081097635335955,66.06576922561301,-20.602086456116645
0.10725597136101882,66.34261471560747,-20.484696330859663
0.11986215256533776,66.27158779615681,-20.514846676322865
0.14642905567978906,66.09882597415672,-20.588075819805617
0.5004880725983585,60.55592174566916,-22.877584118384497
0.5236458659181378,59.98930380961092,-23.105016014158956
0.4763637346725987,61.12139652020206,-22.649419347593145
0.4998790462261965,60.56947501046942,-22.87207999078116
0.5007218696936144,60.550301424417874,-22.879837128068957
0.5119714468726912,60.2783730284013,-22.989177752931006
0.4886294690471227,60.836549623670265,-22.764462188525624
0.49544632145057926,60.67487826130625,-22.829629345127366
0.5300690045313867,59.82997488400716,-23.168654475203187
0.5144518056330365,60.2178033142436,-23.0133584353755
0.4963675357112009,60.65403355366987,-22.838092688831132
0.564844173505044,58.93156407778661,-23.525987148045928
0.5769722435018765,58.59771705725256,-23.65785091669761
0.5758072808175628,58.63217726770388,-23.64429875145596
0.5791396583107936,58.542397296267694,-23.679833026357077
0.5242421861296311,59.97743020518905,-23.10978141561495
0.5532471361896745,59.23395082915308,-23.406073495897015
0.5421203430291067,59.52349986653489,-23.290987464029627
0.5589633512445719,59.084131741593815,-23.465541911495514
0.5361052091723114,59.67801817500929,-23.229444680249525
0.5415243089208391,59.53558442082688,-23.286133793671716
0.5536107525037799,59.22558452088992,-23.409391969294678
0.5530221286556435,59.24153465957487,-23.40316762030231
0.5299392372379069,59.832719526024285,-23.167544111871965
0.5651267740270834,58.91854092168675,-23.531091612056915
0.5415772527465627,59.53766770930367,-23.285322653220867
0.5300768520232086,59.8301210537904,-23.16874101424402
0.5421974863406094,59.519439853300966,-23.292591864707152
0.5770077511476536,58.598308519465995,-23.657720834167378
0.5535336091922775,59.227371903331374,-23.40878656976228
0.5000802271910503,60.56490320047338,-22.87394448426081
0.5183215941782848,60.11979170378657,-23.052666414054656
0.4707348359179446,61.249121534871456,-22.597688287415544
0.5002124153920001,60.56038742172239,-22.875694809016302
0.4822569054913466,60.986198768886474,-22.70405975752516
0.5304422284956828,59.818159782762834,-23.173400446375464
0.470269293839926,61.25739987685081,-22.59425664251768
0.8903077734616381,48.052436445546064,-27.59179406385752
0.913707960896654,47.112049482472756,-27.919450998308605
0.9330563129916093,46.317803402040745,-28.19326645755526
0.9046713434765097,47.47617115100629,-27.79298297462948
0.9030495414388311,47.54262504652235,-27.769883302843496
0.9034981215579067,47.52427266183856,-27.776207204337044
0.904222763357433,47.4947880645108,-27.786458544217872
0.9231946463713605,46.72562891023138,-28.05266594107424
0.891785998374977,47.99168950670901,-27.613062375234016
0.9526432238021257,45.50632443706763,-28.469661647914005
0.924154620108289,46.68524467468789,-28.06649528634131
0.9267963856667654,46.57450963895082,-28.104717519156825
0.9487045094251337,45.66908507285003,-28.414698951277998
0.924490234938664,46.66953554646115,-28.072347657037586
0.8995393631312946,47.680590826241804,-27.721757774354614
0.9154192252738943,47.0381203541463,-27.944548574961416
0.9152170348544695,47.04940449948404,-27.940958112638725
0.9538493096223906,45.45532876307472,-28.48732296232155
0.911824433520686,47.18620430189161,-27.893651041124176
0.9233310538503098,46.718864940818534,-28.05516631645627
0.9272033609103433,46.55844834297261,-28.110545598266057
0.8791332308307226,48.4950032744349,-27.436362645119925
0.892570874867714,47.96100163109052,-27.623623969009007
0.8462397280538088,49.76488549677916,-26.984647808292078
0.8867941688480719,48.18998855128892,-27.54343910942138
0.8808241676273705,48.42501690855305,-27.46044718142292
0.8744464042985393,48.67653234535551,-27.37189187728237
0.8684764030778367,48.907778912659104,-27.28974214914479
0.8602036312335148,49.231954691550406,-27.17494482801161
0.8387105153031458,50.05142975125797,-26.881923819094403
0.904894635022348,47.46463100728668,-27.796658075925865
0.8790793173977108,48.49572403834321,-27.43590542275108
0.8852660902304681,48.250356749701915,-27.52201630944201
0.8735193829901233,48.71274273852788,-27.35887874759776
0.8536424056899347,49.48252240010439,-27.085622911165352
0.9039346612854268,47.50326770897616,-27.783169268679103
0.31900763989006103,64.13604483215647,-21.412157498753565
0.13271299379485615,66.19276566307514,-20.5482721083762
0.15540956834476083,66.03131783224605,-20.61664788762204
0.17223964779340176,65.89500403391965,-20.674308238036097
0.15846137914091948,66.00760383124494,-20.62669006607968
0.14401564331712585,66.11461333298628,-20.5813889060755
0.14353333430148799,66.11777098234597,-20.5800557960094
0.14328557728565297,66.118373765976,-20.57978881534035
0.17261259872305557,65.89219468494979,-20.675517527434394
0.14333680427202514,66.11947778143204,-20.579326887390867
0.188094341115679,65.75471258730919,-20.73356621533271
0.17003560141992505,65.91310309369926,-20.666663976928298
0.16371044507015875,65.96538255074618,-20.6445530614032
0.19606581204745066,65.68217265820168,-20.76420886388153
0.16486538371105766,65.95426235746508,-20.64923795192867
0.15426100278844476,66.04009051464112,-20.61294670708929
0.16504568797323163,65.9540165470085,-20.649358518237715
0.1507961085949557,66.06516439919757,-20.602322012555334
0.1786549878373386,65.8413689463154,-20.696984406837853
0.14054769035019826,66.13852230205897,-20.571260004440646
0.16799622928195265,65.93092338986774,-20.65912819949552
0.1653382608686741,65.9521215890895,-20.650166122309315
0.12010372689068254,66.27152208649069,-20.51487043340591
0.15181684857228775,66.05703153691636,-20.605738966772574
0.10343327217469316,66.36012802927647,-20.477255010656837
0.11437080297057982,66.30263378729323,-20.501655460027788
0.13028708564784766,66.20594887665189,-20.54269445157134
0.11850698872197758,66.2780817079614,-20.512084329563326
0.12615089989645,66.23249291508647,-20.531425830571973
0.12399442592346356,66.24676779209295,-20.525374957801663
0.09476377532063733,66.4032382338058,-20.458971932160683
0.1528872308463171,66.05019695677379,-20.6086731932012
0.09494239566857203,66.40141025312982,-20.459740273771942
0.1439018099568226,66.11578527396978,-20.580884685888343
0.12471746759476084,66.24237644564404,-20.527244806634286
0.10964375104747659,66.3284551243108,-20.490712779357622
0.15922109400847945,66.00112624343262,-20.629428118309566
0.6772199223668851,55.65767280008775,-24.8011075540713
0.6994752534601978,54.94671824065553,-25.072188431986625
0.6697974269885325,55.89063529662492,-24.71188575534175
0.5463204160123417,59.41479794769278,-23.334192428887388
0.57160316925865,58.746429692002735,-23.599230025859217
0.5242981379486501,59.97499020778106,-23.11068560740416
0.5496869513258912,59.32761219385059,-23.368924317291835
0.5465224268921137,59.409605767984694,-23.33624550740648
0.5596835730349796,59.0649295879337,-23.473150670026477
0.5365258051830287,59.66682317258353,-23.233867175558835
0.5654613330768593,58.91394390471066,-23.532988940730938
0.5950310652014877,58.10116170811206,-23.853547388639598
0.6034072387848177,57.86407022669367,-23.946534424065526
0.5950033887572214,58.10033415227568,-23.853743928668166
0.6129858097713556,57.589568080990546,-24.053904111605227
0.6074707256180638,57.74823596243044,-23.99191418241465
0.6073379680406462,57.75341635812799,-23.98988268414409
0.6318535172587737,57.04079236697782,-24.26775257662039
0.6312176140633394,57.058925723954225,-24.260676290455294
0.6200754681341529,57.385574816931396,-24.133531239015966
0.6192083373557956,57.4106863965022,-24.12374328060594
0.6199380762956039,57.38963414940711,-24.131985134279557
0.619345729194343,57.40626793107517,-24.125418853047925
0.583481221198937,58.42243205843379,-23.72718698691239
0.5607328305438062,59.038396468745105,-23.483759003279665
0.5579806613853286,59.110731892689344,-23.455017470318882
0.5708184065306032,58.766817930319434,-23.591165829832974
0.5715616249752644,58.74703615437426,-23.599030397236138
0.5723193073004798,58.726200346936864,-23.607204766601445
0.5700607242053873,58.787508815938985,-23.58299867018329
0.5972835726644135,58.03897880811456,-23.877930472920273
0.5976075558745566,58.03046309335614,-23.881264899246982
0.59036256964456,58.23068064886124,-23.80254723584414
0.6199785136824907,57.38749287678449,-24.132848298272194
0.60341171349777,57.864412465600374,-23.946407625858416
0.59036704435751,58.23060612208157,-23.80258665658991
0.5726078341200826,58.72100117404088,-23.609331982173316
0.5950129745684641,58.100205116525665,-23.85380539016361
0.5943981130924001,58.11811200367692,-23.846821142073075
0.5942375868913663,58.123090779957714,-23.844861219721967
0.6193426104870604,57.404930880572174,-24.12603621492872
0.5819357277816664,58.46522449573804,-23.710241562090854
0.5698556649616058,58.795553469806684,-23.579814704552543
0.6173920530180571,57.463587120617646,-24.103005540151504
0.6642881073699839,56.058477368611236,-24.6470282313407
0.6322701331131381,57.02740834474103,-24.272824218001166
0.6474312078643712,56.570958099889936,-24.449450662817362
0.6172543318104614,57.467798148325215,-24.10130710797532
0.6651592304734399,56.03245969088262,-24.65715719545182
0.6481646097602312,56.55193793048893,-24.456940614589424
0.632090286785357,57.03502103434649,-24.269800111967587
0.6481224846400443,56.5536140627597,-24.456353887325697
0.6321324119055426,57.03206159690659,-24.270956575666073
0.5684282864121409,58.83314111579611,-23.56506093080856
0.6057828670429829,57.80039652342774,-23.971451707443272
0.5779756573051411,58.57530990575228,-23.66696580378139
0.5887316218511841,58.279944334239325,-23.78321838514992
0.5976581285126755,58.02869568255069,-23.881885265312405
0.6175406646133705,57.46140078925058,-24.103880733697853
0.5976521485219495,58.02931905101113,-23.88169547595037
0.6259812209900092,57.213077938508114,-24.20058569626889
0.6114951498811806,57.63509317938127,-24.035998654856886
0.5705556935424766,58.77565659150776,-23.587677652992205
0.5207298083045742,60.063345874082394,-23.07523626174671
0.5592182333196806,59.07775936202689,-23.468148736117634
0.5471045628929908,59.39503879871921,-23.34207933750183
0.5335396115398263,59.74407090390206,-23.202988823118464
0.5456532819665144,59.43184496147903,-23.327415134281907
0.6081776595644378,57.73022065215032,-23.999023473382653
0.6251056990306949,57.23938241535419,-24.19045684047614
0.5773599914747133,58.58951979983123,-23.66119040372227
0.582228626634337,58.45818278375385,-23.71305206632422
0.5961686993074077,58.070556524048655,-23.865579240552517
0.5708911664115403,58.76610916445895,-23.591530908178047
0.5941929942439738,58.123691456841705,-23.84458088028602
0.6202529561763799,57.382429324057334,-24.134824635115095
0.5645144132421593,58.93616657326228,-23.524165996096706
0.6873140042009435,55.337400660455074,-24.92343450968619
0.6748703879373237,55.73017590349695,-24.773318575103463
0.7145697560029152,54.4529207131272,-25.25930575784382
0.6627003115670845,56.10864962380357,-24.627992710511684
0.7042589309181839,54.79049108883537,-25.13163661738032
0.7196837566575062,54.2821277998386,-25.323792201123073
0.6740523388456049,55.75669618575286,-24.763165414909395
0.6917981771234355,55.1922266619932,-24.978775759910555
0.7256605487844147,54.08323571743301,-25.398779721495522
0.7023029564774709,54.85274618238624,-25.10794653463702
0.7032577134194063,54.82299616179357,-25.1191998642925
0.715258521652594,54.430343243717864,-25.267861582748626
0.7139486919237069,54.47196786592056,-25.252140407270993
0.7142050205624793,54.463693089419465,-25.255270709643145
0.715002193013833,54.43781177815601,-25.26507869531669
0.7547022536712661,53.100684314398436,-25.766398539257096
0.7830405357258193,52.098078019940765,-26.13748771244761
0.7671060891884189,52.66123548068045,-25.929360311620606
0.7656717821709885,52.712839997283595,-25.91041977989231
0.7543287062106421,53.1092864145151,-25.763163723178867
0.7140738070353364,54.46873588524254,-25.253445500612415
0.7431145444828048,53.49291469659952,-25.620087785296434
0.742849674645565,53.504233646579905,-25.615860818615797
0.7488411767833244,53.297658173186136,-25.69304127513737
0.725975871120343,54.07367694038795,-25.40246481734518
0.7313982691066112,53.88589530570123,-25.47290566184277
0.7429446397458536,53.50042743710141,-25.617444387397725
0.7429147050100364,53.50203179737921,-25.616860894485345
0.7547456756549832,53.09239752132259,-25.76937906975203
0.7080032970206669,54.66172590754092,-25.18019552281658
0.7314857240216611,53.88825600622403,-25.472086133666338
0.7660548024831064,52.698617367196846,-25.91565462351021
0.7315083150712475,53.88775606769661,-25.47228696677205
0.7314133499709636,53.88850822465379,-25.47196031908192
0.6130606998751749,57.58935917102658,-24.05406441565722
0.6192043543811634,57.41231828736766,-24.123197083008655
0.6482005972246623,56.55005804764765,-24.45778207914481
0.6482555591144473,56.55131697437839,-24.457302744204892
0.6539121102947598,56.37780723935291,-24.52431540989377
0.6310747236963096,57.0640779054286,-24.258781918730033
0.636782924453995,56.88956367126469,-24.32639695404778
0.6482522659578236,56.55122079300274,-24.45749364591209
0.6600485253910526,56.18694509381124,-24.597755711988988
0.6482060957531441,56.55158712031819,-24.457332695503816
0.6130306523249337,57.58803717778384,-24.054400486251637
0.6367824923203173,56.8937920213398,-24.324799668503935
0.6368384827921981,56.89352967111533,-24.32494117058882
0.6719000660457534,55.82022972505345,-24.738673130070726
0.6249343623469497,57.24374287346685,-24.188936215534167
0.6368417759488231,56.89108532693026,-24.325856505743786
0.7033835404280617,54.82038400909368,-25.120228810438082
0.7195232878820809,54.279633417894836,-25.324726993747653
0.7197834994094285,54.27692212374677,-25.32568563120552
0.708745863919949,54.642657963808944,-25.187518736016727
0.6743304369108841,55.74787714704244,-24.766481097320572
0.6600815389136768,56.192417704527585,-24.59571787278147
0.667733648260569,55.9551617058468,-24.687085473747178
0.6899673905311287,55.25048837583985,-24.956599100195636
0.6918004660298636,55.192341370461286,-24.978748932443143
0.7020393858743663,54.86182190609714,-25.10457197448717
0.679556402267367,55.58291574402288,-24.829649520913257
0.6899601485667889,55.25078952547359,-24.956455001325317
0.6916356395749401,55.19789502465214,-24.976653644376434
0.6899445084458664,55.25116952998176,-24.95631911243813
0.6601003878393078,56.19127105380952,-24.596206715342497
0.6899372664815303,55.25024058605586,-24.956531022755765
0.6719002597608461,55.825543050334524,-24.736722133724996
0.7196786110249941,54.28278817402791,-25.32371165584516
0.7078807805625401,54.666555806915085,-25.178406550167576
0.7078715120402779,54.67250126590296,-25.17627628523507
0.7196155195085014,54.281162789444714,-25.32415469709949
0.6600554310359847,56.189690779797516,-24.596723061440702
0.5178155300986789,60.135844919560384,-23.046327794955793
0.48385970205144074,60.94711476532063,-22.71983881958433
0.533535966972234,59.74239847031444,-23.203632723927008
0.502171330331442,60.51418117118407,-22.894373919670542
0.5079086006766842,60.37772015679669,-22.949209341941916
0.5206415004528793,60.06355936931464,-23.07523942101531
0.5258890430940402,59.932989770040486,-23.12746940058934
0.9711345686185564,44.72649075703325,-28.73287871441382
0.9785024348769361,44.41831521190504,-28.83603513506113
0.023524602644946033,66.60919733670768,-20.371429313563016
0.8091323427917071,51.15347607774353,-26.483310047459952
0.7993145502426601,51.51152824319273,-26.35275585068257
0.8231435596313107,50.63345075889438,-26.671896600798284
0.8679181414242998,48.93124707979275,-27.281987420588994
0.8677285828096949,48.9403103945516,-27.2787308273624
0.856633898934128,49.36912855406254,-27.12598991162364
0.8565396493613473,49.37248041460306,-27.124797591718444
0.8564532046611413,49.375833934517374,-27.123735353569487
0.8567203436343348,49.366248612976165,-27.127186323210754
0.8297200956514741,50.389297415189766,-26.76023345534423
0.8025773284976117,51.39175230772109,-26.39624027133589
0.8468973198306186,49.74088630439167,-26.993307510669307
0.8270932255315849,50.48750804926236,-26.72470353195631
0.8296316786097365,50.3919714846026,-26.759365478520323
0.8565914801672216,49.369920299333266,-27.125774024289832
0.8096728902684658,51.13238879823109,-26.49097863595488
0.8353779361309188,50.17698841046719,-26.83677221426378
0.8060437076982161,51.26610315966583,-26.442347736281825
0.8286849364941093,50.42994240378857,-26.745588630424262
0.8278711426551613,50.455898800475126,-26.736057326747634
0.8417796104091394,49.936220380320385,-26.923435341408272
0.8181625836785916,50.81985676632832,-26.604567766980516
0.8267649585458513,50.499707892171195,-26.720409691748593
0.699642374693939,54.94083159956205,-25.074398136393008
0.6925528848686779,55.168793398064146,-24.98766363459868
0.7076473874113925,54.680492400866044,-25.173187422448663
0.7200810505802364,54.26911612101835,-25.328598527223615
0.6895158497067077,55.266743713348895,-24.950450854348453
0.7077411465128913,54.67471759432483,-25.175361945501272
0.7093695538442892,54.62157969102332,-25.195463452890593
0.7616817341141571,52.85116583055749,-25.859129893009182
0.7160072937150221,54.40469091212435,-25.277535567626725
0.7327879741047557,53.84434357188766,-25.488497931886045
0.7457964558630923,53.401346101530585,-25.654256574596047
0.8392827109159623,50.029844249235005,-26.88977558815231
0.8073333181540907,51.212350376264716,-26.46176052717988
0.8554491266939258,49.41439146205339,-27.11000905800247
0.8317236968979396,50.31478228049782,-26.787197196085568
0.8331214508613156,50.26481621297931,-26.805408520183825
0.8204042602406963,50.737904283876304,-26.634377786987898
0.8444408875185607,49.83639388958812,-26.95925317626472
0.8088968093121135,51.160391045737114,-26.48064649109898
0.7848760877702841,52.03279021250335,-26.161444973773435
0.7853876813290948,52.016358270033166,-26.167288960626944
0.7840897660663442,52.06071547229025,-26.15126116059723
0.7985363969923897,51.53921875299149,-26.342541124496353
0.7723572870317373,52.47844904079591,-25.997211792200233
0.7723211279301282,52.47903355176407,-25.997082776421962
0.7484687255242665,53.31119399859639,-25.688048127971125
0.7485752744463706,53.30702102921861,-25.689598557911122
0.7603104763318784,52.90015890750595,-25.840981551572167
0.7606899967579448,52.88677781528174,-25.845913381843065
0.7605173849716659,52.89293622947355,-25.843623721000256
0.7604830881181661,52.89405558986053,-25.843204456734092
0.7971138097801848,51.59090695146038,-26.32370585055149
0.8160541905737004,50.898235054040114,-26.57597701929213
0.8270483344163512,50.48822020845948,-26.72459079735314
0.808948511589498,51.1599435668168,-26.480972185472986
0.8087960500153638,51.16596813996142,-26.478823756686893
0.8084656974684812,51.17746821206254,-26.474585855713055
0.8092788641363742,51.14790595113689,-26.485358973886107
0.7842997580109686,52.05285519466225,-26.154195062425753
0.7603437291005498,52.902204583819675,-25.84022315620824
0.8041791869974149,51.33206748449238,-26.418141862738683
0.7846322153661842,52.04069601434074,-26.15854534720045
0.7841069946698682,52.060213708094274,-26.15148643684532
0.7723923885479411,52.477554948830765,-25.997526838477587
0.796590693892207,51.61001083901249,-26.31675142953292
0.7845185481730667,52.04470420255155,-26.15714867981373
0.7842103237385036,52.05539960690288,-26.15318750864488
0.7849987270146704,52.028032468769865,-26.163341058584763
0.7604494733599455,52.89704101948006,-25.842149055304848
0.7974030558973952,51.58146329831084,-26.327235039129125
0.8055109438771673,51.28493894588127,-26.435333610907406
0.8263550670619031,50.51484931190052,-26.714794133312143
0.808482069420628,51.17180340564195,-26.476558632731972
0.85418100137247,49.46300281804572,-27.092473880609717
0.8303747841820243,50.36442229642335,-26.769219839325782
0.8179065962582529,50.83012719636767,-26.600813613132583
0.8293556615574107,50.40458063408038,-26.75455517229997
0.8418238494811869,49.933485033925564,-26.92425591464287
0.7582212645052698,52.972789686626086,-25.814054708834306
0.7832332990669212,52.090859453555176,-26.140202297876275
0.7987340252443654,51.532450895294595,-26.345035378557437
0.8073384435648927,51.2184323078559,-26.45955604879824
0.7948985995695997,51.67097640209381,-26.29448547130008
0.805231927088869,51.29631516338328,-26.431352203184062
0.7636100160218602,52.78406129879736,-25.883968562044995
0.7528737486502971,53.15887761221214,-25.74482626758411
0.770828825986894,52.53189546674702,-25.977563525696226
0.7369227043673958,53.70353801349781,-25.54129351556223
0.7621646924324732,52.8343726161246,-25.8653881477298
0.7158706614782816,54.40936656035763,-25.275798245275258
0.7407935591630523,53.57239508169006,-25.590376088492125
0.7369851156152872,53.70161774280061,-25.542043744235773
0.7276484451679788,54.01636046352835,-25.423851038057528
0.7501302296103649,53.25276985602906,-25.709914588208843
0.8062474498869823,51.26034742968675,-26.444419525058965
0.7844038917423038,52.04852304215162,-26.1557601266813
0.7538308873526836,53.12486412556788,-25.757489542346374
0.7673196899132906,52.65465798819157,-25.932104158617424
0.7960854559191229,51.62842830267016,-26.310050074017482
0.7732216915802048,52.44712388473606,-26.00887176310733
0.7611872287580935,52.87002754177589,-25.85234682224866
0.7995309978723539,51.504179491551355,-26.35533006138925
0.8088919589640583,51.16257576177261,-26.47990545714271
0.9807353569734284,44.3164940820281,-28.870043447227477
0.9511490843692186,45.56874640801661,-28.448401643466077
0.9887324396643827,43.985944267989645,-28.98068174817813
0.9719743072381973,44.69196145042904,-28.74486453754602
0.9795454435148426,44.368482949058375,-28.85282344659234
0.9273744257225865,46.552072501149475,-28.112427430876533
0.938491452849887,46.09257516437116,-28.27041292225747
0.9492701789609167,45.64810199671165,-28.421949920087823
0.9292301657844679,46.47778382513569,-28.138325634573086
0.9530095710027401,45.49061551412804,-28.47523902211266
0.9511242706319195,45.568430594701645,-28.448841441892565
0.971022025985581,44.73228774562088,-28.731269568738348
0.9928426559286846,43.80044684102849,-29.042213327654448
0.9815750955930677,44.28234555351257,-28.88183227540469
0.9696404291856465,44.7912675931484,-28.71116207108525
0.9860143977998784,44.099986396056,-28.94293921775844
0.9398692363655089,46.04036169596404,-28.28803149082443
0.9757834202056002,44.52897392898692,-28.798937636623283
0.991652742470099,43.84800362593636,-29.02611106659811
0.9565187771790378,45.34461060274556,-28.52446024610413
0.9689016465220665,44.821017911109585,-28.701436823047818
0.988732439664385,43.977186624778064,-28.983356700945276
0.9692492682477336,44.806212254191315,-28.70614770989291
0.9492490782854852,45.64829142047171,-28.4213525239996
0.9033242908879358,47.52748892250823,-27.774771794884696
0.9352769108054885,46.226392524879714,-28.224232194758034
0.9205960906060311,46.82668097053499,-28.017630919241867
0.9497223921537794,45.63132624605412,-28.42730637157952
0.9062081895957681,47.41228013795395,-27.815014272196827
0.9243487105773203,46.676873188819876,-28.0697164130065
0.9239533031821554,46.69262130410403,-28.06420929516498
0.9361456320689457,46.19184669422163,-28.236212567866406
0.9357502246737815,46.20852225423062,-28.23038253833925
0.9720728152077905,44.6889573337363,-28.745650814766403
0.9800500898645693,44.350486576256806,-28.85886498510558
0.9481127089266842,45.69787604137695,-28.40482285798689
0.9712167411135011,44.728813699836955,-28.732465217363984
0.9492833590512402,45.64445771400645,-28.422656413703173
0.9728927457932595,44.65640332941987,-28.756649562582872
0.9686260761342913,44.835408549376616,-28.69629126671977
0.9343098229174721,46.26677370965152,-28.210531989782254
0.9589511632011752,45.24660599384451,-28.557767050501425
0.9901761114597346,43.91128547021275,-29.00535523715514
0.9931717418711926,43.79072998179324,-29.04553419821071
0.9665827237787744,44.91561730603164,-28.669492910274386
0.9444391878397803,45.856272110184065,-28.351045338553273
0.983347853330918,44.20615682374576,-28.90748359193549
0.9808459145258505,44.314146471780106,-28.871025779207958
0.9382439918613404,46.10300976405945,-28.266572839297247
0.8652107817559787,49.036943526209164,-27.24402930392869
0.8752233414321562,48.64587381193084,-27.382808404547454
0.8875350366478029,48.16062429201608,-27.553462860478103
0.8568271936854643,49.35672638709685,-27.13030298523249
0.8560619233518286,49.38706386820388,-27.119652398429587
0.8986632194248119,47.718118518512576,-27.708578179538463
0.8798578142646001,48.46308973353321,-27.44731307824395
0.8789031254406232,48.50299786729831,-27.43337341723275
0.8823351840249334,48.365566881284764,-27.481373685826227
0.8855049219205027,48.24044899193114,-27.525556381146657
0.8736516937804089,48.70772792100025,-27.360784737365147
0.8704819558848446,48.830921889559306,-27.317029299373463
0.8433660074494894,49.87563722605564,-26.945068986371243
0.8935722164827188,47.918211101715286,-27.63849207842138
0.9025880561866221,47.559097332269616,-27.763856341414726
0.8548698638059248,49.43549488667446,-27.102473905718636
0.8748914852439866,48.658359591222265,-27.378125751733503
0.8412967433827733,49.95343857820983,-26.917179115344695
0.8901715589097053,48.054288029735815,-27.590791026159074
0.8921552460190321,47.97906265936329,-27.617379652009394
0.8718241618117529,48.77903636419203,-27.33567398370214
0.9055088547069869,47.44379586867675,-27.80438235206795
0.8764782604474068,48.59804603718806,-27.3996215837982
0.8578459697610191,49.32239946809245,-27.142881248648457
0.8633034124985639,49.112469349030334,-27.217574040166525
0.8421880828982652,49.92097341053559,-26.9288722795346
0.850774927055877,49.595869542281406,-27.04546461524131
0.2971716970205309,64.46221175713505,-21.276191781276943
0.3373984619975097,63.842391615109236,-21.53419892266788
0.43542986517706866,62.01215463945624,-22.287475784046308
0.42313192566791435,62.268027842034755,-22.182966442423044
0.4231905890622885,62.265486802850624,-22.183956298440393
0.42168484603058864,62.29672611087658,-22.171191704409082
0.47585654725522725,61.13083011973068,-22.64560344012012
0.45874722426652037,61.51491166979698,-22.48985944687351
0.45825159891815553,61.52437299949861,-22.486032775956993
0.44111067909695245,61.89553936795495,-22.335118826940604
0.46396956314534976,61.39887081765839,-22.53697260078814
0.4586497632217356,61.517189368515936,-22.489023428421753
0.44629679946242085,61.78166036761723,-22.38144485213984
0.44723895719209567,61.76507050790877,-22.388220981953303
0.4350918956653206,62.021044936888195,-22.28394061217231
0.44733641823688464,61.76088777449592,-22.38991746065128
0.4701385830280335,61.25864680211153,-22.593769120780234
0.4578293074605036,61.535913694465656,-22.481429791370374
0.4230127888732975,62.26892266803641,-22.182553098778655
0.446381229441744,61.7834171607339,-22.380737173059103
0.5096847438145352,60.33328866829877,-22.966968694877078
0.3787903563829231,63.12393653651461,-21.831341878344023
0.3317381121185431,63.93332112425008,-21.496369100505138
0.36001440926059997,63.45945546738381,-21.692810644100863
0.36150416074018016,63.43403021188945,-21.70334239542875
0.34700517877608683,63.682760469868,-21.60037931223957
0.34551542729650603,63.70800801367573,-21.589895092839825
0.38057500869035743,63.09346826394527,-21.84392897491595
0.4323028658796507,62.078712317940386,-22.260258270772
0.3932430700774018,62.8564559545248,-21.941519670887743
0.3764119775409523,63.16793543157617,-21.813209624452902
0.39413169743979226,62.83930524273215,-21.948606572346673
0.39740610122680675,62.777870333410895,-21.973880440628374
0.4078108138128298,62.57468052550711,-22.057269696152016
0.42429375250827867,62.24474562329805,-22.192439577851417
0.37246969653318535,63.23996175959215,-21.78353195981831
0.4304060188095177,62.11779202040764,-22.244329677877374
0.4783890406968655,61.07200932975081,-22.6693690786106
0.44919331822879116,61.72110791954391,-22.406042395532065
0.44784940143709995,61.74988350599425,-22.394343177002003
0.46478525784442615,61.37954404718355,-22.54483934791082
0.46344134105273393,61.409076862827995,-22.532834719434142
0.3769644359292264,63.1580920539757,-21.817314738415913
0.3849492008032085,63.01192155746113,-21.87759188452101
0.3955547338190759,62.81234781509278,-21.95970354579323
0.40413994750204063,62.64557269832062,-22.028188811730633
0.42911005020141596,62.144172281333994,-22.233568504233443
0.41240505129098903,62.482154727820586,-22.09523910389004
0.41936937287852843,62.34377383854032,-22.15192871223806
0.436398430726841,61.994136650488464,-22.294811594002116
0.39335433393716857,62.85213596700976,-21.943319662183992
0.4516861334849098,61.6683516957389,-22.427549775916354
0.428041193100767,62.166914010041786,-22.224233358762046
0.47636233469378914,61.118155457364956,-22.65069838320916
0.4534769707772302,61.629276169098766,-22.443425551534013
0.4512747611630519,61.67690554331542,-22.42406923102059
0.43991173716467125,61.92094087973156,-22.324742975780513
0.46483999477561067,61.378818055899394,-22.54511184525273
0.4344217996114317,62.03010759040101,-22.2801505799396
0.40495356393614473,62.62986183138623,-22.03467552147163
0.41136686370750236,62.50296782396964,-22.086717163433786
0.4050687187536217,62.62758527603249,-22.035582830484202
0.38756552060859284,62.96305298501217,-21.897662651010886
0.3920679878602414,62.87944427732419,-21.932109460945547
0.39267603892389824,62.867619716237876,-21.937004084968883
0.36865059492757973,63.30985394214491,-21.754675362885777
0.3687065879612577,63.308865898785065,-21.755104812838766
0.38048472301734215,63.094977365213886,-21.84333447584627
0.3807885556251193,63.08881049395378,-21.845860438774018
0.38108029063320953,63.08302338526618,-21.84821006099998
0.3801929880092527,63.10011290271591,-21.84122828405028
0.4161817461560452,62.409485535317536,-22.124988454402825
0.44059103655646054,61.905898774577494,-22.330840161479063
0.44042046056937073,61.910114367457254,-22.329118929296083
0.42920860396527505,62.143300418190684,-22.233945048762774
0.42805229021995184,62.16749917864642,-22.22402953893296
0.42911125288243707,62.14506628920623,-22.233237364799926
0.42814964130278826,62.164883332257496,-22.225075267122257
0.4052287708725687,62.62656725430789,-22.036007837929198
0.4043356655820383,62.644013175715386,-22.02882063333579
0.4113713416356421,62.50392221405574,-22.086338778518368
0.38052559477856823,63.0949517701819,-21.843308417658488
0.3991023095837736,62.74307760434627,-21.98811628936616
0.3990978316556343,62.742424530725856,-21.98836887981094
0.42871604415605297,62.15149598651503,-22.23062391497765
0.40504242205860475,62.62795126444359,-22.035429667590815
0.4041354991655389,62.6457048562304,-22.028155177766813
0.40331269815180854,62.66248616446648,-22.021278475725865
0.3805815878122464,63.09478055692097,-21.843425115197864
0.4162746489023815,62.40667096720532,-22.126209755530986
0.4285454681689627,62.15653815015015,-22.228537340140594
0.38115811798343635,63.08051920092649,-21.849275991295222
0.3335819546794438,63.903836748260254,-21.508636619399706
0.3488490213369866,63.65226939070226,-21.61303953323582
0.3657157649015925,63.35980090215124,-21.734012596570672
0.2956117074997573,64.48696860326501,-21.2658891194657
0.3212564662098883,64.10013840907946,-21.427055328262135
0.27885754220797176,64.7206614867482,-21.16822576698343
0.28260411881519915,64.66871569591098,-21.189938657407104
0.3206782415509225,64.1096138965383,-21.42315375428745
0.34135444462299297,63.77803457298565,-21.560914635476585
0.3099675286146027,64.27467260167006,-21.35446678064171
0.34624839103985533,63.69712271181647,-21.594495824953714
0.3223581753102189,64.08507406056414,-21.43336644955707
0.32239841124242824,64.08421811380899,-21.433734799149082
0.3345044416489025,63.89026933368469,-21.514334311191856
0.33397302028616715,63.89828622855114,-21.511016831967147
0.334204047116364,63.89516276493816,-21.512309940970617
0.33427341481870626,63.89420041554436,-21.51270818877065
0.3744259875975145,63.20716194989019,-21.797043893151034
0.3869315449855805,62.973367902204565,-21.893403847135243
0.3342747410035217,63.89566246928112,-21.51211979433352
0.3632250045202257,63.404837958597795,-21.71542150423123
0.35222016549874274,63.5963173568835,-21.636249885822206
0.36894335051673866,63.30441092364388,-21.756906565874527
0.34612061280966666,63.69970237468248,-21.593444491630024
0.35115373802375804,63.61159993744859,-21.629894513695902
0.3637416467634569,63.396582497599375,-21.7188348770765
0.32806409073066717,63.99238461981954,-21.471878609773437
0.3626405139229794,63.41706995726166,-21.71040980296098
0.37511248781900475,63.19179190471902,-21.8033857616908
0.3399818829913142,63.800116188897114,-21.551737763191834
0.3512432642002099,63.61340900503353,-21.629139945909042
0.37525434350646747,63.19094499773032,-21.803710018402573
0.35231615877915357,63.592849469226294,-21.637689831917516
0.3870458335248356,62.97180356943593,-21.89403502297822
0.3636456534830451,63.39853120621175,-21.71808768771539
0.2328385821454564,65.29383595318066,-20.9277708930805
0.23214312196434692,65.30333831703992,-20.923747892001337
0.2394771243701514,65.21944867560194,-20.959066217960235
0.25655781162055724,65.01076495612601,-21.046689676542655
0.2565782387476447,65.01038853223892,-21.046816497222796
0.2735515953852339,64.79327547111481,-21.137775706233835
0.25107091695766953,65.08008522052192,-21.01761822892691
0.2565739942816131,65.01224390918274,-21.046062861060726
0.26212183214266993,64.9416095936798,-21.075656888676683
0.26802476679140447,64.86612185216772,-21.10732178064342
0.23372147289189096,65.28484153938734,-20.931588899224177
0.26800858413034817,64.86569432139571,-21.107456739687027
0.2617564174224415,64.94724372197086,-21.07329782785931
0.2907664429551664,64.5542435043048,-21.237721283587764
0.24498444616012516,65.15292673266643,-20.98698973703114
0.2618610079796147,64.94544266721321,-21.074022842232292
0.2918651308925304,64.53919209250932,-21.244040995802226
0.29866257775107113,64.44182645400782,-21.28467983144826
0.3392787344474788,63.80854669644528,-21.54824326915792
0.32262943807262423,64.07961991176295,-21.435661678170586
0.2797955665474538,64.70887535188292,-21.173115492537242
0.2920560184603335,64.53641967795869,-21.245168896829554
0.2856656294259545,64.62678398433656,-21.207421771990653
0.30958084294957294,64.28090826780341,-21.351820224734656
0.3097990086042068,64.27855670240193,-21.352857641392077
0.3154892129675788,64.18933528554842,-21.389965797900516
0.3156577329779749,64.1864217851324,-21.391181144551545
0.3031902048618975,64.3752697661609,-21.312462769286626
0.3033587248722938,64.3721184262542,-21.31376631063496
0.3090553129220809,64.28821728145394,-21.34876825953687
0.28002636292404404,64.70362199029438,-21.175287721551467
0.3091874117160643,64.28421809887634,-21.350409126973705
0.2912491371084728,64.54775222497966,-21.24047231654546
0.3395152579979713,63.80896250631456,-21.5481562531763
0.32776721231506317,63.99684607155586,-21.4700338387619
0.32757339291141424,64.00222740568931,-21.467840481843584
0.34056811309624574,63.78971515426289,-21.55608258037754
0.27951228001183115,64.71157640080489,-21.171958898139128
0.30623499635180046,64.32920506758128,-21.331679918677334
0.06730427081808626,66.51258649832224,-20.412505372138266
0.12437374581582958,66.24467273576087,-20.526265967537977
0.1082287270396943,66.33756144012114,-20.486849432951406
0.09644890454973555,66.39532379575985,-20.46231978076572
0.09543088901959848,66.39926453396734,-20.460647665106148
0.09402957589843933,66.40509879960335,-20.45817189076741
0.09635400162461721,66.39621084211433,-20.461947134132885
0.07674238068233455,66.4786637687411,-20.426929438282293
0.09645178211405743,66.39600346068774,-20.462047478910307
0.0784303874757547,66.47294194234964,-20.429362351579233
0.07201144415414887,66.4953783289811,-20.419824191132676
0.08296011176063203,66.45516961752305,-20.436913019765154
0.1111518390324897,66.3215391262094,-20.493652548289678
0.0707534010537514,66.4998037769096,-20.41794591793162
0.04824265963524753,66.56619764536082,-20.389714784591916
0.07561231412921506,66.4831916588597,-20.425003246884547
0.0816397264947712,66.459415038829,-20.435111808508644
0.10969589639946663,66.3295210875396,-20.490262863065716
0.04759424973983471,66.56651751929711,-20.389576876769542
0.0773003209226353,66.4767453419282,-20.427742292847952
0.07703591104791535,66.47809837923946,-20.427171962868393
0.07836158092818855,66.47290251917912,-20.429374274510483
0.05010861796272756,66.56266121277763,-20.391218786270127
0.09683293785991492,66.3940608820082,-20.46285934205119
0.07312622709146362,66.49332280446184,-20.420691822456288
0.07372006333384545,66.49204453543503,-20.421239971322542
0.06188807798047103,66.53133363846489,-20.40454186737956
0.08495821244483812,66.44765044173747,-20.440096603926946
0.049060400624918885,66.56248793386014,-20.391294174169843
0.031125938062276697,66.59947999572162,-20.375557870334518
0.0174485794092885,66.6170732574802,-20.368075874907866
0.0621269071214207,66.52843132438105,-20.405772976100284
0.029805347631856084,66.59973112360196,-20.375455058084007
0.036529780762926393,66.5905799222413,-20.379351837099914
0.017112495077323858,66.61951898772166,-20.36702789250875
0.006249987054616213,66.62611545517208,-20.36422649163846
0.006249987054616214,66.62493865516933,-20.36472493669172
0.03775555122861866,66.59048611022106,-20.379381788064208
0.06368542585072239,66.52533348234584,-20.407086209136832
0.07058241638466899,66.50100922595233,-20.417434284132575
0.06400543779214202,66.52300003924495,-20.408078263490367
0.04953501124636211,66.56452845611919,-20.390425480438303
0.048962244591835326,66.56532070580958,-20.390087571871245
0.0503096864896343,66.56191477388406,-20.39153645698327
0.024826016351524264,66.60940053036475,-20.371339802756168
0.00790666181700144,66.62199064884231,-20.365983046061526
0.0551023570030661,66.54938661855338,-20.39686308476486
0.02814867286947084,66.60375628522654,-20.373742749754665
0.02239788380631666,66.6103817036324,-20.37092656301553
0.01848048992932441,66.6151065256262,-20.36891276067305
0.040379175744179006,66.5832628167297,-20.38246028904578
0.03011767319530422,66.6029273445567,-20.374089715627157
0.010424083098769191,66.62096034463069,-20.36642397002467
0.029603605030479783,66.60250716170005,-20.374274209409254
0.029679248271365803,66.60314597677,-20.37400196874655
0.016674070153385394,66.61889786314737,-20.367297654336053
0.04260878314846017,66.57898039419779,-20.38428258522737
0.08071693550082906,66.4619494964916,-20.434039150902148
0.05254902900503492,66.55549512359799,-20.394270586424437
0.1011640038292882,66.3714702629526,-20.472458932574106
0.0857121342301134,66.44297649456412,-20.442091545766644
0.07834682097605096,66.47278985903868,-20.42942517561597
0.09450987229879862,66.40497222448157,-20.45823953497722
0.06954908290736572,66.50476473436066,-20.415832692954893
0.02874341022851651,66.60387439134729,-20.373695456568328
0.061113410050249055,66.53470153564223,-20.403110950169037
0.06671663244435051,66.5145334042717,-20.41168948213536
0.031882853273210075,66.59944899286445,-20.375579119212947
0.015791904646903266,66.61994312604564,-20.366852901556637
0.02802240752161147,66.60585530175517,-20.37285037584216
0.05291296971210699,66.55365803743408,-20.395051806136706
0.0063455264221998426,66.62413040573091,-20.36507194142242
0.07898220131589477,66.46984868192689,-20.430670876599372
0.08013815246279198,66.4651504765675,-20.432666580929602
0.052992125379296894,66.55325521983082,-20.3952203921854
0.00987950246781111,66.62272336099691,-20.36567600372364
0.04254464477041365,66.57949405925054,-20.38406528962682
0.016225028890010946,66.61860749563978,-20.3674235640853
0.08170206866023448,66.46036369707517,-20.434706906511217
0.03323312044367469,66.59570249600809,-20.37717440078765
0.020303585566580285,66.6138126684719,-20.369467386750564
0.304150328040123,64.3615077623754,-21.318240105513425
0.286079660058022,64.62051933288124,-21.210053319725443
0.31046901934969623,64.26659281366878,-21.357789566039667
0.32067824155092284,64.110145371792,-21.42291687801493
0.28144533464560023,64.6849287758721,-21.18315652076835
0.33287188410758944,63.91579325572414,-21.503730697701158
0.262478049071917,64.93698645823595,-21.077603366706636
0.23883803359723021,65.2253354002818,-20.956579037506252
0.2868363860850124,64.6099356088643,-21.214497048448617
0.26330642299396795,64.92587405639135,-21.082260358212956
0.26235375047636206,64.93808637592794,-21.077142088543187
0.25069879096159603,65.08457615303081,-21.01572702167958
0.27496138250873403,64.77328747558865,-21.146149560563472
0.23300983204262815,65.29283710804484,-20.92822761385825
0.21553500304859066,65.48451304919028,-20.84753653577792
0.20099291405433042,65.6332509598671,-20.78483909658326
0.24459479061039657,65.15614648870674,-20.985658595067516
0.20900716683479112,65.55225595198485,-20.81897958157365
0.20645779386501362,65.5771154121754,-20.80848813793916
0.18388730228189198,65.79403704214816,-20.71697748671325
0.20172515079319475,65.62485415664987,-20.788363864231926
0.20266625199828245,65.61677103237966,-20.791801965107016
0.17663473332863866,65.85650836239428,-20.690591767992505
0.17765042172996737,65.84901595191693,-20.69377081939545
0.1828984063487876,65.8035454550613,-20.7129531989384
0.19599893058804,65.68179446456178,-20.764360678247762
0.19623973707828796,65.6791302353597,-20.765493356912593
0.18313921283903586,65.80049877903933,-20.714244627063714
0.22762082577264234,65.35428049528865,-20.902361996037865
0.25057487066675976,65.08595943673278,-21.01513548872463
0.2509704859290282,65.08147039379935,-21.016987365260324
0.23976079929643376,65.2141531125336,-20.96128108726539
0.23948158313700832,65.21814799039063,-20.959605323954424
0.23961340292455605,65.21598162206581,-20.96053396516114
0.23962897950888576,65.21550340199842,-20.960692539675115
0.21524485815455324,65.48866819429647,-20.84580646703885
0.21500934680472794,65.49121162496996,-20.8447372131022
0.22151495424042836,65.41970383448171,-20.874837262421437
0.1943378307354693,65.6956568859774,-20.75849028043172
0.20835426348586641,65.5583909265214,-20.816387068654553
0.22086205089150399,65.42629615514038,-20.872059671441846
0.23869987081577118,65.22705739336085,-20.95589052850054
0.2079890003995559,65.56123587731808,-20.815199102534297
0.21475934311595585,65.49128989268247,-20.844671802430188
0.21577647295198635,65.4813768063017,-20.848845861938084
0.21120592155677126,65.52733219484502,-20.829497013469236
0.18919734218842946,65.7450568928669,-20.737649031356273
0.22685327922603046,65.3610726871551,-20.899491241740055
0.2381947856461741,65.23324961196981,-20.953247394587812
0.19117829944016318,65.72579187954639,-20.745810730763118
0.15066085525671807,66.06752581382719,-20.601329789126712
0.1740827441183237,65.87942297200357,-20.680898176423742
0.1631495878337058,65.97026411558262,-20.642467183049362
0.18856312529916977,65.75126413500482,-20.735042865729852
0.1529297903416785,66.04994492957844,-20.608759792147378
0.17384478652214974,65.881867956195,-20.679870362352165
0.16542608940661835,65.95159236382366,-20.650387730602937
0.16362498903012251,65.96690406274949,-20.643904769048643
0.17564588689864566,65.86544082287601,-20.686813038983434
0.22847171646133344,65.34426754072543,-20.906573620013706
0.24375224678533602,65.16807914976856,-20.980631407722708
0.224475611361258,65.38857777764198,-20.887940388542592
0.1907816176747646,65.7303101303387,-20.743892688431707
0.21502358929135046,65.49065473961774,-20.844968161227328
0.23520378361734298,65.26911426156475,-20.938185057741705
0.19639956206083287,65.67673303538221,-20.766493877426388
0.20146699519952457,65.62906501707455,-20.78661647241286
0.19032177901619315,65.73493566609241,-20.74196048872577
0.24145538624138058,65.19526722271367,-20.96921844209156
0.28841760230990665,64.5862513558548,-21.224395490420726
0.2602720249600394,64.96414553477739,-21.066213755918024
0.2590600006648304,64.97939593832619,-21.059813704936353
0.2744608732173052,64.77962626194629,-21.14354111165974
0.2732488489220961,64.79526295774981,-21.13697499271141
0.19563190890327478,65.68493951046551,-20.763064199055755
0.18686373184357782,65.76544296972232,-20.729043608180312
0.23883770692121825,65.22407926030758,-20.957114607562335
0.24340825831643365,65.1715800322673,-20.979157767355037
0.23034036533433472,65.32398339542415,-20.915107891130898
0.22124378366687428,65.42456268202868,-20.87278727426446
0.24682141804604407,65.13176660697765,-20.995878375834746
0.21486153003349792,65.48997139686489,-20.845223680405322
0.20015793917551994,65.6402913532009,-20.781912839860066
0.1179885137806564,66.27997642234844,-20.511285420088694
0.13612568332133473,66.16872720724938,-20.55846836923059
0.13337664010876787,66.18460062210158,-20.551725760101053
0.10865557357766036,66.33613570056082,-20.4874556787622
0.14559782028980175,66.10270026095907,-20.586433072759114
0.12248990035597643,66.25573663806236,-20.5215756430154
0.12259724542481143,66.25473678656273,-20.521990362514547
0.11276108164308825,66.31066112900606,-20.498256041110054
0.11425285199691494,66.30187093693038,-20.50199171038127
0.12629346115228052,66.23143989121498,-20.531875063625904
0.1208379939438677,66.26627013710075,-20.517097582908207
0.10131437781598256,66.37042552645042,-20.47290082656748
0.14094853281919303,66.13491142144504,-20.57278782670273
0.1512781694157304,66.06043653332071,-20.60431450129397
0.11014381603138998,66.3256275993224,-20.49193010097833
0.12164514937035947,66.25969311711073,-20.51989879097914
0.10009216243638863,66.37621007161852,-20.470443250226833
0.14085787800548044,66.1349511079366,-20.57275486870997
0.14040983420850586,66.13961830458146,-20.570794130971684
0.13371252516181956,66.18635189074385,-20.55100375559256
0.15163546325916458,66.05940574987896,-20.604759913809286
0.14006285648792968,66.14171008150282,-20.569903827606055
0.10722342653907681,66.34097459969122,-20.48539855427242
0.09701526444162084,66.3925968075927,-20.46348393923658
0.095491818152368,66.40016131993264,-20.460281548514008
0.49997836246555266,60.566969587857585,-22.873077115011387
0.48173521056147,60.998496850673455,-22.699063488087727
0.5295304238805544,59.839081311065485,-23.165026852993968
0.4998475153691099,60.568519015355236,-22.872385102808497
0.5178244739780192,60.129155923647936,-23.048887321860146
0.4695010070440334,61.277142095847935,-22.58631200296169
0.49329753206194893,60.72555035351947,-22.809196959314498
0.5088533821046411,60.35459305156314,-22.95851620308478
0.4752229174606817,61.1453652283747,-22.639776991726595
0.4825186372562416,60.97805509601545,-22.707330489813852
0.5004880763236484,60.55578181866246,-22.87764490742696
0.5174929983913906,60.142024128520895,-23.043787077470782
0.46950552769146114,61.27460755761104,-22.587398900137018
0.5007218734189038,60.54983930608844,-22.880000586805597
0.9494887073509973,45.6380199910629,-28.425324403544433
0.9931717418711926,43.792747042536114,-29.044960322520804
0.9669500714545325,44.90437391522691,-28.673136102556096
0.010167380931608462,66.62191156813424,-20.36601996436486
0.009879502467811104,66.6241221370164,-20.3650793210584
0.029615109893319235,66.60239878137665,-20.374321306403015
0.03696820568686483,66.59007201669955,-20.379561201811455
0.03193980139860373,66.59853017549918,-20.3759677288985
0.01042408309876919,66.6223437161996,-20.365834030751525
0.07815416004732527,66.47466142255283,-20.428638076477128
0.06451575491801181,66.52112484939222,-20.408879777217496
0.9467925619254329,45.74168021466055,-28.389773797492705
0.9928426559286859,43.805815462016376,-29.040543058013053
