0.0019531249999999807,95.06405968930666,-3.948758352723429
0.005859374999999951,95.06322873323728,-3.94937743252772
0.009765624999999972,95.06156678735329,-3.9506156059171382
0.013671874999999983,95.05907378417209,-3.9524729004469763
0.01757812499999995,95.05574962248953,-3.9549493574342347
0.021484374999999965,95.05159416740364,-3.9580450319384948
0.025390624999999986,95.04660725034607,-3.9617599927364258
0.029296875,95.0407886691217,-3.9660943222899285
0.03320312499999997,95.03413818795583,-3.9710481167079195
0.037109374999999944,95.02665553754952,-3.976621485701769
0.04101562499999997,95.01834041514248,-3.982814552534397
0.04492187500000002,95.00919248458413,-3.9896274539630405
0.04882812499999995,94.9992113764123,-3.997060340175701
0.05273437499999997,94.98839668793974,-4.005113374721294
0.056640625,94.97674798334857,-4.013786734433495
0.06054687499999995,94.96426479379242,-4.023080609348329
0.064453125,94.95094661750639,-4.032995202615485
0.068359375,94.93679291992478,-4.043530730403399
0.072265625,94.9218031338065,-4.0546874217981195
0.07617187499999992,94.9059766593683,-4.066465518695971
0.08007812499999996,94.88931286442555,-4.078865275690035
0.08398437499999992,94.87181108454088,-4.0918869599504895
0.08789062499999996,94.8534706231803,-4.105530851098808
0.09179687500000001,94.83429075187703,-4.119797241075863
0.09570312499999988,94.81427071040297,-4.134686434003948
0.09960937499999997,94.79340970694756,-4.15019874604276
0.10351562500000007,94.77170691830439,-4.166334505239353
0.107421875,94.74916149006522,-4.183094051372114
0.11132812499999996,94.72577253682142,-4.200477735788787
0.11523437499999989,94.701539142373,-4.218485921238561
0.11914062500000011,94.67646035994481,-4.237118981698292
0.123046875,94.65053521241045,-4.256377302192852
0.12695312500000003,94.62376269252317,-4.276261278609687
0.1308593749999999,94.59614176315428,-4.296771317507587
0.13476562500000008,94.56767135753876,-4.3179078359197245
0.13867187499999997,94.53835037952803,-4.339671261150991
0.1425781249999998,94.50817770385,-4.362062030569699
0.14648437500000006,94.47715217637612,-4.385080591393658
0.1503906250000001,94.44527261439572,-4.408727400470687
0.15429687499999986,94.41253780689703,-4.433002924053616
0.15820312499999994,94.37894651485567,-4.457907637569819
0.1621093749999999,94.3444974715296,-4.483442025385295
0.16601562499999994,94.30918938276137,-4.5096065805634105
0.16992187500000006,94.27302092728692,-4.536401804618286
0.17382812500000003,94.2359907570514,-4.563828207262927
0.17773437500000017,94.19809749753148,-4.591886306152126
0.18164062499999975,94.15933974806461,-4.62057662662019
0.185546875,94.11971608218474,-4.6498997014135846
0.18945312499999983,94.07922504796464,-4.679856070418461
0.19335937499999978,94.03786516836479,-4.710446280383253
0.19726562500000033,93.99563494158868,-4.741670884636284
0.201171875,93.95253284144451,-4.773530442798488
0.20507812499999986,93.90855731771326,-4.806025520491357
0.20898437500000017,93.86370679652299,-4.839156689040067
0.212890625,93.81797968072942,-4.872924525171925
0.21679687499999986,93.77137435030257,-4.907329610710203
0.220703125,93.72388916271952,-4.942372532263367
0.22460937500000003,93.67552245336323,-4.9780538809098065
0.228515625,93.62627253592728,-5.014374251878135
0.23242187499999953,93.57613770282646,-5.051334244223105
0.23632812500000044,93.5251162256131,-5.088934460497241
0.24023437499999992,93.47320635539945,-5.1271755064181574
0.24414062499999997,93.42040632328532,-5.166057990531859
0.24804687499999967,93.36671434079153,-5.205582523871778
0.2519531250000002,93.31212860029896,-5.245749719613923
0.255859375,93.25664727549288,-5.286560192727974
0.2597656250000001,93.20026852181267,-5.328014559624598
0.26367187499999994,93.142990476907,-5.37011343779888
0.26757812500000006,93.08481126109395,-5.412857445470087
0.27148437500000017,93.0257289778266,-5.456247201217746
0.27539062499999983,92.96574171416339,-5.500283323614163
0.279296875,92.9048475412436,-5.5449664308534725
0.28320312500000006,92.84304451476771,-5.590297140377219
0.28710937500000017,92.7803306754826,-5.636276068496656
0.2910156249999997,92.71670404967136,-5.682903830011757
0.29492187500000006,92.65216264964792,-5.730181037827098
0.298828125,92.58670447425612,-5.778108302564566
0.302734375,92.52032750937329,-5.826686232173161
0.306640625,92.4530297284182,-5.875915431535806
0.31054687500000017,92.3848090928634,-5.925796502073343
0.3144531249999998,92.31566355275167,-5.976330041345757
0.318359375,92.24559104721654,-6.027516642650781
0.32226562500000017,92.17458950500709,-6.079356894619839
0.3261718749999999,92.10265684501645,-6.131851380811562
0.330078125,92.0297909768142,-6.185000679302885
0.333984375,91.95598980118264,-6.2388053622777875
0.337890625,91.88125121065659,-6.293265995613852
0.341796875,91.80557309006686,-6.3483831384666525
0.345703125,91.72895331708712,-6.404157342852111
0.349609375,91.6513897627842,-6.460589153226881
0.353515625,91.57288029217166,-6.517679106066872
0.357421875,91.49342276476654,-6.575427729444002
0.361328125,91.41301503514921,-6.6338355426012505
0.365234375,91.33165495352621,-6.692903055526145
0.369140625,91.24934036629597,-6.752630768522726
0.373046875,91.16606911661734,-6.813019171782129
0.376953125,91.08183904498082,-6.874068744951843
0.380859375,90.99664798978236,-6.935779956703761
0.3847656250000005,90.91049378789961,-6.998153264301123
0.3886718749999995,90.82337427527077,-7.061189113164367
0.392578125,90.73528728747529,-7.124887936436235
0.396484375,90.64623066031733,-7.189250154545753
0.400390625,90.55620223041082,-7.254276174771763
0.404296875,90.46519983576671,-7.319966390805654
0.408203125,90.3732213163821,-7.38632118231359
0.412109375,90.28026451483103,-7.4533409144983045
0.416015625,90.18632727685711,-7.521025937660536
0.419921875,90.09140745196746,-7.589376586760221
0.423828125,89.9955028940283,-7.658393180977535
0.427734375,89.8986114618619,-7.728076023273876
0.431640625,89.8007310198445,-7.798425399952903
0.435546875,89.70185943850572,-7.869441580221712
0.439453125,89.60199459512872,-7.941124815752258
0.443359375,89.50113437435135,-8.013475340243122
0.447265625,89.39927666876825,-8.086493368981714
0.451171875,89.29641937953335,-8.16017909840701
0.455078125,89.19256041696325,-8.234532705672954
0.458984375,89.08769770114088,-8.309554348212567
0.462890625,88.98182916251969,-8.385244163302913
0.466796875,88.8749527425279,-8.461602267630992
0.470703125,88.7670663941731,-8.538628756860682
0.474609375,88.65816808264677,-8.616323705200791
0.478515625,88.54825578592875,-8.69468716497438
0.482421875,88.43732749539154,-8.773719166189379
0.4863281249999999,88.32538121640435,-8.853419716110654
0.49023437500000006,88.21241496893663,-8.933788798833625
0.494140625,88.09842678816122,-9.014826374859457
0.498046875,87.98341472505682,-9.096532380672041
0.501953125,87.86737684700967,-9.17890672831676
0.505859375,87.75031123841448,-9.261949304981187
0.509765625,87.63221600127443,-9.345659972577812
0.513671875,87.51308925579987,-9.430038567328886
0.517578125,87.39292914100618,-9.51508489935347
0.521484375,87.27173381531006,-9.600798752256805
0.525390625,87.14950145712461,-9.6871798827221
0.529296875,87.0262302654528,-9.774228020104802
0.533203125,86.9019184604793,-9.861942866029496
0.537109375,86.77656428416071,-9.950324093989476
0.541015625,86.65016600081384,-10.03937134894913
0.544921875,86.52272189770201,-10.129084246949194
0.548828125,86.39423028561947,-10.219462374715004
0.552734375,86.2646894994734,-10.310505289267807
0.556640625,86.1340978988639,-10.402212517539251
0.560546875,86.00245386866132,-10.494583555989136
0.564453125,85.86975581958137,-10.587617870226515
0.568359375,85.73600218875738,-10.681314894634236
0.5722656250000008,85.60119144031002,-10.775674031997056
0.5761718749999993,85.46532206591424,-10.870694653133235
0.580078125,85.32839258536279,-10.966376096530233
0.583984375,85.19040154712768,-11.0627176679836
0.587890625,85.05134752891749,-11.159718640240365
0.591796875,84.91122913823202,-11.257378252646044
0.595703125,84.77004501291339,-11.355695710795848
0.599609375,84.62779382169379,-11.454670186190027
0.603515625,84.48447426473956,-11.554300815893455
0.607421875,84.34008507419163,-11.65458670219955
0.6113281250000007,84.19462501470225,-11.755526912298617
0.6152343749999993,84.04809288396788,-11.857120477950577
0.619140625,83.90048751325776,-11.959366395162629
0.623046875,83.75180776793904,-12.062263623870978
0.626953125,83.60205254799713,-12.165811087627903
0.630859375,83.45122078855209,-12.270007673293296
0.634765625,83.29931146037053,-12.374852230731213
0.638671875,83.1463235703731,-12.480343572511396
0.642578125,82.99225616213732,-12.586480473615863
0.646484375,82.83710831639584,-12.693261671150614
0.650390625,82.68087915152984,-12.800685864062565
0.654296875,82.52356782405755,-12.908751712861767
0.658203125,82.36517352911795,-13.017457839348973
0.662109375,82.20569550094922,-13.126802826348658
0.666015625,82.04513301336215,-13.236785217447531
0.669921875,81.88348538020831,-13.34740351673862
0.6738281249999999,81.72075195584281,-13.45865618857101
0.6777343750000066,81.55693213558145,-13.570541657305496
0.6816406249999938,81.39202535615415,-13.683058307074662
0.685546875,81.22603109614718,-13.796204481552767
0.689453125,81.05894887644908,-13.90997848372505
0.693359375,80.89077826068136,-14.024378575669436
0.697265625,80.72151885562904,-14.13940297834046
0.701171875,80.55117031166331,-14.255049871360555
0.705078125,80.37973232315836,-14.371317392817327
0.708984375,80.20720462890218,-14.48820363906705
0.712890625,80.0335870125011,-14.605706664544439
0.716796875,79.85887930277805,-14.723824481578763
0.720703125,79.68308137416442,-14.842555060216341
0.724609375,79.50619314708551,-14.961896328049505
0.728515625,79.32821458833945,-15.081846170052033
0.732421875,79.14914571146944,-15.202402428421163
0.736328125,78.96898657712941,-15.323562902426183
0.740234375,78.78773729344287,-15.445325348263692
0.744140625,78.6053980163549,-15.567687478919552
0.748046875,78.4219689499773,-15.690646964037574
0.751953125,78.23745034692669,-15.814201429795014
0.755859375,78.05184250865572,-15.938348458784892
0.759765625,77.86514578577689,-16.06308558990518
0.763671875,77.67736057837948,-16.188410318254924
0.767578125,77.48848733633905,-16.314320095037306
0.771484375,77.29852655961969,-16.44081232746971
0.775390625,77.10747879856889,-16.56788437870082
0.779296875,76.915344654205,-16.695533567734767
0.783203125,76.72212477849709,-16.823757169362406
0.787109375,76.52781987463736,-16.9525524140997
0.791015625,76.3324306973059,-17.081916488133267
0.794921875,76.13595805292776,-17.21184653327314
0.798828125,75.93840279992232,-17.342339646912727
0.802734375,75.7397658489448,-17.473392881996027
0.806640625,75.54004816312003,-17.605003246992105
0.810546875,75.33925075826834,-17.737167705876885
0.814453125,75.13737470312336,-17.869883178122226
0.818359375,74.93442111954205,-18.003146538692363
0.822265625,74.73039118270654,-18.136954618047692
0.826171875,74.52528612131793,-18.271304202155914
0.830078125,74.31910721778203,-18.406192032510596
0.833984375,74.11185580838688,-18.541614806157103
0.837890625,73.90353328347203,-18.677569175725953
0.841796875,73.6941410875897,-18.814051749473617
0.845703125,73.48368071965756,-18.95105909133072
0.849609375,73.27215373310317,-19.088587720957708
0.853515625,73.05956173600023,-19.226634113807943
0.857421875,72.84590639119621,-19.365194701198277
0.861328125,72.6311894164318,-19.50426587038705
0.865234375,72.41541258445169,-19.64384396465958
0.869140625,72.1985777231071,-19.783925283421063
0.873046875,71.98068671544968,-19.924506082296965
0.876953125,71.76174149981685,-20.065582573240867
0.880859375,71.54174406990867,-20.20715092464972
0.884765625,71.32069647485619,-20.349207261486576
0.888671875,71.09860081928102,-20.49174766541072
0.892578125,70.8754592633465,-20.634768174915262
0.896484375,70.65127402280012,-20.778264785472096
0.900390625,70.42604736900732,-20.922233449684274
0.904296875,70.19978162897665,-21.066670077445774
0.908203125,69.97247918537632,-21.211570536108617
0.912109375,69.74414247654187,-21.356930650657336
0.916015625,69.51477399647548,-21.502746203890762
0.919921875,69.28437629483624,-21.64901293661116
0.923828125,69.05295197692199,-21.79572654782059
0.927734375,68.8205037036423,-21.94288269492456
0.931640625,68.58703419148283,-22.09047699394293
0.935546875,68.35254621246091,-22.23850501972798
0.939453125,68.11704259407249,-22.386962306189705
0.943359375,67.8805262192304,-22.535844346528204
0.947265625,67.64300002619379,-22.68514659347323
0.951171875,67.40446700848902,-22.834864459530813
0.955078125,67.16493021482181,-22.984993317236892
0.958984375,66.9243927489807,-23.13552849941802
0.962890625,66.68285776973187,-23.286465299458975
0.966796875,66.44032849070537,-23.437798971577365
0.970703125,66.1968081802726,-23.589524731105065
0.974609375,65.95230016141524,-23.74163775477654
0.978515625,65.7068078115856,-23.89413318102396
0.982421875,65.46033456255836,-24.047006110279074
0.986328125,65.21288390027377,-24.20025160528177
0.990234375,64.96445936467224,-24.353864691395355
0.9941406249999993,64.71506454952063,-24.507840356928337
0.9980468750000006,64.4647031022296,-24.662173553463017
