0.0019531249999999807,71.76763664650119,-18.025893335952482
0.005859374999999951,71.76682832011417,-18.0262817767981
0.009765624999999972,71.76521167607069,-18.027058647421573
0.013671874999999983,71.7627867318318,-18.028223925687552
0.01757812499999995,71.75955351358903,-18.029777578393485
0.021484374999999965,71.75551205626428,-18.0317195612702
0.025390624999999986,71.75066240350972,-18.03404981898265
0.029296875,71.74500460770768,-18.036768285130854
0.03320312499999997,71.73853872997044,-18.039874882251066
0.037109374999999944,71.73126484014006,-18.043369521817066
0.04101562499999997,71.72318301678817,-18.0472521042417
0.04492187500000002,71.71429334721573,-18.051522518878578
0.04882812499999995,71.70459592745271,-18.056180644023982
0.05273437499999997,71.69409086225785,-18.061226346918936
0.056640625,71.68277826511829,-18.066659483751494
0.06054687499999995,71.67065825824922,-18.072479899659207
0.064453125,71.65773097259348,-18.078687428731772
0.068359375,71.6439965478212,-18.085281894013875
0.072265625,71.62945513232931,-18.09226310750824
0.07617187499999992,71.61410688324102,-18.09963087017885
0.08007812499999996,71.59795196640546,-18.107384971954342
0.08398437499999992,71.58099055639698,-18.115525191731642
0.08789062499999996,71.56322283651474,-18.12405129737974
0.09179687500000001,71.54464899878202,-18.13296304574368
0.09570312499999988,71.52526924394562,-18.14226018264873
0.09960937499999997,71.50508378147524,-18.151942442904762
0.10351562500000007,71.48409282956277,-18.16200955031078
0.107421875,71.4622966151216,-18.172461217659688
0.11132812499999996,71.43969537378587,-18.183297146743207
0.11523437499999989,71.41628934990966,-18.19451702835701
0.11914062500000011,71.39207879656622,-18.20612054230603
0.123046875,71.36706397554718,-18.218107357409966
0.12695312500000003,71.34124515736153,-18.230477131508977
0.1308593749999999,71.31462262123488,-18.243229511469554
0.13476562500000008,71.28719665510842,-18.25636413319062
0.13867187499999997,71.25896755563797,-18.269880621609765
0.1425781249999998,71.22993562819302,-18.28377859070972
0.14648437500000006,71.20010118685562,-18.29805764352499
0.1503906250000001,71.16946455441935,-18.312717372148697
0.15429687499999986,71.1380260623882,-18.327757357739593
0.15820312499999994,71.10578605097544,-18.34317717052928
0.1621093749999999,71.0727448691024,-18.35897636982962
0.16601562499999994,71.03890287439725,-18.375154504040317
0.16992187500000006,71.00426043319382,-18.391711110656725
0.17382812500000003,70.96881792053021,-18.40864571627779
0.17773437500000017,70.93257572014754,-18.425957836614238
0.18164062499999975,70.89553422448851,-18.443646976496932
0.185546875,70.85769383469601,-18.461712629885408
0.18945312499999983,70.81905496061172,-18.48015427987662
0.19335937499999978,70.77961802077455,-18.49897139871385
0.19726562500000033,70.73938344241917,-18.51816344779585
0.201171875,70.69835166147438,-18.53772987768613
0.20507812499999986,70.65652312256157,-18.557670128122464
0.20898437500000017,70.61389827899296,-18.577983628026583
0.212890625,70.57047759277003,-18.598669795514038
0.21679687499999986,70.52626153458168,-18.61972803790428
0.220703125,70.48125058380244,-18.641157751730933
0.22460937500000003,70.43544522849074,-18.66295832275221
0.228515625,70.3888459653869,-18.685129125961584
0.23242187499999953,70.34145329991132,-18.707669525598607
0.23632812500000044,70.29326774616244,-18.730578875159946
0.24023437499999992,70.24428982691475,-18.753856517410554
0.24414062499999997,70.1945200736167,-18.777501784395135
0.24804687499999967,70.14395902638864,-18.801513997449685
0.2519531250000002,70.09260723402059,-18.825892467213304
0.255859375,70.04046525397008,-18.85063649364016
0.2597656250000001,69.98753365235986,-18.875745366011653
0.26367187499999994,69.93381300397557,-18.901218362948786
0.26757812500000006,69.87930389226341,-18.927054752424695
0.27148437500000017,69.82400690932768,-18.953253791777396
0.27539062499999983,69.76792265592837,-18.979814727722697
0.279296875,69.71105174147853,-19.00673679636735
0.28320312500000006,69.65339478404177,-19.034019223222323
0.28710937500000017,69.59495241032961,-19.061661223216326
0.2910156249999997,69.53572525569874,-19.089662000709485
0.29492187500000006,69.4757139641483,-19.11802074950724
0.298828125,69.41491918831709,-19.146736652874402
0.302734375,69.35334158948064,-19.175808883549422
0.306640625,69.29098183754832,-19.205236603758845
0.31054687500000017,69.22784061106036,-19.23501896523195
0.3144531249999998,69.16391859718479,-19.265155109215595
0.318359375,69.09921649171427,-19.295644166489225
0.32226562500000017,69.03373499906303,-19.32648525738011
0.3261718749999999,68.96747483226353,-19.357677491778723
0.330078125,68.90043671296318,-19.38921996915437
0.333984375,68.83262137142101,-19.42111177857095
0.337890625,68.76402954650419,-19.453351998702946
0.341796875,68.69466198568453,-19.485939697851595
0.345703125,68.62451944503499,-19.518873933961242
0.349609375,68.5536026892259,-19.552153754635885
0.353515625,68.48191249152137,-19.585778197155935
0.357421875,68.40944963377548,-19.619746288495126
0.361328125,68.33621490642841,-19.654057045337634
0.365234375,68.26220910850256,-19.688709474095408
0.369140625,68.18743304759852,-19.723702570925653
0.373046875,68.111887539891,-19.759035321748538
0.376953125,68.03557341012474,-19.794706702265056
0.380859375,67.95849149161023,-19.83071567797512
0.3847656250000005,67.88064262621945,-19.867061204195807
0.3886718749999995,67.8020276643816,-19.903742226079796
0.392578125,67.72264746507835,-19.940757678634082
0.396484375,67.64250289583973,-19.978106486738707
0.400390625,67.56159483273916,-20.015787565165848
0.404296875,67.47992416038902,-20.05379981859901
0.408203125,67.39749177193572,-20.092142141652435
0.412109375,67.31429856905493,-20.130813418890675
0.416015625,67.23034546194661,-20.16981252484839
0.419921875,67.14563336933007,-20.209138324050308
0.423828125,67.06016321843873,-20.24878967103139
0.427734375,66.97393594501509,-20.28876541035717
0.431640625,66.88695249330532,-20.329064376644308
0.435546875,66.79921381605398,-20.369685394581296
0.439453125,66.71072087449856,-20.410627278949395
0.443359375,66.62147463836392,-20.45188883464372
0.447265625,66.53147608585667,-20.493468856694548
0.451171875,66.44072620365944,-20.535366130288796
0.455078125,66.34922598692509,-20.57757943079168
0.458984375,66.25697643927079,-20.6201075237686
0.462890625,66.16397857277202,-20.66294916500716
0.466796875,66.07023340795648,-20.706103100539416
0.470703125,65.9757419737979,-20.7495680666643
0.474609375,65.88050530770973,-20.793342789970236
0.478515625,65.7845244555388,-20.837425987357925
0.482421875,65.68780047155883,-20.881816366063344
0.4863281249999999,65.59033441846383,-20.926512623680914
0.49023437500000006,65.49212736736138,-20.97151344818687
0.494140625,65.39318039776595,-21.016817517962792
0.498046875,65.29349459759196,-21.06242350181936
0.501953125,65.19307106314676,-21.108330059020272
0.505859375,65.09191089912362,-21.154535839306345
0.509765625,64.99001521859444,-21.20103948291981
0.513671875,64.88738514300256,-21.247839620628813
0.517578125,64.78402180215525,-21.294934873752062
0.521484375,64.67992633421629,-21.342323854183682
0.525390625,64.57509988569828,-21.390005164418273
0.529296875,64.46954361145494,-21.437977397576113
0.533203125,64.36325867467328,-21.486239137428583
0.537109375,64.25624624686564,-21.534788958423757
0.541015625,64.14850750786165,-21.583625425712178
0.544921875,64.04004364580001,-21.63274709517283
0.548828125,63.93085585712027,-21.68215251343929
0.552734375,63.820945346554375,-21.73184021792605
0.556640625,63.71031332711821,-21.78180873685503
0.560546875,63.5989610201029,-21.832056589282306
0.564453125,63.48688965506614,-21.88258228512497
0.568359375,63.3741004698233,-21.933384325188193
0.5722656250000008,63.26059471043841,-21.984461201192516
0.5761718749999993,63.146373631215226,-22.035811395801186
0.580078125,63.03143849468767,-22.087433382647944
0.583984375,62.91579057161091,-22.139325626364617
0.587890625,62.79943114095164,-22.191486582609247
0.591796875,62.68236148987855,-22.24391469809418
0.595703125,62.564582913752666,-22.296608410614443
0.599609375,62.446096716117495,-22.34956614907623
0.603515625,62.326904208689086,-22.40278633352565
0.607421875,62.20700671134596,-22.456267375177568
0.6113281250000007,62.08640555211889,-22.510007676444694
0.6152343749999993,61.96510206718068,-22.564005630966776
0.619140625,61.84309760083545,-22.618259623640157
0.623046875,61.72039350550842,-22.672768030647177
0.626953125,61.59699114173493,-22.727529219486115
0.630859375,61.472891878149724,-22.782541549001063
0.634765625,61.34809709147593,-22.837803369412097
0.638671875,61.222608166514,-22.89331302234557
0.642578125,61.09642649613049,-22.9490688408646
0.646484375,60.96955348124666,-23.005069149499764
0.650390625,60.84199053082703,-23.061312264279902
0.654296875,60.71373906186773,-23.11779649276316
0.658203125,60.584800499384734,-23.174520134068167
0.662109375,60.45517627640199,-23.231481478905433
0.666015625,60.3248678339394,-23.288678809608854
0.669921875,60.19387662100063,-23.346110400167458
0.6738281249999999,60.06220409456085,-23.403774516257275
0.6777343750000066,59.929851719554016,-23.461669415273526
0.6816406249999938,59.7968209688617,-23.519793346362253
0.685546875,59.66311332329705,-23.57814455045418
0.689453125,59.52873027159629,-23.636721260295396
0.693359375,59.3936733104025,-23.69552170048151
0.697265625,59.2579439442538,-23.75454408749004
0.701171875,59.121543685569854,-23.813786629713565
0.705078125,58.98447405463845,-23.873247527493024
0.708984375,58.84673657960195,-23.93292497315113
0.712890625,58.708332796443656,-23.992817151025978
0.716796875,58.56926424897392,-24.052922237504827
0.720703125,58.4295324888162,-24.113238401058023
0.724609375,58.28913907539292,-24.17376380227313
0.728515625,58.14808557591124,-24.234496593889183
0.732421875,58.00637356534865,-24.295434920831145
0.736328125,57.864004626438394,-24.356576920244507
0.740234375,57.720980349654816,-24.417920721530066
0.744140625,57.57730233319849,-24.479464446378863
0.748046875,57.43297218298127,-24.541206208807274
0.751953125,57.287991512611114,-24.603144115192297
0.755859375,57.14236194337689,-24.665276264306964
0.759765625,56.99608510423287,-24.727600747355936
0.763671875,56.8491626317832,-24.790115648011266
0.767578125,56.70159617026621,-24.852819042448306
0.771484375,56.5533873715385,-24.91570899938178
0.775390625,56.40453789505897,-24.978783580102036
0.779296875,56.25504940787266,-25.042040838511415
0.783203125,56.1049235845944,-25.105478821160844
0.787109375,55.95416210739241,-25.169095567286508
0.791015625,55.80276666597169,-25.232889108846752
0.794921875,55.650738957557195,-25.29685747055909
0.798828125,55.49808068687705,-25.360998669937402
0.802734375,55.3447935661454,-25.425310717329268
0.806640625,55.19087931504525,-25.489791615953465
0.810546875,55.03633966071111,-25.554439361937604
0.814453125,54.88117633771147,-25.61925194435596
0.818359375,54.725391088031216,-25.684227345267406
0.822265625,54.56898566105373,-25.749363539753524
0.826171875,54.411961813542995,-25.814658495956877
0.830078125,54.2543213096255,-25.88011017511941
0.833984375,54.09606592077195,-25.945716531621006
0.837890625,53.937197425778876,-26.011475513018222
0.841796875,53.77771761075008,-26.07738506008312
0.845703125,53.61762826907793,-26.14344310684228
0.849609375,53.45693120142449,-26.20964758061598
0.853515625,53.295628215702514,-26.27599640205746
0.857421875,53.1337211270563,-26.342487485192393
0.861328125,52.97121175784233,-26.40911873745848
0.865234375,52.80810193760989,-26.475888059745177
0.869140625,52.64439350308135,-26.542793346433562
0.873046875,52.4800882981325,-26.609832485436392
0.876953125,52.31518817377255,-26.677003358238235
0.880859375,52.14969498812412,-26.744303839935796
0.884765625,51.98361060640298,-26.811731799278355
0.888671875,51.81693690089773,-26.87928509870835
0.892578125,51.6496757509492,-26.946961594402115
0.896484375,51.48182904292986,-27.014759136310722
0.900390625,51.31339867022296,-27.082675568200994
0.904296875,51.144386533201555,-27.150708727696642
0.908203125,50.97479453920739,-27.21885644631953
0.912109375,50.80462460252963,-27.28711654953108
0.916015625,50.63387864438343,-27.355486856773815
0.919921875,50.462558592888385,-27.423965181513026
0.923828125,50.290666383046776,-27.492549331278592
0.927734375,50.118203956721715,-27.561237107706887
0.931640625,49.94517326261514,-27.63002630658287
0.935546875,49.77157625624562,-27.69891471788228
0.939453125,49.59741489992607,-27.767900125813927
0.943359375,49.42269116274125,-27.836980308862195
0.947265625,49.24740702052518,-27.906153039829572
0.951171875,49.071564455838384,-27.975416085879377
0.955078125,48.89516545794496,-28.044767208578595
0.958984375,48.71821202278955,-28.114204163940805
0.962890625,48.54070615297412,-28.183724702469277
0.966796875,48.362649857734624,-28.253326569200162
0.970703125,48.18404515291753,-28.323007503745803
0.974609375,48.00489406095614,-28.39276524033819
0.978515625,47.82519861084687,-28.462597507872506
0.982421875,47.64496083812525,-28.53250202995081
0.986328125,47.46418278484194,-28.602476524925827
0.990234375,47.28286649953843,-28.67251870594486
0.9941406249999993,47.101014037222775,-28.742626280993807
0.9980468750000006,46.91862745934492,-28.812796952941373
