0.9750634949474728,60.39084984553381,-25.673314384951336
0.9244691725421061,63.20023836833508,-24.09613357517217
0.17883337124402318,88.16649359502402,-8.765080656458187
0.22103295632934,87.64638541551255,-9.108575481816588
0.7143777862293945,73.53678613803766,-18.032295831346854
0.875298374077381,65.81963946648717,-22.598270902510915
0.8403533113899698,67.62208230314587,-21.551429212157696
0.940457771319898,62.346951558684005,-24.57752210033654
0.9108175406628926,63.905302320570605,-23.694958969295747
0.7137665422064502,73.56517536918236,-18.015415962432268
0.7203524838232508,73.27227203687913,-18.192565171117124
0.9609763871617671,61.17806662503074,-25.235307287561085
0.25615515728466176,87.1405673167272,-9.441713392840445
0.22635719348661518,87.57605148426435,-9.154971969822599
0.22550428658723828,87.58879400781936,-9.146574019585257
0.894158761316103,64.80178638538631,-23.183183486793236
0.8998088370505051,64.52998195559567,-23.338019509231774
0.9023489687531502,64.39462737696323,-23.416093080040394
0.37378324150563474,84.86776226583103,-10.925781042520313
0.33678868063982126,85.67264803535384,-10.402508909880108
0.8398312606271572,67.64873861650645,-21.53575276143867
0.9070012200806594,64.14241597524452,-23.559410554966693
0.9242125762322395,63.22268553471103,-24.083016334390262
0.5508793207840355,79.8544431471593,-14.129760803810305
0.5058237537741661,81.3155399621144,-13.205939898311572
0.6057965139488504,77.91185828648328,-15.34617447724393
0.6001281841962279,78.12250510308093,-15.214907999664545
0.32120916896101004,85.98856161937057,-10.196490246851404
0.32003681391953626,86.0116974907155,-10.181383131198075
0.8011773988162672,69.55756373722701,-20.414050472403385
0.5662894758419436,79.3247518732248,-14.462755249762722
0.4257797969569065,83.59832692289838,-11.746217118410124
0.16961932762677462,88.26534551923139,-8.699690501729602
0.7129299605036251,73.59748876769937,-17.995568237163404
0.5468740380207019,79.99048239480874,-14.044215315882422
0.5869735541777061,78.59882944680348,-14.917600906190824
0.6254580367586309,77.17302868996009,-15.804694434529916
0.8295875714940669,68.1520442598544,-21.240543782270404
0.828441278428122,68.21409587519175,-21.2043346055788
0.9894433539181091,59.55874475320612,-26.135344404793134
0.8708664939831267,66.041590087279,-22.46888879972233
0.9085155252411328,64.06008242387625,-23.60733268159615
0.4616464523523876,82.61488259127152,-12.377310100198777
0.3725790095394815,84.90086409254727,-10.904492974063329
0.36390284484064217,85.09528199654946,-10.778133337325611
0.3995714052318355,84.26409374940641,-11.316809251891504
0.4051545877332925,84.12197488012494,-11.408630735712652
0.36516849106644794,85.06633771857672,-10.796876354066953
0.23041403992382511,87.51807020989082,-9.19320622873797
0.1890335779859327,88.05314308426458,-8.840047575300916
0.02243753984569792,89.13412202142092,-8.123182613632496
0.09168817616025954,88.88955503027685,-8.285778643569524
0.08514587208628659,88.92492076266225,-8.26227722199017
0.08506152081261427,88.92769097541363,-8.260448510659602
0.7631762623786935,71.34565084400101,-19.350812590586823
0.7793077159300613,70.58923609965815,-19.802234817229884
0.7642624825239168,71.28582703461214,-19.38638886821221
0.3168229629260071,86.07405494508382,-10.140658443535344
0.31683669239282597,86.06441591058989,-10.146751834308658
0.7712692723111076,70.98536258580833,-19.56651458582439
0.7653292985394439,71.26242354688992,-19.40088340214154
0.7879348802990971,70.21390644303202,-20.026131757177534
0.777702350100122,70.69438675314004,-19.739923747983394
0.8021958362674488,69.51364354323502,-20.44035987685767
0.7906244069328865,70.07489281730699,-20.10836268131716
0.8095530597774402,69.16036710798771,-20.648729957734858
0.799320529578466,69.65405874852655,-20.3567065424404
0.772644172652143,70.92051216699193,-19.605536969104087
0.7064614400370328,73.88246104597164,-17.8227349374781
0.587952535531674,78.56497539316062,-14.938739971123713
0.5344141873713597,80.40256957030795,-13.784168465709772
0.5959866630424016,78.27369848758956,-15.120450207944398
0.5164938733140637,80.98364701656122,-13.416740899098976
0.5900685340166085,78.4877506622028,-14.987035054430901
0.5453785806894307,80.03707636833458,-14.014656350628872
0.6125967800617222,77.65673215375551,-15.504181772363019
0.6634946763515476,75.6756909833513,-16.728188316810456
0.7046776264905936,73.95073587921054,-17.78102874326619
0.6850779503583907,74.7860172231553,-17.27248402685913
0.5034283607900646,81.38546789742963,-13.161588607275128
0.4594988205411047,82.67101377867377,-12.341302101373943
0.5243632867932315,80.7301746844291,-13.577312787720361
0.9584803487601963,61.311110527968616,-25.160672679041838
0.9626470427780525,61.13165597379301,-25.261783086418983
0.9557068116384069,61.4916351920542,-25.059951000631436
0.9618551261039815,61.12558933272495,-25.264315235527167
0.9750634949474675,60.40983295961214,-25.66382831493539
0.7814829796552674,70.4964205033282,-19.857606182863336
0.8285345362348223,68.20982819589898,-21.20717474376677
0.8055851757526391,69.34063905996537,-20.542307099533264
0.9523320342946195,61.67115928669954,-24.959416009927985
0.9356472696605421,62.578113091225056,-24.44735633918672
0.978925145772022,60.17191721826195,-25.79714329128155
0.41599429380787184,83.85006870062315,-11.584006714523714
0.45571410655975375,82.79100019193098,-12.264762194702929
0.3997379466891291,84.25703940824744,-11.321326629004416
0.343663446605205,85.53485275853892,-10.492426817319824
0.42624511551750666,83.57447860163707,-11.761417617235887
0.4481695202876932,82.99780976216611,-12.132123227903094
0.47866383193537765,82.13559404327347,-12.683921952978423
0.43404034507168215,83.37989421574349,-11.886747300106995
0.42946883273018277,83.501269183421,-11.808692007114548
0.40147374672246516,84.21711822682111,-11.347210730523878
0.46306899915633815,82.58364300203708,-12.3975940477662
0.2304165289693061,87.51631339133607,-9.194282709217546
0.24905459378831007,87.24637251649227,-9.372067649832083
0.2438050041066846,87.32683277434253,-9.319150439664574
0.295390619055606,86.47251223722989,-9.879950131506586
0.3106472064715396,86.18966730956102,-10.065071994683056
0.26872256762077507,86.93481089499062,-9.576848048274028
0.25737032620517236,87.11665859841813,-9.457365606043108
0.2568062278470179,87.12941556748638,-9.449048912162791
0.2703342101602761,86.91096570812975,-9.592554776885223
0.18498527240326004,88.09638893731831,-8.811465780489009
0.12629499054471996,88.65653067230325,-8.440473200978495
0.20773311335729974,87.82470397353919,-8.990958892828319
0.18818733096122756,88.06280049780509,-8.833681086223322
0.1610369181555013,88.35156207443626,-8.642595358405963
0.11848059064666777,88.71873541366634,-8.39920930898516
0.19012497573311116,88.03790997104116,-8.850115603954215
0.12869434571783092,88.63916578797765,-8.451999352125748
0.14513583108782777,88.50185676111589,-8.543040146074395
0.10614401987711926,88.80124086057621,-8.344431619482972
0.04232801120727543,89.09568082674326,-8.148760132061737
0.07253223750740288,88.98508963703792,-8.222299202981699
0.013005143031477921,89.14104810164578,-8.11858000882069
0.5245381146669392,80.72713358639838,-13.579220705620711
0.47276854515075645,82.31220225550331,-12.571265854950282
0.5059068147066322,81.31189339924914,-13.208282843557209
0.9789251457720112,60.19694735138823,-25.784118020340024
0.989443353918118,59.59146722491721,-26.120355725762224
0.9894433539181143,59.58016374638503,-26.125396531715626
0.953104205921716,61.64485211166585,-24.974752943240237
0.9753562461324095,60.36562226194549,-25.688535552461037
0.949535306282109,61.83278555918114,-24.86809429184516
0.2238291854130467,87.61204803360218,-9.131246730970584
0.22798737734749353,87.55567924557232,-9.168414409216505
0.7868604615763618,70.24959400415342,-20.004396506285975
0.7516771762620459,71.88084939860596,-19.030320521824244
0.7609332159594475,71.45515459326107,-19.285518104143335
0.7687547240466871,71.09666131361145,-19.500460323431117
0.7446903849121753,72.1790151478753,-18.85124438397431
0.751425672854183,71.87087023994647,-19.03673025909238
0.7620194361046746,71.39622978304541,-19.320583084181813
0.7250002184551011,73.05646846498662,-18.322387550726834
0.8110943065987367,69.0875961450724,-20.69249323766341
0.8303363544714893,68.129327816672,-21.254437640489943
0.8170556638338955,68.7861305351173,-20.86853527333821
0.8513119513003746,67.06254823810664,-21.876647570910876
0.7240322054726335,73.11927070165297,-18.285227415594516
0.7326201269606987,72.73121319501215,-18.5193012721621
0.7401289718089723,72.40578613602632,-18.715245682918464
0.7367093797305507,72.54951442030367,-18.628678417688118
0.738791248255888,72.46424100455212,-18.68037506625541
0.6965732985878443,74.30368103378426,-17.56681900889375
0.6833743110401846,74.85850255372026,-17.228346637305535
0.6999065691376182,74.15912794575196,-17.654501594510915
0.6818413242800461,74.92112684161113,-17.19003955745036
0.5693844556808472,79.2187254184838,-14.529356535568908
0.5394520613547433,80.23781671194017,-13.888301338060566
0.5304089046080248,80.53492613946096,-13.700710096945237
0.5431603701856493,80.1142612173332,-13.966223956106035
0.5275502796518232,80.63106940494711,-13.640168623353983
0.5215317472974476,80.82133722710766,-13.519564680200263
0.564561862829121,79.38850544420431,-14.422840844657598
0.5690484909438756,79.23186703567059,-14.52125571416827
0.5284995733807993,80.59556957887273,-13.662388701078394
0.5643294549202252,79.3957961510015,-14.418253715542624
0.7422535419464109,72.30261386899441,-18.77747864856727
0.7183125615119931,73.36564652636095,-18.136108950085408
0.6714823126451275,75.35198470800098,-16.92671414226438
0.7242967739804002,73.10977820809639,-18.29113870130329
0.690854738662978,74.54753454439586,-17.418190450069265
0.7007428512079918,74.12123987326564,-17.677380389614065
0.6402015909108216,76.60111497386512,-16.158331947598732
0.7360757202445649,72.57944436455469,-18.61063705170537
0.6434388830813483,76.47098218263787,-16.23840180933075
0.6036045301935382,77.99682833898807,-15.29322888533446
0.6063589441169247,77.89365681789363,-15.357310635926048
0.5877201276227786,78.57191557806006,-14.934459267950663
0.6239648535403299,77.22863513798087,-15.77021601612265
0.611638657704265,77.69534910452295,-15.48046932500483
0.6509987934979506,76.1765964643725,-16.420159757667914
0.6571698069230839,75.92202573476115,-16.576238379919417
0.6643313198940055,75.6400236646221,-16.74993626732448
0.6756827115670954,75.17749054455622,-17.03333787507204
0.6722172230140494,75.31975828031469,-16.94618013032515
0.6359509974718094,76.76739650026055,-16.055567600129557
0.6362773701104216,76.75493050270447,-16.063347189784068
0.6328081413659153,76.88730599735877,-15.981334371073405
0.5933884573754038,78.36633278641195,-15.062759688120762
0.6608553111211565,75.77948484362663,-16.664101627027453
0.6456620544195172,76.38848168375559,-16.289690495333563
0.658034212842851,75.89439238048617,-16.593645760605362
0.6545687242898023,76.03649826916893,-16.50638889408508
0.6771699637174609,75.11795703530957,-17.069749998717615
0.7425585091114069,72.29735184745944,-18.7808233184281
0.708690072606347,73.7897917715137,-17.879381060808207
0.6541416496038442,76.05297179533395,-16.496344501510535
0.5619707778096197,79.47811596126647,-14.366555873951606
0.6235487014055255,77.2441677696896,-15.76039265028738
0.542537324130535,80.13730290966967,-13.951793042732056
0.6016942709684358,78.06787343506865,-15.249042576275006
0.628701974847049,77.05230355813978,-15.879708217467757
0.500661643219301,81.47093493225576,-13.107190540685941
0.5005968212942814,81.47438964794382,-13.105100259966317
0.5017087067354449,81.43262595267802,-13.131438051508649
0.43074095132391393,83.44854055111433,-11.842338617503106
0.7570529833868898,71.63935322683379,-19.175618694836547
0.8027699887752524,69.48167893818385,-20.458818496237672
0.8233219619770845,68.47755749946911,-21.05049678649949
0.8722162599036132,65.97695856590943,-22.506575146752063
0.7792399332360193,70.60589342144033,-19.79248819426677
0.8273882431688748,68.2718599958483,-21.170957182292707
0.8927721972042447,64.88628554468242,-23.13475828011138
0.8025386672830361,69.49999771081283,-20.448692989964524
0.8808177075154381,65.5354442091831,-22.76110035122771
0.9360341862536853,62.58314222686722,-24.445656434050132
0.9123035440890959,63.84610804724713,-23.729349892040503
0.929514900240678,62.93198820743545,-24.247829928468683
0.9330742422859268,62.7029923367617,-24.378220497164367
0.9212296643499132,63.388851963236775,-23.988943979563523
0.8490331919712671,67.17831581453746,-21.81006014792972
0.8950503785864409,64.76670244213135,-23.203282561449313
0.8635363793223143,66.43459018139406,-22.242362931689158
0.8619612933002604,66.51185491714465,-22.19689211825067
0.9303840815885338,62.87098920557404,-24.282759719996086
0.8674806267383153,66.22941447666689,-22.359945965543954
0.9292221490557376,62.93309951607627,-24.24721284794241
0.9084385218492642,64.04618392673261,-23.614847835879626
0.8888007910878728,65.11549183194734,-23.002998558525157
0.9059753935384901,64.20132286861009,-23.526779522667596
0.9089532313321406,64.04933044632794,-23.61301838635432
0.8975303540980709,64.61792208147553,-23.287801660115637
0.9326010003102578,62.62324961339421,-24.42266887298083
0.9875835478305797,59.712219423130776,-26.052219427126555
0.8462968619389185,67.31442659339646,-21.730461169628313
0.871951423124061,65.98206863005556,-22.502894635059317
0.9770269017486942,60.32770905902038,-25.7108966052513
0.9122041047747526,63.80181491930055,-23.754060910547718
0.8472885332731563,67.2687054247852,-21.75732756368845
0.839750312268732,67.65457677259207,-21.532781030102917
0.822330817580222,68.52636268516748,-21.021938743421906
0.860393248498443,66.59896951050531,-22.146487102412017
0.9237577532359174,63.2547220881826,-24.06540130574571
0.8821965285088796,65.46228048263761,-22.803966161681497
0.870528787176934,66.0749706450181,-22.449963587063216
0.8796563968062393,65.59564698579524,-22.72712699563079
0.2628673985600471,87.03089966329348,-9.513740081030893
0.2923836951118476,86.52804662373444,-9.843620160578494
0.44102365505588903,83.1903379244068,-12.008467693984434
0.4691665137697501,82.39885536691003,-12.51538249644046
0.46241436286263743,82.60024555862452,-12.386928013762619
0.48158436816818756,82.0412039603476,-12.744026306652424
0.4642230136542827,82.54660855014038,-12.421127905873954
0.46273001813670106,82.58778100839199,-12.394865603147993
0.4780091956416778,82.15355147741009,-12.672418697232954
0.4395059012589849,83.2232176340381,-11.987263501895676
0.4427370988545805,83.13635294456249,-12.043016984662618
0.423848844884762,83.64240567257569,-11.717721467687534
0.33451727032661444,85.7222954897286,-10.370249495544302
0.273811750113964,86.85154377706753,-9.63153829389748
0.28799080298957863,86.60625301081369,-9.792389820051643
0.36610714466035,85.04926726146223,-10.808216466892084
0.35394760341107456,85.31192824867524,-10.637394385166873
0.4005351889673433,84.23888175516213,-11.332951763239038
0.46376435306673436,82.56499580250119,-12.40952707761845
0.4364816756480302,83.30339600385045,-11.935849396349742
0.4800097480118783,82.08651121213602,-12.715053161910525
0.32735206186771404,85.86200503090512,-10.27906932807157
0.41778098809051933,83.80479036383569,-11.613194987863691
0.3449290928310123,85.50391128955317,-10.512486090403359
0.3833428252283301,84.64940775702097,-11.067279583190466
0.2975909207921991,86.43539085932413,-9.904346400831653
0.37312505429422443,84.88781877474688,-10.912864704974615
0.2643362394600124,87.01007862462463,-9.527480395032955
0.30455742226657934,86.30509499151266,-9.989573856555005
0.27932740943250717,86.75824216658285,-9.692756929606002
0.3356163255983478,85.69368860259283,-10.388764483183568
0.3002563436490068,86.38786329163533,-9.935469936436286
0.35937114260671604,85.19377788162139,-10.714211021919219
0.428511521362599,83.50031190232134,-11.80895124119004
0.44382584822071486,83.1167621280055,-12.055802406830917
0.39952711950495295,84.25886529443692,-11.320112021770095
0.3864109770597428,84.57306231538794,-11.11678455938156
0.30941875347668524,86.21763285811798,-10.046824847393347
0.35131177633525085,85.35953469388133,-10.606335861692342
0.32923364209410827,85.8280688839589,-10.30126505540154
0.3308848459505463,85.79660192431315,-10.321773019489427
0.3852173996037212,84.60880389244156,-11.093829130329423
0.32169802360293187,85.97281018623573,-10.206641250921468
0.35649777942117583,85.26253489746668,-10.669673585422974
0.3774671641057692,84.78679504572061,-10.97842528711156
0.34316411607679276,85.540562042259,-10.488568450274341
0.3327439756917683,85.75857286632498,-10.34657916993766
0.3846084714541355,84.62135366883292,-11.08552248786785
0.23948213458061213,87.39082445810006,-9.276995323537532
0.20025139295012165,87.91197677928871,-8.93326840801622
0.22181176766753188,87.63799700388567,-9.114106275390006
0.24033504147998888,87.37705189713154,-9.2860763103375
0.20907086723193363,87.80342828588205,-9.004949768837292
0.20963247654460662,87.79589913598782,-9.009951086387899
0.19985904311443783,87.92130782246163,-8.927184501324005
0.17622235252673427,88.19016358159854,-8.749384031556337
0.20339988920974156,87.87636139917143,-8.956828679477567
0.20664171561012135,87.83786334488255,-8.982256134625148
0.2002844233893099,87.91440852140242,-8.93171652617195
0.23617933859102352,87.44288835284574,-9.242771680999802
0.16612857470648507,88.30269184723221,-8.674970773093401
0.17046123926285664,88.25266652383982,-8.708096548805146
0.15983159559578472,88.36130505205566,-8.63613914863787
0.17801102489199047,88.16713841636744,-8.764632015501013
0.2912404916601835,86.55264095330763,-9.827596797675907
0.2971270724552332,86.44374599830849,-9.89884519215461
0.2740450500576703,86.84693528251533,-9.634533484427582
0.04652195144444702,89.0828441538882,-8.157297291581267
0.008811202794306312,89.14939659146346,-8.113022055478519
0.008811202794306312,89.15015958040941,-8.112516228417729
0.03834967032074217,89.1062503558757,-8.141721694913711
0.023904897235326794,89.13280409421176,-8.124063987724458
0.043349248319857155,89.0941236167287,-8.149792432138272
0.02472333326935056,89.13040006315686,-8.125659615874925
0.20722351968288413,87.83152067503666,-8.98645185584491
0.1676816828548908,88.28735724225776,-8.68513809848498
0.17419078573584545,88.21704123706701,-8.731622670660952
0.20051541551947594,87.9112469943729,-8.933765769487517
0.06639508015433582,89.01239195582512,-8.204142600037661
0.026209532283246517,89.1281057293459,-8.127186283765619
0.1104525063871752,88.77480439678449,-8.361994592962246
0.14203712692593878,88.52544664058753,-8.527387701606475
0.153586924444524,88.42093121248347,-8.596672921138794
0.13638386106228179,88.57960152409952,-8.491511580303865
0.13574014781523838,88.5813523300344,-8.490337187421842
0.14443648209904977,88.50610580443258,-8.540212699849866
0.1370452622931113,88.5685233707997,-8.49884009055209
0.023904897235326794,89.13274521368065,-8.124103352436446
0.06888367465654642,89.00153862487855,-8.21135806697198
0.06786243754396473,89.00717747079607,-8.207613107665681
0.06388409665743144,89.0204972285503,-8.198751459451756
0.06806523862252264,89.00244567321694,-8.210754774121938
0.101233681207104,88.83590994963025,-8.321410594442884
0.08575529745738063,88.92242092809052,-8.263938581357632
0.0832443139604762,88.93490047561987,-8.255647806476691
0.09955922561655789,88.8443120051272,-8.315835218841109
0.09217485460410861,88.8844078375627,-8.289200894575142
0.040860653817646544,89.09938990438756,-8.146291201264285
0.012583195231854912,89.14118129417243,-8.11848783847044
0.1290873922407627,88.63284073032636,-8.456178496722242
0.022437539845697907,89.13460603230256,-8.122862742954561
0.06955764722079039,88.99508599769018,-8.215642689634555
0.10553459450602527,88.805028010436,-8.341915989254408
0.13482815399765966,88.59271111542557,-8.482813973812197
0.17680180445313456,88.19080775844712,-8.749007657363988
0.1590053513646126,88.37523801064958,-8.626932410709038
0.028098837472498406,89.12563869079241,-8.128830970986911
0.10398288584272417,88.81832272871821,-8.333100312744714
0.16811095758492742,88.27409575424696,-8.693891971610157
0.4949043110171977,81.65241025579006,-12.991858076785055
0.4896636605262764,81.81154818492203,-12.890577624641976
0.490820350122759,81.7719956648782,-12.915733121379242
0.9755503684282286,60.36028353043194,-25.692557862715546
0.39913854849887426,84.27174544178334,-11.311854017082343
0.9603603791370184,61.25550397607644,-25.193165467583373
0.37439070052003104,84.85702130016931,-10.932795406630854
0.8543601117389938,66.91245376889468,-21.964928295794444
0.04463264625519514,89.08731591197312,-8.154318774114838
0.9894433539181092,59.58205584569554,-26.124497037199685
0.5422110764566739,80.14631627226943,-13.946096777645458
0.27460914841582484,86.83587310151793,-9.641768622321361
0.9860685765743282,59.769232928408506,-26.019789115959593
0.9183026160541318,63.53197844699681,-23.907225152228936
0.4206424055684898,83.73131699342485,-11.660630610247647
0.008811202794306312,89.14339791978958,-8.117014196385998
0.9459805201663783,61.99769924961485,-24.775370821311608
0.04253081228583341,89.09748316282516,-8.147557817502868
0.11175762086504802,88.76704765228628,-8.367143307987215
0.3920384452880828,84.44061604632837,-11.202533209562736
0.5831297487020498,78.74014698214938,-14.829415104957976
0.7214065492153175,73.21180560128006,-18.228271328397216
0.7433397620916372,72.24272629785361,-18.813009881172935
0.704859147976182,73.9473945015739,-17.783044876557245
0.6909079805119245,74.53979534164594,-17.42282987123004
0.6671461418373812,75.52073122662686,-16.822766689089313
0.5766012731031811,78.97021018651255,-14.685289059656107
0.49252204993260174,81.71163323285151,-12.953905705874325
0.8066382110118898,69.2815365186922,-20.576402917016953
0.869418565946258,66.12486469903875,-22.42098952117955
0.848434826339104,67.20605431302064,-21.79372607011716
0.8961437899862079,64.70163560704079,-23.239529109660616
0.33802659064531326,85.6458355293587,-10.419949170055677
0.3504382830923761,85.38997136237589,-10.586706995375234
0.4387768191983108,83.24099482441162,-11.975858807785224
0.40382745897209243,84.14812376426113,-11.391305012437686
0.4028636752365841,84.17765441658445,-11.372520731932324
0.19899863749742508,87.92541854427057,-8.924365911522623
0.7836222350597394,70.38345006515421,-19.924025725398128
0.6380059942158763,76.68615391427159,-16.10570603552891
