0.0019531249999999807,89.18564070096085,-8.077117473785323
0.005859374999999951,89.18470822882011,-8.077737573715883
0.009765624999999972,89.1828432816779,-8.078977765110153
0.013671874999999983,89.18004585381514,-8.080838031033046
0.01757812499999995,89.1763159366593,-8.083318346078453
0.021484374999999965,89.17165351879162,-8.086418676365074
0.025390624999999986,89.16605858595695,-8.090138979530849
0.029296875,89.15953112107577,-8.094479204726017
0.03320312499999997,89.1520711042588,-8.099439292604776
0.037109374999999944,89.14367851282393,-8.105019175315567
0.04101562499999997,89.1343533213157,-8.111218776489975
0.04492187500000002,89.12409550152707,-8.118038011230247
0.04882812499999995,89.11290502252356,-8.12547678609544
0.05273437499999997,89.10078185067002,-8.133534999086201
0.056640625,89.0877259496595,-8.142212539628169
0.06054687499999995,89.07373728054478,-8.151509288554019
0.064453125,89.05881580177208,-8.161425118084155
0.068359375,89.04296146921733,-8.171959891806036
0.072265625,89.02617423622466,-8.183113464652163
0.07617187499999992,89.00845405364734,-8.194885682876714
0.08007812499999996,88.98980086989111,-8.207276384030864
0.08398437499999992,88.97021463095975,-8.220285396936744
0.08789062499999996,88.94969528050306,-8.233912541660102
0.09179687500000001,88.92824275986729,-8.248157629481632
0.09570312499999988,88.9058570081476,-8.263020462867011
0.09960937499999997,88.88253796224316,-8.278500835435617
0.10351562500000007,88.85828555691434,-8.294598531927962
0.107421875,88.83309972484226,-8.31131332817184
0.11132812499999996,88.8069803966906,-8.328644991047208
0.11523437499999989,88.77992750116984,-8.346593278449783
0.11914062500000011,88.7519409651034,-8.3651579392534
0.123046875,88.72302071349647,-8.384338713271102
0.12695312500000003,88.69316666960668,-8.404135331215025
0.1308593749999999,88.66237875501727,-8.424547514655014
0.13476562500000008,88.63065688971234,-8.445574975976069
0.13867187499999997,88.59800099215424,-8.467217418334538
0.1425781249999998,88.56441097936333,-8.48947453561317
0.14648437500000006,88.52988676699965,-8.512346012374941
0.1503906250000001,88.49442826944698,-8.535831523815727
0.15429687499999986,88.45803539989888,-8.559930735715827
0.15820312499999994,88.4207080704468,-8.584643304390346
0.1621093749999999,88.38244619217058,-8.609968876638414
0.16601562499999994,88.3432496752306,-8.635907089691324
0.16992187500000006,88.30311842896232,-8.66245757115955
0.17382812500000003,88.26205236197285,-8.68961993897867
0.17773437500000017,88.2200513822393,-8.717393801354225
0.18164062499999975,88.17711539720943,-8.745778756705494
0.185546875,88.13324431390411,-8.774774393608267
0.18945312499999983,88.08843803902181,-8.80438029073651
0.19335937499999978,88.04269647904508,-8.83459601680311
0.19726562500000033,87.99601954034885,-8.865421130499525
0.201171875,87.94840712931081,-8.89685518043451
0.20507812499999986,87.89985915242349,-8.928897705071861
0.20898437500000017,87.85037551640835,-8.961548232667194
0.212890625,87.79995612833167,-8.994806281203786
0.21679687499999986,87.74860089572228,-9.02867135832752
0.220703125,87.69630972669104,-9.063142961280912
0.22460937500000003,87.64308253005217,-9.098220576836246
0.228515625,87.58891921544634,-9.13390368122786
0.23242187499999953,87.5338196934654,-9.170191740083576
0.23632812500000044,87.47778387577894,-9.207084208355315
0.24023437499999992,87.42081167526253,-9.244580530248827
0.24414062499999997,87.36290300612742,-9.28268013915277
0.24804687499999967,87.30405778405226,-9.321382457566866
0.2519531250000002,87.24427592631602,-9.360686897029403
0.255859375,87.18355735193285,-9.400592858043925
0.2597656250000001,87.12190198178818,-9.441099730005298
0.26367187499999994,87.05930973877675,-9.482206891124983
0.26757812500000006,86.99578054794169,-9.523913708355712
0.27148437500000017,86.93131433661549,-9.566219537315444
0.27539062499999983,86.8659110345622,-9.609123722210729
0.279296875,86.79957057412115,-9.652625595759455
0.28320312500000006,86.73229289035203,-9.696724479112966
0.28710937500000017,86.66407792118135,-9.741419681777645
0.2910156249999997,86.59492560755032,-9.786710501535921
0.29492187500000006,86.52483589356399,-9.832596224366787
0.298828125,86.45380872664165,-9.879076124365719
0.302734375,86.38184405766857,-9.926149463664222
0.306640625,86.30894184114898,-9.973815492348821
0.31054687500000017,86.23510203536011,-10.022073448379668
0.3144531249999998,86.16032460250771,-10.07092255750867
0.318359375,86.0846095088823,-10.1203620331973
0.32226562500000017,86.00795672501695,-10.170391076533932
0.3261718749999999,85.93036622584592,-10.221008876150902
0.330078125,85.85183799086434,-10.272214608141224
0.333984375,85.77237200428908,-10.324007435974949
0.337890625,85.69196825522047,-10.376386510415301
0.341796875,85.61062673780503,-10.429350969434523
0.345703125,85.52834745139921,-10.482899938129483
0.349609375,85.44513040073392,-10.537032528637074
0.353515625,85.36097559607997,-10.591747840049416
0.357421875,85.27588305341443,-10.6470449583289
0.361328125,85.18985279458772,-10.702922956223071
0.365234375,85.10288484749148,-10.759380893179419
0.369140625,85.0149792462272,-10.816417815260037
0.373046875,84.92613603127563,-10.874032755056241
0.376953125,84.83635524966675,-10.932224731603124
0.380859375,84.74563695515049,-10.99099275029409
0.3847656250000005,84.65398120836797,-11.05033580279539
0.3886718749999995,84.56138807702357,-11.110252866960638
0.392578125,84.46785763605706,-11.170742906745541
0.396484375,84.3733899678169,-11.231804872122412
0.400390625,84.27798516223345,-11.29343769899507
0.404296875,84.18164331699293,-11.3556403091137
0.408203125,84.08436453771179,-11.41841160998989
0.412109375,83.98614893811134,-11.481750494811866
0.416015625,83.88699664019286,-11.545655842359894
0.419921875,83.78690777441295,-11.610126516921914
0.423828125,83.68588247985922,-11.675161368209427
0.427734375,83.58392090442615,-11.740759231273621
0.431640625,83.48102320499129,-11.806918926421835
0.435546875,83.37718954759151,-11.873639259134297
0.439453125,83.27242010759954,-11.940919019981244
0.443359375,83.1667150699005,-12.008756984540373
0.447265625,83.0600746290686,-12.077151913314712
0.451171875,82.95249898954378,-12.146102551650898
0.455078125,82.84398836580858,-12.21560762965789
0.458984375,82.73454298256475,-12.285665862126152
0.462890625,82.62416307490987,-12.356275948447333
0.466796875,82.51284888851409,-12.427436572534445
0.470703125,82.40060067979638,-12.499146402742596
0.474609375,82.28741871610096,-12.571404091790273
0.478515625,82.17330327587335,-12.644208276681221
0.482421875,82.05825464883624,-12.717557578626925
0.4863281249999999,81.94227313616518,-12.791450602969732
0.49023437500000006,81.82535905066379,-12.865885939106642
0.494140625,81.70751271693892,-12.940862160413738
0.498046875,81.58873447157515,-13.016377824171398
0.501953125,81.46902466330911,-13.092431471490166
0.505859375,81.34838365320334,-13.169021627237408
0.509765625,81.22681181481958,-13.246146799964754
0.513671875,81.10430953439166,-13.32380548183632
0.517578125,80.98087721099787,-13.401996148557771
0.521484375,80.85651525673272,-13.480717259306209
0.525390625,80.73122409687808,-13.559967256660968
0.529296875,80.6050041700738,-13.63974456653526
0.533203125,80.47785592848757,-13.720047598108769
0.537109375,80.34977983798412,-13.800874743761165
0.541015625,80.22077637829362,-13.882224379006592
0.544921875,80.09084604317951,-13.964094862429125
0.548828125,79.9599893406053,-14.046484535619248
0.552734375,79.82820679290072,-14.129391723111347
0.556640625,79.69549893692685,-14.212814732322258
0.560546875,79.5618663242406,-14.296751853490886
0.564453125,79.42730952125794,-14.381201359618917
0.568359375,79.29182910941645,-14.466161506412641
0.5722656250000008,79.15542568533675,-14.551630532225932
0.5761718749999993,79.01809986098304,-14.637606658004259
0.580078125,78.87985226382214,-14.724088087230228
0.583984375,78.74068353698226,-14.811073005869751
0.587890625,78.60059433940985,-14.89855958231999
0.591796875,78.4595853460257,-14.986545967358204
0.595703125,78.31765724787991,-15.075030294091976
0.599609375,78.17481075230536,-15.164010677910694
0.603515625,78.03104658307028,-15.253485216438321
0.607421875,77.88636548052926,-15.3434519894875
0.6113281250000007,77.74076820177315,-15.433909059014987
0.6152343749999993,77.59425552077766,-15.524854469078358
0.619140625,77.44682822855015,-15.616286245794385
0.623046875,77.29848713327586,-15.708202397298278
0.626953125,77.14923306046191,-15.80060091370488
0.630859375,76.99906685308032,-15.893479767070955
0.634765625,76.84798937170939,-15.986836911359033
0.638671875,76.69600149467358,-16.0806702824027
0.642578125,76.5431041181819,-16.17497779787337
0.646484375,76.38929815646473,-16.269757357248555
0.650390625,76.23458454190902,-16.365006841781636
0.654296875,76.07896422519187,-16.46072411447318
0.658203125,75.92243817541251,-16.556907020043788
0.662109375,75.76500738022254,-16.653553384908506
0.666015625,75.60667284595458,-16.750661017152815
0.669921875,75.44743559774903,-16.848227706510222
0.6738281249999999,75.28729667967927,-16.946251224341424
0.6777343750000066,75.12625715487462,-17.044729323615304
0.6816406249999938,74.96431810564353,-17.143659738890356
0.685546875,74.80148063358925,-17.243040186301254
0.689453125,74.637745859733,-17.342868363541346
0.693359375,74.47311492462593,-17.443141949852492
0.697265625,74.30758898846477,-17.543858606013234
0.701171875,74.14116923120369,-17.64501597432976
0.705078125,73.97385685266453,-17.746611678628433
0.708984375,73.80565307264489,-17.848643324250062
0.712890625,73.63655913102447,-17.951108498045883
0.716796875,73.46657628786917,-18.054004768375307
0.720703125,73.2957058235333,-18.15732968510542
0.724609375,73.12394903875956,-18.261080779612257
0.728515625,72.95130725477716,-18.365255564783865
0.732421875,72.77778181339761,-18.469851535025136
0.736328125,72.60337407710855,-18.574866166264457
0.740234375,72.42808542916534,-18.680296915962174
0.744140625,72.25191727368042,-18.786141223120865
0.748046875,72.07487103571074,-18.892396508297445
0.751953125,71.89694816134265,-18.9990601736171
0.755859375,71.71815011777477,-19.10612960278909
0.759765625,71.53847839339859,-19.21360216112437
0.763671875,71.35793449787676,-19.321475195555095
0.767578125,71.17651996221907,-19.429746034655988
0.771484375,70.99423633885627,-19.538411988667562
0.775390625,70.81108520171138,-19.64747034952126
0.779296875,70.62706814626885,-19.75691839086643
0.783203125,70.44218678964124,-19.86675336809924
0.787109375,70.25644277063354,-19.976972518393445
0.791015625,70.06983774980527,-20.087573060733096
0.794921875,69.88237340952993,-20.198552195947112
0.798828125,69.69405145405224,-20.3099071067458
0.802734375,69.50487360954287,-20.421634957759256
0.806640625,69.31484162415073,-20.533732895577703
0.810546875,69.12395726805285,-20.646198048793742
0.814453125,68.93222233350171,-20.75902752804651
0.818359375,68.73963863487025,-20.872218426067786
0.822265625,68.54620800869412,-20.98576781773001
0.826171875,68.35193231371176,-21.099672760096222
0.830078125,68.1568134309017,-21.21393029247194
0.833984375,67.96085326351748,-21.328537436458955
0.837890625,67.7640537371199,-21.44349119601107
0.841796875,67.56641679960694,-21.558788557491763
0.845703125,67.36794442124092,-21.67442648973376
0.849609375,67.16863859467314,-21.790401944100555
0.853515625,66.96850133496608,-21.906711854549854
0.857421875,66.76753467961281,-22.02335313769894
0.861328125,66.565740688554,-22.140322692891953
0.865234375,66.3631214441922,-22.257617402269098
0.869140625,66.15967905140363,-22.37523413083778
0.873046875,65.95541563754719,-22.493169726545624
0.876953125,65.75033335247107,-22.61142102035544
0.880859375,65.54443436851663,-22.729984826322067
0.884765625,65.33772088051956,-22.848857941671138
0.888671875,65.13019510580857,-22.968037146879727
0.892578125,64.9218592842014,-23.087519205758902
0.896484375,64.71271567799815,-23.207300865538166
0.900390625,64.50276657197193,-23.327378856951754
0.904296875,64.29201427335703,-23.44774989432685
0.908203125,64.08046111183423,-23.568410675673626
0.912109375,63.86810943951366,-23.689357882777177
0.916015625,63.65496163091483,-23.810588181291287
0.919921875,63.44102008294416,-23.932098220834064
0.923828125,63.22628721486976,-24.053884635085396
0.927734375,63.01076546829356,-24.175944041886247
0.931640625,62.79445730712089,-24.298273043339762
0.935546875,62.57736521752725,-24.42086822591421
0.939453125,62.35949170792261,-24.543726160547692
0.943359375,62.14083930891287,-24.666843402754697
0.947265625,61.92141057325883,-24.790216492734373
0.951171875,61.70120807583246,-24.913841955480624
0.955078125,61.48023441357051,-25.037716300893948
0.958984375,61.25849220542547,-25.161836023895024
0.962890625,61.03598409231401,-25.28619760454005
0.966796875,60.81271273706265,-25.410797508137783
0.970703125,60.58868082435088,-25.535632185368314
0.974609375,60.36389106065167,-25.660698072403548
0.978515625,60.13834617416933,-25.785991591029344
0.982421875,59.91204891477479,-25.911509148769373
0.986328125,59.685002053938305,-26.037247139010592
0.990234375,59.45720838465948,-26.163201941130396
0.9941406249999993,59.228670721394884,-26.28936992062537
0.9980468750000006,58.99939189998268,-26.415747429241804
