0.0019531249999999807,77.25600212051738,-15.23054129516544
0.005859374999999951,77.25513665159092,-15.231006327559639
0.009765624999999972,77.2534057222466,-15.231936380110254
0.013671874999999983,77.25080934950175,-15.233331428341861
0.01757812499999995,77.24734755888271,-15.235191435541699
0.021484374999999965,77.24302038442518,-15.237516352760116
0.025390624999999986,77.23782786867477,-15.240306118811159
0.029296875,77.23177006268767,-15.243560660273321
0.03320312499999997,77.2248470260314,-15.247279891490438
0.037109374999999944,77.21705882678573,-15.251463714572722
0.04101562499999997,77.20840554154371,-15.25611201939796
0.04492187500000002,77.1988872554129,-15.261224683612848
0.04882812499999995,77.18850406201658,-15.266801572634485
0.05273437499999997,77.17725606349522,-15.272842539652014
0.056640625,77.16514337050808,-15.279347425628405
0.06054687499999995,77.1521661022348,-15.286316059302397
0.064453125,77.1383243863773,-15.293748257190591
0.068359375,77.12361835916165,-15.301643823589682
0.072265625,77.10804816534016,-15.310002550578858
0.07617187499999992,77.09161395819359,-15.318824218022332
0.08007812499999996,77.07431589953336,-15.328108593572042
0.08398437499999992,77.05615415970415,-15.33785543267049
0.08789062499999996,77.03712891758629,-15.34806447855374
0.09179687500000001,77.01724036059852,-15.358735462254561
0.09570312499999988,76.99648868470085,-15.369868102605736
0.09960937499999997,76.97487409439731,-15.381462106243504
0.10351562500000007,76.95239680273914,-15.39351716761117
0.107421875,76.92905703132791,-15.406032968962867
0.11132812499999996,76.90485501031876,-15.419009180367464
0.11523437499999989,76.87979097842377,-15.432445459712635
0.11914062500000011,76.85386518291557,-15.446341452709083
0.123046875,76.82707787963083,-15.460696792894913
0.12695312500000003,76.7994293329741,-15.475511101640164
0.1308593749999999,76.77091981592159,-15.490783988151502
0.13476562500000008,76.74154961002509,-15.506515049477063
0.13867187499999997,76.71131900541614,-15.52270387051145
0.1425781249999998,76.6802283008101,-15.539350024000898
0.14648437500000006,76.64827780351047,-15.55645307054859
0.1503906250000001,76.61546782941325,-15.57401255862013
0.15429687499999986,76.58179870301144,-15.592028024549178
0.15820312499999994,76.5472707573996,-15.610498992543251
0.1621093749999999,76.51188433427858,-15.629424974689663
0.16601562499999994,76.4756397839602,-15.648805470961657
0.16992187500000006,76.43853746537229,-15.66863996922467
0.17382812500000003,76.40057774606352,-15.688927945242773
0.17773437500000017,76.36176100220852,-15.709668862685275
0.18164062499999975,76.32208761861308,-15.730862173133485
0.185546875,76.28155798871933,-15.752507316087645
0.18945312499999983,76.24017251461113,-15.774603718974008
0.19335937499999978,76.19793160701947,-15.797150797152115
0.19726562500000033,76.15483568532798,-15.820147953922204
0.201171875,76.11088517757858,-15.843594580532796
0.20507812499999986,76.06608052047704,-15.867490056188474
0.20898437500000017,76.02042215939888,-15.89183374805779
0.212890625,75.97391054839503,-15.91662501128135
0.21679687499999986,75.9265461501979,-15.941863188980106
0.220703125,75.87832943622725,-15.96754761226376
0.22460937500000003,75.82926088659627,-15.99367760023938
0.228515625,75.77934099011775,-16.02025246002018
0.23242187499999953,75.72857024431016,-16.047271486734452
0.23632812500000044,75.67694915540397,-16.074733963534715
0.24023437499999992,75.624478238348,-16.102639161606962
0.24414062499999997,75.57115801681567,-16.130986340180183
0.24804687499999967,75.51698902321154,-16.159774746535973
0.2519531250000002,75.46197179867774,-16.189003616018375
0.255859375,75.40610689310057,-16.218672172043846
0.2597656250000001,75.34939486511696,-16.24877962611148
0.26367187499999994,75.29183628212128,-16.279325177813327
0.26757812500000006,75.23343172027188,-16.310308014844935
0.27148437500000017,75.1741817644979,-16.341727313016072
0.27539062499999983,75.114087008506,-16.373582236261615
0.279296875,75.0531480547872,-16.405871936652645
0.28320312500000006,74.9913655146237,-16.438595554407677
0.28710937500000017,74.92874000809573,-16.47175221790414
0.2910156249999997,74.86527216408857,-16.505341043689974
0.29492187500000006,74.80096262029932,-16.53936113649549
0.298828125,74.73581202324404,-16.573811589245313
0.302734375,74.66982102826461,-16.60869148307063
0.306640625,74.60299029953579,-16.64399988732153
0.31054687500000017,74.53532051007225,-16.679735859579598
0.3144531249999998,74.46681234173559,-16.715898445670636
0.318359375,74.39746648524141,-16.752486679677663
0.32226562500000017,74.32728364016637,-16.789499583954008
0.3261718749999999,74.25626451495528,-16.826936169136673
0.330078125,74.18440982692815,-16.864795434159852
0.333984375,74.11172030228728,-16.90307636626865
0.337890625,74.03819667612434,-16.94177794103301
0.341796875,73.96383969242744,-16.980899122361812
0.345703125,73.88865010408821,-17.020438862517207
0.349609375,73.81262867290886,-17.060396102129104
0.353515625,73.73577616960918,-17.100769770209908
0.357421875,73.65809337383361,-17.141558784169398
0.361328125,73.57958107415828,-17.182762049829865
0.365234375,73.50024006809794,-17.224378461441418
0.369140625,73.42007116211293,-17.26640690169749
0.373046875,73.33907517161623,-17.308846241750583
0.376953125,73.25725292098018,-17.351695341228165
0.380859375,73.17460524354354,-17.39495304824883
0.3847656250000005,73.0911329816182,-17.438618199438622
0.3886718749999995,73.00683698649611,-17.482689619947557
0.392578125,72.92171811845587,-17.527166123466465
0.396484375,72.83577724676962,-17.572046512243833
0.400390625,72.74901524970961,-17.61732957710308
0.404296875,72.66143301455485,-17.6630140974599
0.408203125,72.57303143759763,-17.709098841339866
0.412109375,72.4838114241501,-17.755582565396242
0.416015625,72.39377388855067,-17.80246401492803
0.419921875,72.30291975417039,-17.849741923898186
0.423828125,72.21124995341927,-17.897415014952088
0.427734375,72.11876542775258,-17.94548199943622
0.431640625,72.02546712767692,-17.99394157741705
0.435546875,71.93135601275645,-18.042792437700164
0.439453125,71.83643305161883,-18.092033257849568
0.443359375,71.74069922196114,-18.141662704207267
0.447265625,71.6441555105558,-18.19167943191302
0.451171875,71.54680291325634,-18.24208208492435
0.455078125,71.44864243500302,-18.29286929603675
0.458984375,71.34967508982847,-18.344039686904136
0.462890625,71.2499019008631,-18.395591868059505
0.466796875,71.14932390034059,-18.44752443893584
0.470703125,71.04794212960311,-18.499835987887217
0.474609375,70.94575763910653,-18.552525092210157
0.478515625,70.84277148842544,-18.605590318165206
0.482421875,70.73898474625814,-18.65903022099873
0.4863281249999999,70.63439849043148,-18.71284334496496
0.49023437500000006,70.5290138079056,-18.767028223348238
0.494140625,70.42283179477847,-18.821583378485528
0.498046875,70.31585355629043,-18.876507321789138
0.501953125,70.20808020682851,-18.931798553769685
0.505859375,70.09951286993063,-18.98745556405927
0.509765625,69.9901526782897,-19.043476831434937
0.513671875,69.8800007737576,-19.099860823842302
0.517578125,69.76905830734891,-19.156605998419476
0.521484375,69.65732643924464,-19.21371080152119
0.525390625,69.54480633879571,-19.271173668743163
0.529296875,69.43149918452633,-19.328993024946726
0.533203125,69.31740616413721,-19.38716728428365
0.537109375,69.20252847450863,-19.44569485022125
0.541015625,69.08686732170334,-19.504574115567703
0.544921875,68.97042392096928,-19.56380346249762
0.548828125,68.85319949674219,-19.62338126257785
0.552734375,68.735195282648,-19.68330587679353
0.556640625,68.61641252150507,-19.74357565557438
0.560546875,68.49685246532627,-19.804188938821234
0.564453125,68.37651637532086,-19.86514405593282
0.568359375,68.2554055218962,-19.926439325832785
0.5722656250000008,68.13352118465926,-19.98807305699696
0.5761718749999993,68.01086465241814,-20.050043547480815
0.580078125,67.88743722318281,-20.11234908494738
0.583984375,67.76324020416664,-20.174987946695023
0.587890625,67.63827491178672,-20.23795839968587
0.591796875,67.51254267166468,-20.301258700574213
0.595703125,67.38604481862697,-20.364887095735295
0.599609375,67.25878269670513,-20.428841821294274
0.603515625,67.13075765913564,-20.493121103155474
0.607421875,67.00197106835985,-20.557723157031862
0.6113281250000007,66.8724242960234,-20.622646188474803
0.6152343749999993,66.7421187229757,-20.687888392903968
0.619140625,66.61105573926885,-20.753447955637746
0.623046875,66.47923674415688,-20.819323051923483
0.626953125,66.34666314609417,-20.885511846968413
0.630859375,66.21333636273405,-20.95201249597054
0.634765625,66.07925782092703,-21.01882314414991
0.638671875,65.94442895671881,-21.08594192678008
0.642578125,65.8088512153481,-21.15336696921986
0.646484375,65.67252605124418,-21.221096386945295
0.650390625,65.53545492802417,-21.28912828558191
0.654296875,65.39763931849019,-21.35746076093719
0.658203125,65.2590807046262,-21.426091899033327
0.662109375,65.11978057759454,-21.495019776140214
0.666015625,64.97974043773235,-21.564242458808685
0.669921875,64.8389617945477,-21.633758003904006
0.6738281249999999,64.6974461667154,-21.703564458639644
0.6777343750000066,64.55519508207239,-21.773659860611364
0.6816406249999938,64.4122100776146,-21.84404223783079
0.685546875,64.2684926994884,-21.914709608761648
0.689453125,64.1240445029902,-21.98565998235222
0.693359375,63.978867052557554,-22.05689135807207
0.697265625,63.832961921764834,-22.12840172594661
0.701171875,63.686330693317075,-22.200189066592753
0.705078125,63.53897495904378,-22.272251351254642
0.708984375,63.39089631989244,-22.34458654183969
0.712890625,63.242096385921776,-22.417192590954844
0.716796875,63.09257677629473,-22.490067441943093
0.720703125,62.94233911927118,-22.563209028920244
0.724609375,62.79138505220036,-22.63661527681194
0.728515625,62.63971622151301,-22.71028410139094
0.732421875,62.487334282713284,-22.78421340931462
0.736328125,62.33424090037028,-22.85840109816276
0.740234375,62.180437748109405,-22.932845056475553
0.744140625,62.025926508603376,-23.007543163791894
0.748046875,61.87070887356295,-23.08249329068787
0.751953125,61.714786543727385,-23.157693298815566
0.755859375,61.55816122885459,-23.233141040942026
0.759765625,61.40083464771101,-23.308834360988577
0.763671875,61.242808528061154,-23.384771094070295
0.767578125,61.08408460665693,-23.460949066535775
0.771484375,60.9246646292266,-23.53736609600715
0.775390625,60.764550350463445,-23.614019991420324
0.779296875,60.6037435340142,-23.690908553065462
0.783203125,60.44224595246709,-23.76802957262775
0.787109375,60.280059387339655,-23.84538083322836
0.791015625,60.1171856290662,-23.922960109465688
0.794921875,59.953626476985,-24.00076516745682
0.798828125,59.78938373932515,-24.078793764879237
0.802734375,59.62445923319315,-24.15704365101279
0.806640625,59.45885478455914,-24.235512566781868
0.810546875,59.29257222824289,-24.314198244797847
0.814453125,59.125613407899394,-24.393098409401766
0.818359375,58.95798017600422,-24.472210776707236
0.822265625,58.78967439383856,-24.551533054643585
0.826171875,58.62069793147388,-24.631062942999243
0.830078125,58.45105266775635,-24.710798133465385
0.833984375,58.28074049029093,-24.790736309679765
0.837890625,58.109763295425104,-24.870875147270816
0.841796875,57.93812298823236,-24.951212313901987
0.845703125,57.76582148249529,-25.03174546931628
0.849609375,57.59286070068845,-25.112472265381065
0.853515625,57.419242573960815,-25.193390346133075
0.857421875,57.244969042117994,-25.27449734782367
0.861328125,57.070042053604084,-25.355790898964305
0.865234375,56.894463565483186,-25.437268620372247
0.869140625,56.718235543420676,-25.518928125216505
0.873046875,56.541359961664085,-25.600767019063966
0.876953125,56.36383880302367,-25.6827828999258
0.880859375,56.1856740588527,-25.76497335830405
0.884765625,56.006867729027405,-25.847335977238462
0.888671875,55.82742182192658,-25.92986833235352
0.892578125,55.647338354410884,-26.012567991905723
0.896484375,55.466619351801846,-26.09543251683106
0.900390625,55.28526684786051,-26.17845946079271
0.904296875,55.103282884765754,-26.261646370228952
0.908203125,54.92066951309235,-26.344990784401308
0.912109375,54.73742879178862,-26.42849023544286
0.916015625,54.55356278815383,-26.51214224840683
0.919921875,54.36907357781526,-26.59594434131531
0.923828125,54.18396324470487,-26.679894025208267
0.927734375,53.99823388103581,-26.76398880419269
0.931640625,53.81188758727845,-26.848226175491998
0.935546875,53.624926472136146,-26.93260362949562
0.939453125,53.43735265252074,-27.017118649808776
0.943359375,53.24916825352764,-27.101768713302476
0.947265625,53.0603754084107,-27.18655129016372
0.951171875,52.87097625855663,-27.27146384394587
0.955078125,52.68097295345926,-27.35650383161926
0.958984375,52.49036765069336,-27.441668703621943
0.962890625,52.299162515888185,-27.526955903910707
0.966796875,52.10735972270071,-27.612362870012205
0.970703125,51.91496145278856,-27.697887033074338
0.974609375,51.721969895782586,-27.783525817917777
0.978515625,51.52838724925918,-27.869276643087716
0.982421875,51.334215718712215,-27.955136920905776
0.986328125,51.13945751752474,-28.0411040575221
0.990234375,50.94411486694031,-28.127175452967656
0.9941406249999993,50.748189996034085,-28.213348501206656
0.9980468750000006,50.55168514168334,-28.299620590189303
