0.0019531249999999807,66.65786330097724,-20.340807742341557
0.005859374999999951,66.65711112621057,-20.3411277462379
0.009765624999999972,66.6556067850527,-20.34176774418847
0.013671874999999983,66.65335029425454,-20.34272771650923
0.01757812499999995,66.65034167894225,-20.344007633674586
0.021484374999999965,66.64658097261706,-20.345607456317914
0.025390624999999986,66.6420682171549,-20.34752713523231
0.029296875,66.63680346280617,-20.34976661137148
0.03320312499999997,66.63078676819514,-20.352325815850847
0.037109374999999944,66.62401820031957,-20.35520466994883
0.04101562499999997,66.61649783455005,-20.35840308510827
0.04492187500000002,66.60822575462936,-20.36192096293811
0.04882812499999995,66.59920205267174,-20.365758195215175
0.05273437499999997,66.58942682916212,-20.3699146638862
0.056640625,66.57890019295516,-20.374390241069992
0.06054687499999995,66.56762226127435,-20.379184789059824
0.064453125,66.55559315971101,-20.384298160325958
0.068359375,66.54281302222311,-20.389730197518375
0.072265625,66.52928199113423,-20.3954807334697
0.07617187499999992,66.51500021713213,-20.401549591198282
0.08007812499999996,66.49996785926757,-20.407936583911468
0.08398437499999992,66.48418508495293,-20.414641515009063
0.08789062499999996,66.4676520699606,-20.42166417808697
0.09179687500000001,66.45036899842158,-20.429004356940997
0.09570312499999988,66.43233606282382,-20.43666182557087
0.09960937499999997,66.41355346401049,-20.444636348184396
0.10351562500000007,66.3940214111783,-20.452927679201846
0.107421875,66.37374012187556,-20.46153556326049
0.11132812499999996,66.35270982200036,-20.470459735219322
0.11523437499999989,66.33093074579854,-20.479699920163952
0.11914062500000011,66.30840313586164,-20.48925583341173
0.123046875,66.28512724312475,-20.49912718051697
0.12695312500000003,66.26110332686436,-20.509313657276433
0.1308593749999999,66.23633165469597,-20.519814949734936
0.13476562500000008,66.21081250257187,-20.53063073419118
0.13867187499999997,66.18454615477857,-20.541760677203726
0.1425781249999998,66.15753290393441,-20.553204435597173
0.14648437500000006,66.12977305098687,-20.564961656468522
0.1503906250000001,66.10126690521001,-20.57703197719368
0.15429687499999986,66.0720147842017,-20.58941502543421
0.15820312499999994,66.04201701388078,-20.602110419144203
0.1621093749999999,66.01127392848423,-20.615117766577345
0.16601562499999994,65.97978587056417,-20.6284366662942
0.16992187500000006,65.94755319098486,-20.64206670716961
0.17382812500000003,65.91457624891957,-20.656007468400343
0.17773437500000017,65.8808554118474,-20.67025851951285
0.18164062499999975,65.84639105555006,-20.68481942037127
0.185546875,65.81118356410839,-20.699689721185575
0.18945312499999983,65.77523332989915,-20.714868962519883
0.19335937499999978,65.73854075359138,-20.730356675301003
0.19726562500000033,65.70110624414292,-20.746152380827102
0.201171875,65.66293021879669,-20.762255590776576
0.20507812499999986,65.62401310307703,-20.77866580721711
0.20898437500000017,65.58435533078591,-20.79538252261491
0.212890625,65.543957343999,-20.81240521984409
0.21679687499999986,65.50281959306177,-20.829733372196277
0.220703125,65.46094253658543,-20.84736644339036
0.22460937500000003,65.4183266414429,-20.865303887582446
0.228515625,65.37497238276448,-20.883545149375973
0.23242187499999953,65.33088024393376,-20.902089663832005
0.23632812500000044,65.28605071658316,-20.920936856479727
0.24023437499999992,65.24048430058957,-20.940086143327065
0.24414062499999997,65.19418150406985,-20.95953693087156
0.24804687499999967,65.14714284337624,-20.979288616111347
0.2519531250000002,65.09936884309172,-20.999340586556357
0.255859375,65.05086003602531,-21.01969222023966
0.2597656250000001,65.00161696320721,-21.040342885729043
0.26367187499999994,64.95164017388394,-21.0612919421387
0.26757812500000006,64.90093022551338,-21.08253873914112
0.27148437500000017,64.84948768375972,-21.1040826169792
0.27539062499999983,64.79731312248832,-21.12592290647843
0.279296875,64.74440712376054,-21.148058929059385
0.28320312500000006,64.69077027782842,-21.17048999675027
0.28710937500000017,64.63640318312933,-21.19321541219972
0.2910156249999997,64.58130644628055,-21.216234468689752
0.29492187500000006,64.52548068207369,-21.239546450148893
0.298828125,64.46892651346917,-21.263150631165463
0.302734375,64.41164457159043,-21.287046277001078
0.306640625,64.35363549571825,-21.311232643604292
0.31054687500000017,64.29489993328487,-21.33570897762441
0.3144531249999998,64.23543853986808,-21.360474516425516
0.318359375,64.17525197918513,-21.385528488100626
0.32226562500000017,64.1143409230868,-21.41087011148605
0.3261718749999999,64.05270605155106,-21.436498596175912
0.330078125,63.9903480526769,-21.462413142536846
0.333984375,63.927267622677995,-21.488612941722877
0.337890625,63.86346546587627,-21.515097175690443
0.341796875,63.798942294695394,-21.54186501721364
0.345703125,63.733698829654195,-21.568915629899596
0.349609375,63.667735799360024,-21.596248168204035
0.353515625,63.60105394050196,-21.623861777447008
0.357421875,63.533653997844006,-21.65175559382882
0.361328125,63.46553672421816,-21.679928744446094
0.365234375,63.396702880517445,-21.70838034730801
0.369140625,63.32715323568876,-21.737109511352767
0.373046875,63.2568885667258,-21.76611533646413
0.376953125,63.185909658661714,-21.79539691348823
0.380859375,63.11421730456185,-21.82495332425048
0.3847656250000005,63.04181230551625,-21.854783641572702
0.3886718749999995,62.96869547063228,-21.88488692929036
0.392578125,62.89486761702682,-21.915262242270085
0.396484375,62.82032956981884,-21.945908626427194
0.400390625,62.745082162121456,-21.976825118743555
0.404296875,62.66912623503418,-22.0080107472855
0.408203125,62.59246263763492,-22.039464531221963
0.412109375,62.515092226972016,-22.071185480842775
0.416015625,62.437015868056136,-22.103172597577117
0.419921875,62.35823443385204,-22.135424874012152
0.423828125,62.27874880527035,-22.16794129391183
0.427734375,62.19855987115914,-22.20072083223584
0.431640625,62.11766852829556,-22.23376245515875
0.435546875,62.03607568137721,-22.267065120089313
0.439453125,61.95378224301359,-22.30062777568991
0.443359375,61.87078913371735,-22.334449361896215
0.447265625,61.787097281895484,-22.36852880993696
0.451171875,61.702707623840475,-22.402865042353934
0.455078125,61.61762110372129,-22.43745697302208
0.458984375,61.531838673574356,-22.472303507169805
0.462890625,61.445361293294354,-22.507403541399455
0.466796875,61.358189930625024,-22.54275596370791
0.470703125,61.27032556114981,-22.578359653507402
0.474609375,61.18176916828248,-22.614213481646445
0.478515625,61.092521743257564,-22.650316310430973
0.482421875,61.0025842851208,-22.6866669936456
0.4863281249999999,60.911957800719435,-22.723264376575077
0.49023437500000006,60.82064330469245,-22.760107296025904
0.494140625,60.728641819460734,-22.797194580348073
0.498046875,60.635954375217025,-22.83452504945703
0.501953125,60.542582009916,-22.872097514855746
0.505859375,60.448525769264045,-22.90991077965698
0.509765625,60.35378670670906,-22.947963638605692
0.513671875,60.258365883430145,-22.986254878101615
0.517578125,60.162264368327214,-23.024783276222
0.521484375,60.065483238010444,-23.0635476027445
0.525390625,59.96802357678975,-23.102546619170244
0.529296875,59.869886476664036,-23.141779078747025
0.533203125,59.77107303731051,-23.1812437264927
0.537109375,59.67158436607374,-23.22093929921871
0.541015625,59.57142157795473,-23.260864525553767
0.544921875,59.47058579559991,-23.301018125967715
0.548828125,59.369078149289926,-23.341398812795525
0.552734375,59.266899776928476,-23.382005290261464
0.556640625,59.16405182403094,-23.422836254503412
0.560546875,59.060535443713,-23.463890393597335
0.564453125,58.9563517966791,-23.50516638758193
0.568359375,58.85150205121088,-23.546662908483395
0.5722656250000008,58.745987383155416,-23.58837862034039
0.5761718749999993,58.6398089759136,-23.63031217922909
0.580078125,58.53296802042795,-23.67246223328854
0.583984375,58.425465715171,-23.714827422745934
0.587890625,58.317303266132974,-23.757406379942246
0.591796875,58.208481886809736,-23.80019772935794
0.595703125,58.09900279819051,-23.843200087638817
0.599609375,57.98886722874553,-23.886412063622043
0.603515625,57.87807641441359,-23.929832258362318
0.607421875,57.76663159858956,-23.973459265158183
0.6113281250000007,57.65453403211166,-24.017291669578523
0.6152343749999993,57.54178497324891,-24.06132804948913
0.619140625,57.428385687687985,-24.10556697507959
0.623046875,57.31433744852071,-24.150007008890057
0.626953125,57.19964153623077,-24.194646705838434
0.630859375,57.08429923868069,-24.239484613247555
0.634765625,56.968311851098655,-24.284519270872565
0.638671875,56.851680676065186,-24.329749210928416
0.642578125,56.73440702349978,-24.375172958117563
0.646484375,56.616492210647415,-24.420789029657755
0.650390625,56.49793756206496,-24.46659593530999
0.654296875,56.378744409607556,-24.512592177406642
0.658203125,56.258914092414756,-24.558776250879692
0.662109375,56.138447956896755,-24.60514664328913
0.666015625,56.017347356720364,-24.6517018348515
0.669921875,55.895613652795014,-24.698440298468576
0.6738281249999999,55.773248213258555,-24.7453604997562
0.6777343750000066,55.65025241346282,-24.79246089707333
0.6816406249999938,55.52662763596054,-24.83973994155068
0.685546875,55.40237527048781,-24.88719607712115
0.689453125,55.277496713953646,-24.934827740547686
0.693359375,55.15199337042231,-24.982633361453964
0.697265625,55.0258666510998,-25.030611362353607
0.701171875,54.899117974318806,-25.078760158680108
0.705078125,54.77174876552385,-25.127078158816765
0.708984375,54.643760457256214,-25.175563764126803
0.712890625,54.51515448913887,-25.224215368983604
0.716796875,54.38593230786125,-25.27303136080109
0.720703125,54.25609536716397,-25.322010120064245
0.724609375,54.12564512782343,-25.371150020359764
0.728515625,53.994583057636305,-25.42044942840684
0.732421875,53.862910631403956,-25.469906704088103
0.736328125,53.73062933091679,-25.519520200480688
0.740234375,53.59774064493842,-25.56928826388741
0.744140625,53.464246069189834,-25.61920923386813
0.748046875,53.33014710633339,-25.6692814432712
0.751953125,53.19544526595678,-25.71950321826508
0.755859375,53.060142064556835,-25.76987287837006
0.759765625,52.9242390255233,-25.82038873649014
0.763671875,52.78773767912242,-25.871049098945036
0.767578125,52.65063956248057,-25.92185226550229
0.771484375,52.51294621956763,-25.97279652940956
0.775390625,52.37465920118039,-26.02388017742699
0.779296875,52.235780064925784,-26.075101489859744
0.783203125,52.09631037520408,-26.126458740590678
0.787109375,51.95625170319191,-26.17795019711308
0.791015625,51.815605626825295,-26.229574120563626
0.794921875,51.674373730782484,-26.281328765755386
0.798828125,51.532557606466746,-26.333212381211005
0.802734375,51.39015885198906,-26.38522320919599
0.806640625,51.24717907215071,-26.437359485752125
0.810546875,51.103619878425775,-26.489619440731033
0.814453125,50.95948288894353,-26.542001297827813
0.818359375,50.81476972847077,-26.594503274614862
0.822265625,50.66948202839399,-26.647123582575773
0.826171875,50.523621426701524,-26.699860427139388
0.830078125,50.37718956796556,-26.752712007713953
0.833984375,50.23018810332407,-26.805676517721395
0.837890625,50.082618690462624,-26.858752144631744
0.841796875,49.93448299359618,-26.911937069997652
0.845703125,49.78578268345065,-26.965229469489028
0.849609375,49.636519437244516,-27.018627512927832
0.853515625,49.486694938670254,-27.072129364322922
0.857421875,49.3363108778757,-27.125733181905098
0.861328125,49.18536895144532,-27.17943711816219
0.865234375,49.03387086238138,-27.233239319874322
0.869140625,48.88181832008504,-27.287137928149235
0.873046875,48.72921304033732,-27.341131078457803
0.876953125,48.57605674528001,-27.395216900669578
0.880859375,48.42235116339648,-27.449393519088503
0.884765625,48.26809802949234,-27.503659052488747
0.888671875,48.113299084676136,-27.558011614150605
0.892578125,47.95795607633979,-27.612449311896547
0.896484375,47.80207075813909,-27.66697024812739
0.900390625,47.645644889973994,-27.721572519858537
0.904296875,47.48868023796891,-27.776254218756364
0.908203125,47.33117857445282,-27.831013431174707
0.912109375,47.173141677939356,-27.885848238191464
0.916015625,47.01457133310677,-27.940756715645275
0.919921875,46.855469330777844,-27.995736934172367
0.923828125,46.695837467899615,-28.050786959243453
0.927734375,46.53567754752314,-28.105904851200766
0.931640625,46.37499137878309,-28.161088665295193
0.935546875,46.21378077687725,-28.216336451723514
0.939453125,46.052047563045946,-28.27164625566575
0.943359375,45.88979356455142,-28.32701611732261
0.947265625,45.72702061465705,-28.382444071953042
0.951171875,45.563730552606536,-28.437928149911887
0.955078125,45.399925223602935,-28.49346637668765
0.958984375,45.23560647878768,-28.549056772940343
0.962890625,45.07077617521948,-28.604697354539464
0.966796875,44.90543617585308,-28.66038613260204
0.970703125,44.739588349518044,-28.716121113530807
0.974609375,44.57323457089733,-28.77190029905246
0.978515625,44.406376720505875,-28.82772168625602
0.982421875,44.239016684669046,-28.88358326763127
0.986328125,44.07115635550099,-28.939483031107336
0.990234375,43.90279763088294,-28.995418960091328
0.9941406249999993,43.73394241444144,-29.051389033507068
0.9980468750000006,43.56459261552628,-29.107391225833993
