0.0019531249999999807,66.6556219566581,-20.342802638174277
0.005859374999999951,66.65486982784053,-20.343122598140354
0.009765624999999972,66.65336557857665,-20.343762508232334
0.013671874999999983,66.65110922560898,-20.344722348770055
0.01757812499999995,66.64810079405099,-20.34600209023372
0.021484374999999965,66.64434031738708,-20.347601693264455
0.025390624999999986,66.63982783747214,-20.349521108665023
0.029296875,66.63456340453128,-20.35176027740075
0.03320312499999997,66.62854707715934,-20.354319130600587
0.037109374999999944,66.62177892232042,-20.35719758955841
0.04101562499999997,66.61425901534727,-20.360395565734457
0.04492187500000002,66.60598743994065,-20.36391296075697
0.04882812499999995,66.59696428816862,-20.367749666424
0.05273437499999997,66.58718966046571,-20.371905564705422
0.056640625,66.5766636656321,-20.3763805277451
0.06054687499999995,66.56538642083258,-20.38117441786325
0.064453125,66.55335805159567,-20.38628708755899
0.068359375,66.54057869181241,-20.391718379513055
0.072265625,66.52704848373529,-20.397468126590706
0.07617187499999992,66.51276757797692,-20.403536151844815
0.08007812499999996,66.49773613350884,-20.409922268519132
0.08398437499999992,66.48195431766004,-20.416626280051744
0.08789062499999996,66.46542230611556,-20.423647980078684
0.09179687500000001,66.4481402829149,-20.43098715243776
0.09570312499999988,66.43010844045055,-20.438643571172534
0.09960937499999997,66.41132697946618,-20.44661700053652
0.10351562500000007,66.39179610905495,-20.45490719499751
0.107421875,66.3715160466577,-20.463513899242116
0.11132812499999996,66.35048701806106,-20.472436848180504
0.11523437499999989,66.32870925739543,-20.481675766951266
0.11914062500000011,66.30618300713304,-20.491230370926516
0.123046875,66.28290851808572,-20.501100365717146
0.12695312500000003,66.2588860494028,-20.51128544717826
0.1308593749999999,66.23411586856881,-20.521785301414788
0.13476562500000008,66.20859825140113,-20.532599604787304
0.13867187499999997,66.18233348204765,-20.543728023917993
0.1425781249999998,66.1553218529842,-20.555170215696812
0.14648437500000006,66.12756366501203,-20.56692582728784
0.1503906250000001,66.09905922725521,-20.578994496135795
0.15429687499999986,66.06980885715785,-20.591375849972728
0.15820312499999994,66.03981288048139,-20.604069506824924
0.1621093749999999,66.00907163130171,-20.617075075019937
0.16601562499999994,65.97758545200617,-20.63039215319385
0.16992187500000006,65.94535469329068,-20.644020330298698
0.17382812500000003,65.91237971415656,-20.657959185610054
0.17773437500000017,65.87866088190736,-20.67220828873482
0.18164062499999975,65.84419857214577,-20.686767199619176
0.185546875,65.80899316877009,-20.701635468556745
0.18945312499999983,65.77304506397103,-20.71681263619687
0.19335937499999978,65.73635465822821,-20.732298233553152
0.19726562500000033,65.69892236030653,-20.748091782012093
0.201171875,65.66074858725273,-20.764192793341973
0.20507812499999986,65.62183376439154,-20.780600769701877
0.20898437500000017,65.58217832532202,-20.797315203650907
0.212890625,65.54178271191367,-20.814335578157568
0.21679687499999986,65.50064737430253,-20.831661366609346
0.220703125,65.45877277088722,-20.84929203282245
0.22460937500000003,65.41615936832483,-20.86722703105174
0.228515625,65.37280764152675,-20.885465806000827
0.23242187499999953,65.32871807365454,-20.904007792832363
0.23632812500000044,65.28389115611553,-20.922852417178493
0.24023437499999992,65.2383273885585,-20.941999095151484
0.24414062499999997,65.19202727886922,-20.961447233354562
0.24804687499999967,65.14499134316588,-20.98119622889288
0.2519531250000002,65.09722010579452,-21.001245469384706
0.255859375,65.04871409932434,-21.021594332972743
0.2597656250000001,64.99947386454288,-21.04224218833569
0.26367187499999994,64.94949995045125,-21.063188394699896
0.26757812500000006,64.89879291425913,-21.084432301851276
0.27148437500000017,64.84735332137984,-21.10597325014734
0.27539062499999983,64.79518174542521,-21.12781057052942
0.279296875,64.74227876820042,-21.149943584535087
0.28320312500000006,64.68864497969875,-21.17237160431073
0.28710937500000017,64.63428097809631,-21.195093932624292
0.2910156249999997,64.57918736974662,-21.21810986287823
0.29492187500000006,64.52336476917505,-21.241418679122603
0.298828125,64.46681379907339,-21.26501965606835
0.302734375,64.40953509029414,-21.28891205910077
0.306640625,64.35152928184478,-21.313095144293126
0.31054687500000017,64.29279702088198,-21.337568158420467
0.3144531249999998,64.23333896270574,-21.36233033897361
0.318359375,64.1731557707534,-21.38738091417328
0.32226562500000017,64.11224811659358,-21.41271910298446
0.3261718749999999,64.05061667992014,-21.438344115130867
0.330078125,63.988262148545864,-21.464255151109658
0.333984375,63.92518521839624,-21.490451402206254
0.337890625,63.86138659350304,-21.516932050509375
0.341796875,63.79686698599794,-21.543696268926237
0.345703125,63.7316271161059,-21.57074322119791
0.349609375,63.6656677121386,-21.59807206191488
0.353515625,63.59898951048774,-21.625681936532732
0.357421875,63.53159325561821,-21.653571981388062
0.361328125,63.46347970006128,-21.68174132371452
0.365234375,63.39464960440761,-21.71018908165905
0.369140625,63.32510373730024,-21.738914364298267
0.373046875,63.254842875427464,-21.767916271655068
0.376953125,63.18386780351561,-21.79719389471533
0.380859375,63.11217931432179,-21.826746315444865
0.3847656250000005,63.039778208626515,-21.856572606806473
0.3886718749999995,62.96666529522625,-21.88667183277719
0.392578125,62.892841390925796,-21.917043048365773
0.396484375,62.81830732053082,-21.94768529963021
0.400390625,62.74306391684002,-21.978597623695535
0.404296875,62.66711202063738,-22.009779048771755
0.408203125,62.59045248068426,-22.041228594171933
0.412109375,62.51308615371148,-22.072945270330482
0.416015625,62.43501390441121,-22.104928078821587
0.419921875,62.35623660542888,-22.137176012377807
0.423828125,62.27675513735495,-22.16968805490887
0.427734375,62.19657038871656,-22.202463181520603
0.431640625,62.11568325596918,-22.235500358534036
0.435546875,62.034094643488096,-22.268798543504698
0.439453125,61.95180546355985,-22.302356685242028
0.443359375,61.86881663637359,-22.336173723829024
0.447265625,61.7851290900123,-22.37024859064199
0.451171875,61.700743760443984,-22.40458020837049
0.455078125,61.61566159151275,-22.439167491037455
0.458984375,61.52988353492977,-22.474009344019457
0.462890625,61.44341055026424,-22.509104664067138
0.466796875,61.356243604934114,-22.544452339325826
0.470703125,61.268383674196905,-22.580051249356295
0.474609375,61.17983174114026,-22.615900265155698
0.478515625,61.090588796672556,-22.65199824917866
0.482421875,61.000655839513314,-22.688344055358538
0.4863281249999999,60.91003387618361,-22.724936529128843
0.49023437500000006,60.818723920996305,-22.761774507444834
0.494140625,60.72672699604629,-22.798856818805234
0.498046875,60.63404413120053,-22.836182283274184
0.501953125,60.54067636408813,-22.873749712503276
0.505859375,60.44662474009018,-22.91155790975381
0.509765625,60.351890312329644,-22.94960566991918
0.513671875,60.25647414166109,-22.98789177954741
0.517578125,60.160377296660286,-23.02641501686391
0.521484375,60.063600853613835,-23.06517415179432
0.525390625,59.96614589650857,-23.10416794598754
0.529296875,59.86801351702095,-23.143395152838956
0.533203125,59.769204814506345,-23.18285451751376
0.537109375,59.669720895988235,-23.222544776970494
0.541015625,59.56956287614728,-23.262464659984694
0.544921875,59.46873187731034,-23.302612887172724
0.548828125,59.3672290294394,-23.342988171015786
0.552734375,59.265055470120366,-23.383589215884026
0.556640625,59.16221234455181,-23.424414718060863
0.560546875,59.058700805533604,-23.465463365767434
0.564453125,58.95452201345544,-23.506733839187216
0.568359375,58.84967713628531,-23.54822481049078
0.5722656250000008,58.74416734955784,-23.58993494386074
0.5761718749999993,58.63799383636265,-23.63186289551677
0.580078125,58.53115778733223,-23.67400731374097
0.583984375,58.42366040063044,-23.71636683890308
0.587890625,58.31550288194016,-23.75894010348616
0.591796875,58.20668644445132,-23.80172573211222
0.595703125,58.09721230884866,-23.844722341568083
0.599609375,57.987081703299445,-23.88792854083139
0.603515625,57.876295863441044,-23.93134293109674
0.607421875,57.76485603236849,-23.974964105802012
0.6113281250000007,57.65276346062182,-24.018790650654815
0.6152343749999993,57.54001940617356,-24.06282114365905
0.619140625,57.42662513441564,-24.107054155141793
0.623046875,57.3125819181469,-24.15148824778003
0.626953125,57.19789103755988,-24.196121976627843
0.630859375,57.08255378022783,-24.240953889143576
0.634765625,56.96657144109161,-24.285982525217175
0.638671875,56.84994532244633,-24.33120641719771
0.642578125,56.73267673392812,-24.37662408992101
0.646484375,56.61476699250063,-24.422234060737484
0.650390625,56.4962174224415,-24.468034839540042
0.654296875,56.377029355328744,-24.514024928792203
0.658203125,56.25720413002704,-24.56020282355632
0.662109375,56.136743092673875,-24.606567011521975
0.666015625,56.01564759666564,-24.653115973034495
0.669921875,55.89391900264362,-24.699848181123645
0.6738281249999999,55.771558678479906,-24.74676210153241
0.6777343750000066,55.64856799926293,-24.793856192746084
0.6816406249999938,55.524948347284464,-24.841128906020845
0.685546875,55.400701112022105,-24.888578685414227
0.689453125,55.27582769012886,-24.93620396781292
0.693359375,55.15032948541553,-24.984003182963473
0.697265625,55.024207908837255,-25.031974753501505
0.701171875,54.89746437847847,-25.08011709498159
0.705078125,54.77010031953808,-25.12842861590721
0.708984375,54.642117164314456,-25.176907717760862
0.712890625,54.51351635219039,-25.225552795034265
0.716796875,54.384299329617896,-25.274362235258753
0.720703125,54.25446755010295,-25.32333441903577
0.724609375,54.124022474190156,-25.372467720067533
0.728515625,53.99296556944726,-25.42176050518779
0.732421875,53.86129831044959,-25.471211134392775
0.736328125,53.72902217876445,-25.520817960872236
0.740234375,53.59613866293532,-25.570579331040644
0.744140625,53.46264925846601,-25.62049358456852
0.748046875,53.32855546780478,-25.67055905441389
0.751953125,53.19385880032825,-25.72077406685389
0.755859375,53.058560772325265,-25.77113694151649
0.759765625,52.92266290698069,-25.821645991412375
0.763671875,52.786166734359064,-25.872299522966905
0.767578125,52.649073791388176,-25.92309583605229
0.771484375,52.51138562184256,-25.974033224019806
0.775390625,52.373103776326865,-26.02510997373222
0.779296875,52.234229812259144,-26.07632436559629
0.783203125,52.09476529385405,-26.127674673595415
0.787109375,51.95471179210592,-26.179159165322435
0.791015625,51.81407088477177,-26.23077610201252
0.794921875,51.67284415635422,-26.282523738576213
0.798828125,51.53103319808428,-26.334400323632597
0.802734375,51.388639607904054,-26.386404099542574
0.806640625,51.24566499044937,-26.438533302442305
0.810546875,51.102110957032295,-26.490786162276734
0.814453125,50.957979125623545,-26.543160902833264
0.818359375,50.81327112083481,-26.595655741775545
0.822265625,50.66798857390102,-26.6482688906774
0.826171875,50.52213312266242,-26.700998555056866
0.830078125,50.37570641154666,-26.753842934410343
0.833984375,50.228710091550724,-26.806800222246903
0.837890625,50.08114582022276,-26.85986860612267
0.841796875,49.93301526164386,-26.913046267675384
0.845703125,49.7843200864097,-26.966331382659014
0.849609375,49.635061971612124,-27.01972212097855
0.853515625,49.48524260082059,-27.073216646724887
0.857421875,49.334863664063555,-27.126813118209835
0.861328125,49.183926857809766,-27.180509688001234
0.865234375,49.03243388494942,-27.23430450295821
0.869140625,48.880386454775284,-27.288195704266528
0.873046875,48.72778628296367,-27.342181427474067
0.876953125,48.57463509155535,-27.39625980252642
0.880859375,48.42093460893637,-27.45042895380259
0.884765625,48.26668656981876,-27.50468700015082
0.888671875,48.11189271522114,-27.559032054924526
0.892578125,47.956554792449296,-27.613462226018342
0.896484375,47.80067455507657,-27.66797561590428
0.900390625,47.64425376292422,-27.722570321668012
0.904296875,47.4872941820417,-27.777244435045244
0.908203125,47.32979758468677,-27.83199604245821
0.912109375,47.17176574930559,-27.886823225052293
0.916015625,47.01320046051272,-27.94172405873271
0.919921875,46.85410350907094,-27.996696614201362
0.923828125,46.694476691871095,-28.05173895699375
0.927734375,46.53432181191178,-28.106849147516012
0.931640625,46.37364067827895,-28.162025241082077
0.935546875,46.21243510612545,-28.217265287950905
0.939453125,46.0507069166504,-28.272567333363856
0.943359375,45.88845793707858,-28.32792941758213
0.947265625,45.725690000639666,-28.383349575924353
0.951171875,45.56240494654739,-28.438825838804238
0.955078125,45.39860461997858,-28.494356231768347
0.958984375,45.23429087205217,-28.54993877553398
0.962890625,45.069465559808094,-28.605571486027134
0.966796875,44.90413054618605,-28.66125237442059
0.970703125,44.738287700004264,-28.716979447172083
0.974609375,44.571938895938054,-28.772750706062578
0.978515625,44.40508601449843,-28.828564148234637
0.982421875,44.23773094201049,-28.8844177662309
0.986328125,44.06987557059181,-28.94030954803265
0.990234375,43.90152179813073,-28.996237477098486
0.9941406249999993,43.732671528264525,-29.052199532403044
0.9980468750000006,43.563326670357384,-29.108193688475957
