0.0019531249999999807,61.90266426308238,-22.236707110343122
0.005859374999999951,61.90196533891243,-22.236966365096297
0.009765624999999972,61.90056749842812,-22.23748486589841
0.013671874999999983,61.89847075734053,-22.238262595341144
0.01757812499999995,61.89567513921612,-22.23929952731244
0.021484374999999965,61.892180675476396,-22.24059562699699
0.025390624999999986,61.88798740539767,-22.242150850876886
0.029296875,61.8830953761106,-22.24396514673246
0.03320312499999997,61.87750464259972,-22.24603845364325
0.037109374999999944,61.871215267702844,-22.248370701989185
0.04101562499999997,61.86422732211043,-22.250961813451863
0.04492187500000002,61.85654088436485,-22.253811701016065
0.04882812499999995,61.848156040859536,-22.256920268971392
0.05273437499999997,61.83907288583814,-22.26028741291406
0.056640625,61.82929152139348,-22.263913019748905
0.06054687499999995,61.818812057466516,-22.2677969676915
0.064453125,61.80763461184522,-22.271939126270464
0.068359375,61.79575931016328,-22.276339356329938
0.072265625,61.78318628589888,-22.28099751003222
0.07617187499999992,61.769915680373224,-22.285913430860543
0.08007812499999996,61.75594764274913,-22.29108695362207
0.08398437499999992,61.74128233002943,-22.296517904450983
0.08789062499999996,61.72591990705532,-22.302206100811805
0.09179687500000001,61.70986054650472,-22.308151351502836
0.09570312499999988,61.69310442889036,-22.31435345665978
0.09960937499999997,61.67565174255799,-22.32081220775952
0.10351562500000007,61.65750268368435,-22.32752738762408
0.107421875,61.63865745627517,-22.334498770424712
0.11132812499999996,61.619116272163005,-22.341726121686193
0.11523437499999989,61.598879351005046,-22.349209198291256
0.11914062500000011,61.57794692028081,-22.35694774848518
0.123046875,61.55631921528977,-22.36494151188057
0.12695312500000003,61.5339964791489,-22.37319021946229
0.1308593749999999,61.510978962790126,-22.381693593592534
0.13476562500000008,61.487266924957716,-22.390451348016104
0.13867187499999997,61.46286063220558,-22.399463187865813
0.1425781249999998,61.437760358894465,-22.40872880966808
0.14648437500000006,61.41196638718909,-22.418247901348675
0.1503906250000001,61.385479007055196,-22.42802014223861
0.15429687499999986,61.35829851625655,-22.438045203080232
0.15820312499999994,61.33042522035178,-22.44832274603345
0.1621093749999999,61.301859432691195,-22.458852424682128
0.16601562499999994,61.272601474413506,-22.469633884040647
0.16992187500000006,61.24265167444249,-22.480666760560627
0.17382812500000003,61.212010369483515,-22.491950682137816
0.17773437500000017,61.18067790402002,-22.50348526811913
0.18164062499999975,61.14865463030994,-22.515270129309876
0.185546875,61.115940908381944,-22.5273048679811
0.18945312499999983,61.082537106031765,-22.53958907787714
0.19335937499999978,61.04844359881825,-22.55212234422331
0.19726562500000033,61.013660770059495,-22.56490424373377
0.201171875,60.97818901082879,-22.57793434461953
0.20507812499999986,60.94202871995052,-22.59121220659663
0.20898437500000017,60.905180303996,-22.6047373808945
0.212890625,60.86764417727919,-22.618509410264434
0.21679687499999986,60.829420761852376,-22.63252782898828
0.220703125,60.790510487501706,-22.646792162887248
0.22460937500000003,60.75091379174271,-22.661301929330904
0.228515625,60.710631119815694,-22.676056637246305
0.23242187499999953,60.66966292468105,-22.69105578712731
0.23632812500000044,60.6280096670145,-22.70629887104407
0.24023437499999992,60.58567181520233,-22.721785372652597
0.24414062499999997,60.54264984533633,-22.737514767204615
0.24804687499999967,60.498944241208896,-22.753486521557473
0.2519531250000002,60.454555494307904,-22.76970009418425
0.255859375,60.409484103811565,-22.786154935184026
0.2597656250000001,60.36373057658312,-22.802850486292314
0.26367187499999994,60.31729542716558,-22.819786180891644
0.26757812500000006,60.270179177776235,-22.83696144402229
0.27148437500000017,60.222382358301196,-22.85437569239319
0.27539062499999983,60.17390550628982,-22.872028334393
0.279296875,60.12474916694902,-22.88991877010131
0.28320312500000006,60.07491389313754,-22.908046391300037
0.28710937500000017,60.02440024536011,-22.92641058148493
0.2910156249999997,59.97320879176156,-22.945010715877302
0.29492187500000006,59.921340108120766,-22.96384616143586
0.298828125,59.86879477784468,-22.982916276868707
0.302734375,59.81557339196204,-23.002220412645524
0.306640625,59.76167654911726,-23.021757911009892
0.31054687500000017,59.707104855564005,-23.04152810599177
0.3144531249999998,59.65185892515884,-23.06153032342012
0.318359375,59.59593937935472,-23.08176388093573
0.32226562500000017,59.53934684719443,-23.10222808800413
0.3261718749999999,59.48208196530393,-23.12292224592872
0.330078125,59.4241453778856,-23.14384564786404
0.333984375,59.36553773671147,-23.164997578829162
0.337890625,59.30625970111625,-23.186377315721284
0.341796875,59.24631193799041,-23.207984127329446
0.345703125,59.185695121773094,-23.229817274348427
0.349609375,59.12440993444494,-23.251876009392777
0.353515625,59.0624570655209,-23.274159577011005
0.357421875,58.99983721204289,-23.29666721369994
0.361328125,58.93655107857242,-23.31939814791922
0.365234375,58.87259937718308,-23.342351600105953
0.369140625,58.807982827453024,-23.365526782689532
0.373046875,58.74270215645729,-23.388922900106586
0.376953125,58.676758098760104,-23.412539148816105
0.380859375,58.61015139640704,-23.43637471731471
0.3847656250000005,58.54288279891714,-23.46042878615207
0.3886718749999995,58.47495306327501,-23.484700527946465
0.392578125,58.406362953922574,-23.50918910740055
0.396484375,58.33711324275118,-23.53389368131719
0.400390625,58.26720470909321,-23.558813398615502
0.404296875,58.19663813971383,-23.583947400347057
0.408203125,58.125414328802606,-23.60929481971219
0.412109375,58.05353407796503,-23.63485478207649
0.416015625,57.98099819621397,-23.660626404987447
0.419921875,57.907807499961024,-23.6866087981912
0.423828125,57.83396281300783,-23.712801063649515
0.427734375,57.75946496653726,-23.73920229555684
0.431640625,57.68431479910451,-23.76581158035755
0.435546875,57.608513156628185,-23.792627996763326
0.439453125,57.5320608923812,-23.81965061577069
0.443359375,57.45495886698171,-23.84687850067868
0.447265625,57.37720794838385,-23.874310707106684
0.451171875,57.29880901186846,-23.901946283012414
0.455078125,57.219762940033704,-23.92978426871003
0.458984375,57.14007062278564,-23.95782369688841
0.462890625,57.059732957328656,-23.986063592629588
0.466796875,56.978750848155826,-24.014502973427277
0.470703125,56.897125207039245,-24.04314084920563
0.474609375,56.81485695302023,-24.071976222338076
0.478515625,56.731947012399445,-24.10100808766631
0.482421875,56.64839631872693,-24.13023543251948
0.4863281249999999,56.564205812792125,-24.159657236733448
0.49023437500000006,56.47937644261367,-24.189272472670257
0.494140625,56.3939091634293,-24.21908010523769
0.498046875,56.30780493768548,-24.249079091909024
0.501953125,56.221064735027106,-24.279268382742895
0.505859375,56.133689532287015,-24.309646920403313
0.509765625,56.04568031347548,-24.34021364017982
0.513671875,55.95703806976962,-24.370967470007802
0.517578125,55.86776379950264,-24.40190733048894
0.521484375,55.77785850815315,-24.43303213491178
0.525390625,55.68732320833425,-24.46434078927248
0.529296875,55.596158919782596,-24.49583219229568
0.533203125,55.50436666934739,-24.527505235455518
0.537109375,55.41194749097931,-24.559358802996773
0.541015625,55.31890242571926,-24.59139177195618
0.544921875,55.225232521687175,-24.623603012183846
0.548828125,55.13093883407063,-24.65599138636485
0.552734375,55.03602242511342,-24.688555750040937
0.556640625,54.94048436410408,-24.721294951632377
0.560546875,54.84432572736423,-24.754207832459976
0.564453125,54.747547598236984,-24.787293226767186
0.568359375,54.65015106707512,-24.82054996174239
0.5722656250000008,54.55213723122928,-24.853976857541316
0.5761718749999993,54.45350719503614,-24.88757272730953
0.580078125,54.35426206980611,-24.92133637720524
0.583984375,54.2544029738117,-24.95526660642196
0.587890625,54.153931032274976,-24.989362207211595
0.591796875,54.05284737735552,-25.02362196490746
0.595703125,53.951153148138026,-25.058044657947526
0.599609375,53.84884949061995,-25.092629057897803
0.603515625,53.74593755769895,-25.127373929475805
0.607421875,53.64241850916041,-25.162278030574203
0.6113281250000007,53.538293511664676,-25.197340112284596
0.6152343749999993,53.43356373873453,-25.232558918921363
0.619140625,53.32823037074203,-25.26793318804579
0.623046875,53.222294594896034,-25.303461650490128
0.626953125,53.11575760522893,-25.339143030381955
0.630859375,53.0086206025837,-25.3749760451686
0.634765625,52.90088479460076,-25.41095940564169
0.638671875,52.79255139570479,-25.447091815961848
0.642578125,52.68362162709136,-25.483371973683518
0.646484375,52.57409671671365,-25.51979856977992
0.650390625,52.463977899268905,-25.556370288668123
0.654296875,52.35326641618497,-25.593085808234278
0.658203125,52.24196351560665,-25.62994379985895
0.662109375,52.13007045238201,-25.66694292844258
0.666015625,52.01758848804859,-25.7040818524311
0.669921875,51.90451889081959,-25.741359223841656
0.6738281249999999,51.79086293556991,-25.778773688288453
0.6777343750000066,51.676621903821925,-25.81632388500882
0.6816406249999938,51.56179708373258,-25.854008446888923
0.685546875,51.44638977007634,-25.89182600049094
0.689453125,51.33040126423472,-25.929775166078194
0.693359375,51.21383287417914,-25.96785455764255
0.697265625,51.09668591445763,-26.006062782930652
0.701171875,50.97896170618016,-26.044398443470737
0.705078125,50.860661577004066,-26.082860134599485
0.708984375,50.7417868611194,-26.121446445489
0.712890625,50.622338899234215,-26.160155959173917
0.716796875,50.50231903855975,-26.198987252578632
0.720703125,50.38172863279552,-26.237938896544648
0.724609375,50.26056904211443,-26.27700945585805
0.728515625,50.13884163314764,-26.316197489277105
0.732421875,50.01654777896952,-26.355501549559953
0.736328125,49.89368885908239,-26.394920183492477
0.740234375,49.77026625940131,-26.434451931916225
0.744140625,49.64628137223866,-26.474095329756505
0.748046875,49.52173559628878,-26.51384890605056
0.751953125,49.396630336612375,-26.553711183975892
0.755859375,49.27096700462102,-26.593680680878695
0.759765625,49.14474701806143,-26.633755908302383
0.763671875,49.01797180099974,-26.673935372016278
0.767578125,48.89064278380568,-26.714217572044365
0.771484375,48.76276140313671,-26.75460100269421
0.775390625,48.634329101921985,-26.79508415258596
0.779296875,48.50534732934639,-26.835665504681476
0.783203125,48.37581754083434,-26.876343536313566
0.787109375,48.2457411980336,-26.917116719215358
0.791015625,48.115119768799026,-26.95798351954975
0.794921875,47.98395472717618,-26.998942397939008
0.798828125,47.85224755338494,-27.039991809494456
0.802734375,47.719999733802936,-27.081130203846282
0.806640625,47.58721276094902,-27.122356025173463
0.810546875,47.45388813346657,-27.163667712233785
0.814453125,47.320027356106785,-27.205063698394007
0.818359375,47.185631939711854,-27.246542411660084
0.822265625,47.05070340119807,-27.288102274707548
0.826171875,46.9152432635389,-27.329741704911974
0.830078125,46.7792530557479,-27.371459114379565
0.833984375,46.64273431286168,-27.41325290997782
0.837890625,46.50568857592263,-27.455121493366356
0.841796875,46.36811739196174,-27.49706326102779
0.845703125,46.23002231398121,-27.53907660429876
0.849609375,46.0914049009371,-27.581159909401034
0.853515625,45.95226671772179,-27.623311557472736
0.857421875,45.81260933514647,-27.665529924599667
0.861328125,45.6724343299235,-27.70781338184674
0.865234375,45.5317432846487,-27.750160295289508
0.869140625,45.390537787783586,-27.792569026045815
0.873046875,45.24881943363753,-27.83503793030752
0.876953125,45.10658982234981,-27.877565359372362
0.880859375,44.96385055987167,-27.920149659675886
0.884765625,44.8206032579482,-27.962789172823495
0.888671875,44.67684953410023,-28.005482235622612
0.892578125,44.532591011606115,-28.048227180114914
0.896484375,44.38782931948347,-28.091022333608677
0.900390625,44.24256609247079,-28.13386601871124
0.904296875,44.096802971009026,-28.176756553361543
0.908203125,43.950541601223144,-28.219692250862757
0.912109375,43.80378363490347,-28.262671419915055
0.916015625,43.65653072948714,-28.305692364648433
0.919921875,43.50878454803934,-28.34875338465564
0.923828125,43.36054675923454,-28.391852775025235
0.927734375,43.211819037337655,-28.43498882637468
0.931640625,43.062603062185126,-28.478159824883598
0.935546875,42.91290051916592,-28.521364052327062
0.939453125,42.7627130992025,-28.564599786109017
0.943359375,42.61204249873165,-28.607865299295792
0.947265625,42.46089041968532,-28.651158860649673
0.951171875,42.30925856947137,-28.694478734662617
0.955078125,42.157148660954206,-28.737823181590016
0.958984375,42.00456241243538,-28.78119045748458
0.962890625,41.85150154763414,-28.82457881423029
0.966796875,41.6979677956679,-28.867986499576446
0.970703125,41.54396289103259,-28.91141175717182
0.974609375,41.38948857358304,-28.95485282659888
0.978515625,41.234546588513176,-28.998307943408115
0.982421875,41.079138686336286,-29.041775339152416
0.986328125,40.92326662286508,-29.085253241421604
0.990234375,40.766932159191796,-29.12873987387698
0.9941406249999993,40.6101370616682,-29.172233456286
0.9980468750000006,40.45288310188534,-29.21573220455707
