0.003906250000000004,77.25228793620767,-15.233871005615665
0.01171875,77.24882677657399,-15.23573056577957
0.01953125,77.24190459303176,-15.23944949060707
0.02734375,77.23152165703982,-15.245027389106816
0.03515625000000001,77.21767837580806,-15.252463674814958
0.042968750000000014,77.20037529232332,-15.261757565822979
0.05078125,77.17961308538383,-15.272908084814807
0.058593749999999986,77.15539256964233,-15.285914059113253
0.06640625000000001,77.12771469565745,-15.300774120735777
0.07421875000000001,77.09658054995374,-15.317486706459615
0.08203125000000003,77.06199135508993,-15.336050057896289
0.08984374999999999,77.02394846973537,-15.356462221575555
0.09765624999999997,76.98245338875482,-15.378721049038795
0.10546875,76.93750774330111,-15.402824196941927
0.11328124999999999,76.88911330091581,-15.428769127167849
0.12109375000000003,76.83727196563774,-15.456553106948503
0.12890625,76.78198577811902,-15.486173208996568
0.13671875000000006,76.72325691574879,-15.517626311646904
0.14453124999999994,76.66108769278411,-15.550909099007713
0.15234375000000006,76.59548056048814,-15.586018061121598
0.16015625,76.5264381072754,-15.622949494136495
0.16796874999999992,76.45396305886358,-15.661699500486593
0.17578125000000006,76.37805827843229,-15.70226398908332
0.18359374999999997,76.29872676678794,-15.74463867551646
0.19140624999999994,76.21597166253497,-15.788819082265489
0.19921875,76.12979624225295,-15.83480053892122
0.20703125,76.04020392067943,-15.88257818241785
0.21484375000000003,75.94719825089831,-15.932146957275481
0.22265624999999997,75.8507829245333,-15.983501615853239
0.23046874999999992,75.75096177194654,-16.036636718613067
0.23828125000000008,75.64773876244163,-16.091546634394298
0.24609375,75.54111800447144,-16.148225540699126
0.25390625,75.43110374584967,-16.20666742398905
0.26171875,75.31770037396645,-16.26686607999243
0.26953125,75.20091241600743,-16.32881511402326
0.27734375,75.0807445391761,-16.392507941311244
0.28515625000000017,74.95720155091898,-16.457937787343315
0.2929687499999998,74.83028839915339,-16.52509768821672
0.30078125,74.70001017249746,-16.59398049100377
0.3085937499999998,74.56637210050215,-16.664578854128347
0.31640625000000017,74.42937955388473,-16.736885247754387
0.32421875,74.28903804476356,-16.810891954186335
0.33203125,74.14535322689366,-16.886591068281785
0.33984375,73.99833089590294,-16.963974497876404
0.34765625,73.84797698952843,-17.043033964221223
0.35546875,73.69429758785246,-17.12376100243253
0.36328125,73.53729891353802,-17.206146961954328
0.37109375,73.37698733206348,-17.290183007033644
0.3789062499999997,73.21336935195565,-17.37586011720873
0.3867187500000002,73.04645162502132,-17.463169087810297
0.39453125,72.87624094657671,-17.552100530475858
0.40234375,72.70274425567418,-17.642644873677483
0.41015625,72.5259686353263,-17.734792363262837
0.41796875,72.34592131272655,-17.82853306300983
0.42578125,72.1626096594663,-17.923856855194902
0.4335937499999999,71.97604119174775,-18.020753441175117
0.44140625000000017,71.78622357059233,-18.119212341984145
0.44921875,71.59316460204425,-18.219222898942252
0.45703125,71.39687223736883,-18.320774274280517
0.46484375,71.19735457324497,-18.42385545177921
0.47265625,70.99461985195164,-18.528455237420644
0.48046875,70.78867646154796,-18.634562260056466
0.48828125,70.5795329360461,-18.74216497208957
0.49609375,70.36719795557711,-18.85125165017076
0.50390625,70.15168034654903,-18.961810395910206
0.51171875,69.93298908179666,-19.07382913660384
0.51953125,69.7111332807232,-19.187295625974787
0.52734375,69.48612220943254,-19.302197444929938
0.53515625,69.25796528085262,-19.41852200233175
0.54296875,69.02667205484892,-19.536256535785363
0.55078125,68.79225223832782,-19.655388112441152
0.55859375,68.55471568532961,-19.775903629812756
0.56640625,68.31407239711055,-19.897789816610707
0.57421875,68.07033252221368,-20.021033233591726
0.58203125,67.82350635652804,-20.145620274423745
0.58984375,67.57360434333599,-20.271537166566763
0.59765625,67.3206370733479,-20.39876997216956
0.60546875,67.0646152847244,-20.527304588982375
0.61328125,66.80554986308539,-20.657126751285563
0.62109375,66.54345184150564,-20.788222030834337
0.62890625,66.27833240049664,-20.920575837819598
0.63671875,66.01020286797417,-21.05417342184492
0.64453125,65.73907471921159,-21.188999872919737
0.65234375,65.46495957677821,-21.325040122468756
0.66015625,65.18786921046264,-21.462278944357614
0.6679687499999999,64.90781553718044,-21.60070095593484
0.67578125,64.62481062086643,-21.740290619090114
0.68359375,64.33886667235053,-21.88103224132885
0.6914062500000002,64.04999604921751,-22.022909976863087
0.6992187500000002,63.75821125564996,-22.165907827718737
0.70703125,63.46352494225447,-22.310009644859154
0.71484375,63.165949905870455,-22.45519912932503
0.72265625,62.86549908936162,-22.601459833390603
0.73046875,62.56218558138973,-22.748775161736116
0.73828125,62.256022616170334,-22.897128372636615
0.74609375,61.94702357321039,-23.046502579166923
0.75390625,61.635201977027364,-23.196880750422828
0.76171875,61.32057149684977,-23.34824571275845
0.76953125,61.0031459462988,-23.500580151039664
0.77734375,60.682939283050914,-23.653866609913624
0.78515625,60.3599656084812,-23.80808749509424
0.79296875,60.03423916728729,-23.963225074663608
0.80078125,59.70577434709371,-24.119261480389255
0.80859375,59.37458567803641,-24.276178709057177
0.81640625,59.040687832327485,-24.433958623820548
0.82421875,58.70409562379977,-24.592582955564026
0.83203125,58.36482400743132,-24.752033304283533
0.83984375,58.022888078849554,-24.91229114048144
0.84765625,57.678303073815066,-25.073337806577015
0.85546875,57.33108436768488,-25.235154518332028
0.86328125,56.981247474855195,-25.397722366291383
0.87109375,56.628808048183416,-25.56102231723867
0.87890625,56.27378187838955,-25.72503521566647
0.88671875,55.91618489343678,-25.889741785261283
0.89453125,55.55603315789127,-26.055122630402927
0.90234375,55.19334287226115,-26.22115823767828
0.91015625,54.82813037231463,-26.387828977409164
0.91796875,54.4604121283773,-26.555115105194204
0.92578125,54.09020474460854,-26.722996763464558
0.93359375,53.717524958257194,-26.891453983053246
0.94140625,53.342389638896314,-27.060466684777946
0.94921875,52.9648157876373,-27.230014681037073
0.95703125,52.584820536323235,-27.40007767741892
0.96484375,52.20242114670163,-27.570635274323678
0.97265625,51.81763500957658,-27.74166696859809
0.98046875,51.43047964394047,-27.913152155182615
0.98828125,51.040972696085326,-28.085070128770777
0.99609375,50.64913193869382,-28.25740008548055
